http://www.absoluteanime.com/special_a/hikari[2].jpg
http://images4.fanpop.com/image/photos/22800000/Hikari-hikari-hanazono-special-a-22803286-842-479.jpg
http://images4.fanpop.com/image/photos/22800000/Hikari-hikari-hanazono-special-a-22803288-842-479.jpg
http://images4.fanpop.com/image/photos/19600000/Hikari-dawn-hikari-19668983-640-480.jpg
http://images4.fanpop.com/image/photos/21700000/Hikari-Hanazono-special-a-21726772-704-396.jpg
http://images4.fanpop.com/image/photos/22800000/Hikari-hikari-hanazono-special-a-22802729-851-479.jpg
http://images4.fanpop.com/image/photos/22800000/Hikari-hikari-hanazono-special-a-22803275-842-479.jpg
http://images4.fanpop.com/image/photos/22800000/Hikari-hikari-hanazono-special-a-22803194-852-479.jpg
http://images6.fanpop.com/image/photos/32300000/Hikari-dawn-hikari-32359658-1277-720.jpg
http://images4.fanpop.com/image/photos/21700000/Hikari-Hanazono-special-a-21726753-704-396.jpg
http://images6.fanpop.com/image/photos/32300000/Hikari-w-swimsuit-dawn-hikari-32359056-800-433.png
http://images4.fanpop.com/image/photos/22800000/Hikari-hikari-hanazono-special-a-22803271-852-479.jpg
http://images4.fanpop.com/image/photos/18000000/Dawn-dawn-hikari-18074274-640-480.jpg
http://images4.fanpop.com/image/photos/21700000/Hikari-Hanazono-kei-and-hikari-21757700-704-396.jpg
http://images4.fanpop.com/image/photos/22800000/Hikari-hikari-hanazono-special-a-22802921-852-479.jpg
http://images4.fanpop.com/image/photos/21700000/Hikari-Hanazono-special-a-21726528-704-396.jpg
http://images5.fanpop.com/image/photos/27300000/Hikari-3-dawn-hikari-27301029-600-496.jpg
http://images4.fanpop.com/image/photos/21000000/Hikari-dawn-hikari-21083517-650-488.jpg
http://images4.fanpop.com/image/photos/19000000/Dawn-dawn-hikari-19063390-640-480.jpg
http://images4.fanpop.com/image/photos/22800000/Hikari-hikari-hanazono-special-a-22802750-851-479.jpg
http://fc02.deviantart.net/fs71/f/2012/199/1/9/pokemon_dawn_hikari_compilation_by_frozn1991-d57o0em.jpg
http://images4.fanpop.com/image/photos/22800000/Hikari-hikari-hanazono-special-a-22802923-852-479.jpg
http://images4.fanpop.com/image/photos/22700000/Hikari-hikari-hanazono-special-a-22755144-842-479.jpg
http://images4.fanpop.com/image/photos/21700000/Hikari-Hanazono-special-a-21726749-704-396.jpg
http://images4.fanpop.com/image/photos/21000000/Hikari-dawn-hikari-21083479-1024-768.jpg
http://images4.fanpop.com/image/photos/21700000/Hikari-Hanazono-kei-and-hikari-21757702-704-396.jpg
http://images4.fanpop.com/image/photos/22800000/Hikari-hikari-hanazono-special-a-22803202-852-479.jpg
http://i406.photobucket.com/albums/pp146/Animebex/Special%20A/Hikari19.png
http://images2.fanpop.com/images/photos/5000000/Hikari-Kei-special-a-5086881-1280-800.jpg
http://images2.fanpop.com/image/photos/13900000/Dawn-dawn-hikari-13965113-792-596.jpg
http://images4.fanpop.com/image/photos/21700000/Hikari-Hanazono-special-a-21726769-704-396.jpg
http://3.bp.blogspot.com/-PcQKVgfgeAo/Tcw3JdGXSvI/AAAAAAAAA1k/aZLvCoGgCJg/s1600/hikari-1.png
http://images4.fanpop.com/image/photos/21000000/Hikari-dawn-hikari-21083446-640-480.jpg
http://images4.fanpop.com/image/photos/21700000/Hikari-Hanazono-special-a-21726738-704-396.jpg
http://www.absoluteanime.com/special_a/hikari[3].jpg
http://images2.fanpop.com/image/photos/13900000/Dawn-dawn-hikari-13965118-311-369.jpg
http://images4.fanpop.com/image/photos/23700000/Hikari-dawn-hikari-23792558-600-800.jpg
http://images5.fanpop.com/image/photos/27300000/Hikari-3-dawn-hikari-27301025-600-487.jpg
http://i732.photobucket.com/albums/ww324/janesenete/hikari.jpg
http://images4.fanpop.com/image/photos/21700000/Hikari-Hanazono-anime-girls-21757480-704-396.jpg
http://images2.fanpop.com/images/photos/7400000/True-Hikari-dawn-hikari-7443411-1200-1000.jpg
http://images3.wikia.nocookie.net/__cb20120519100106/speciala/images/e/ee/Hikari.png
http://2.bp.blogspot.com/-WxvpTcApD7U/T9rBRX9W3hI/AAAAAAAADaI/Rj1pfUQL_Ng/s1600/kei2.jpg
http://images4.fanpop.com/image/photos/21700000/Hikari-Hanazono-special-a-21726729-704-396.jpg
http://images3.wikia.nocookie.net/__cb20130116233858/onepiece/images/4/47/Nami_portrait-Hikari_e.png
http://images4.fanpop.com/image/photos/22800000/Hikari-x-Kei-kei-and-hikari-22803399-852-479.jpg
http://images4.fanpop.com/image/photos/21700000/Hikari-Hanazono-anime-girls-21757445-704-396.jpg
http://images4.fanpop.com/image/photos/23700000/Hikari-dawn-hikari-23792505-400-450.jpg
http://images2.fanpop.com/image/photos/11000000/DAWN-dawn-hikari-11061619-640-480.gif
http://www.jpopasia.com/img/album-covers/1/5755-hikari-dkgx.jpg
http://images5.fanpop.com/image/photos/27300000/Hikari-3-dawn-hikari-27301096-555-600.jpg
http://3.bp.blogspot.com/--EKhKQCv9fs/T9q9-ci739I/AAAAAAAADZU/SkRB9qDH-t8/s1600/kei5.jpg
http://images5.fanpop.com/image/photos/27300000/Hikari-3-dawn-hikari-27301126-580-790.jpg
http://images2.fanpop.com/images/photos/2600000/Hikari-Hanazono-special-a-2675117-1024-768.jpg
http://i248.photobucket.com/albums/gg162/XxtmntpkmnfreakxX/Pokemon/Hikari%20Dawn/Hikari_dawn.png
http://i387.photobucket.com/albums/oo319/Hikari-A/Hikari283.jpg
http://fc04.deviantart.net/fs71/f/2013/160/3/7/colored__pokemon___maya__hikari__by_setsunakute_ii-d68fww6.png
http://fc03.deviantart.net/fs71/i/2011/336/4/4/dawn_hikari_maya_by_songokukai-d4hvaqk.png
http://images6.fanpop.com/image/photos/32300000/Hikari-Haruka-dawn-hikari-32359561-640-480.jpg
http://i27.mangareader.net/hikari/3/hikari-1102218.jpg
http://i.ytimg.com/vi/BRcpE_q_qyo/hqdefault.jpg
http://fc01.deviantart.net/fs70/i/2012/244/c/1/hikari_and_iris_by_kurumierika-d5d84r5.png
http://images4.fanpop.com/image/photos/23700000/Dawn-Hikari-pokemon-23788886-493-407.png
http://images4.fanpop.com/image/photos/21700000/Kei-Hikari-kei-and-hikari-21758398-704-396.jpg
http://images5.fanpop.com/image/photos/27400000/Hikari-3-pokemon-27419209-600-691.jpg
http://images4.fanpop.com/image/photos/23700000/Hikari-dawn-hikari-23792556-660-933.jpg
http://images4.fanpop.com/image/photos/22800000/Hikari-x-Kei-kei-and-hikari-22803358-852-479.jpg
http://fc04.deviantart.net/fs71/i/2010/303/a/2/hikari_hanazono_san_by_hanazono1-d31umoi.png
http://images4.fanpop.com/image/photos/21700000/Kei-Hikari-kei-and-hikari-21758493-704-396.jpg
http://images4.fanpop.com/image/photos/17800000/Dawn-dawn-hikari-17817645-400-300.jpg
http://images4.fanpop.com/image/photos/23700000/Dawn-Hikari-pokemon-23788913-538-403.png
http://fc00.deviantart.net/fs71/i/2010/332/3/0/hikari_dawn_by_zeroxis-d33s83w.png
http://fc05.deviantart.net/fs71/i/2010/129/e/d/Hikari_waving_by_hikari_chan1.jpg
http://images4.fanpop.com/image/photos/21700000/Kei-Takishima-kei-and-hikari-21757962-704-396.jpg
http://fc02.deviantart.net/fs71/i/2012/289/2/b/dawn_hikari_by_chrisemerald_chaos_z-d5hykvn.png
http://i16.photobucket.com/albums/b39/BKey/Anime/hanazono_hikari.jpg
http://images.wikia.com/sekirei/images/e/ee/Hikari.png
http://fc08.deviantart.net/fs70/i/2011/224/c/f/hikari_pokemon_by_kazuyo49-d46asmf.jpg
http://images4.fanpop.com/image/photos/22800000/Hikari-x-Kei-kei-and-hikari-22803454-842-479.jpg
http://2.bp.blogspot.com/-rPmEVn5vWfg/T9rBNzIAZoI/AAAAAAAADZ4/L7zxRDbaqt8/s1600/kei.jpg
http://fc09.deviantart.net/fs71/i/2012/342/2/7/hikari___cosplay_by_kurumierika-d5nfbq2.png
http://th04.deviantart.net/fs71/PRE/i/2012/164/7/8/hikari_ii___pokemon_by_kurumierika-d53ekkd.png
http://i724.photobucket.com/albums/ww244/xokuchaxo/hikari5.jpg
http://images4.fanpop.com/image/photos/22800000/Hikari-x-Kei-kei-and-hikari-22803367-852-479.jpg
http://images6.fanpop.com/image/photos/32200000/Hikari-s-pokemon-32239269-850-680.jpg
http://images2.fanpop.com/image/photos/10700000/Hecho-en-MEXICO-dawn-hikari-10762321-2000-2000.jpg
http://images4.fanpop.com/image/photos/23900000/Dawn-Hikari-pokemon-23927978-1152-864.jpg
http://images4.fanpop.com/image/photos/21000000/Hikari-dawn-hikari-21083452-604-453.jpg
http://images4.fanpop.com/image/photos/23900000/Dawn-Hikari-pokemon-23927735-400-300.jpg
http://cosmopika.ca/pokemon%20hikari/ed8ef72b%5B1%5D.jpg
http://images6.fanpop.com/image/photos/32200000/Hikari-Wallpaper-pokemon-32239278-1024-768.jpg
http://www.pokemonespace.com/anime/biographies/img/bios_hikari_2.jpg
http://images5.fanpop.com/image/photos/27300000/Hikari-3-dawn-hikari-27301116-631-800.jpg
http://i284.photobucket.com/albums/ll35/TK-no1/Hino%20Hikari/1.jpg
http://www.testriffic.com/resultfiles/60151140815909_OnLyDancer-1.jpg
http://3.bp.blogspot.com/_nkZeVlQ-uG4/TPAdc5xjSMI/AAAAAAAAAmA/nYiz0KFU0Go/s1600/__Sexi_Hikari___by_Aminako.jpg
http://i665.photobucket.com/albums/vv19/Carlos_Reiven/Pokemon/Hikari%20Pokemon/Hikari_more_kawaii_by_shadsonic2.jpg
http://cdn.myanimelist.net/images/characters/4/110073.jpg
http://wiki.evageeks.org/images/thumb/0/09/OP_C060_hikari.jpg/260px-OP_C060_hikari.jpg
http://images4.fanpop.com/image/photos/23900000/Dawn-Hikari-pokemon-23927833-640-480.png
http://3.bp.blogspot.com/-L8Ng4BSEd50/UVbcbH1Wm2I/AAAAAAAAAUI/LEKcCCAR1Xo/s640/tumblr_lzwf155HRg1qc4978o1_500.jpg
http://www.tuttomanga.it/wp-content/uploads/2012/02/Hikari-Hanazono-special-A-5.png
http://images4.fanpop.com/image/photos/22800000/Hikari-hikari-hanazono-special-a-22802772-851-479.jpg
http://images4.fanpop.com/image/photos/21000000/Hikari-dawn-hikari-21083516-600-465.jpg
http://images4.fanpop.com/image/photos/22800000/Hikari-hikari-hanazono-special-a-22803195-852-479.jpg
http://2.bp.blogspot.com/_mL74gvvafpo/TLMpOtJKj_I/AAAAAAAAE-0/DTiTSgeu3RE/s1600/24.jpg
http://images5.fanpop.com/image/photos/27300000/Hikari-3-dawn-hikari-27301129-375-500.jpg
http://images4.fanpop.com/image/photos/21100000/Hikari-dawn-hikari-21147014-525-407.png
http://pics.wikifeet.com/Hikari-Yamaguchi-Feet-530866.jpg
http://images4.fanpop.com/image/photos/21100000/Dawn-dawn-hikari-21110642-602-867.jpg
http://4.bp.blogspot.com/_hJVox6-vy_4/TULYjc62CKI/AAAAAAAAJR8/qg8-_IFKyNA/s1600/Hikari+Yamaguchi+playful+gym+class13.jpg
http://images2.fanpop.com/image/photos/9200000/Paul-and-Dawn-dawn-hikari-9276063-900-843.jpg
http://images4.fanpop.com/image/photos/21700000/Hikari-Hanazono-kei-and-hikari-21757686-704-396.jpg
http://images4.fanpop.com/image/photos/22800000/Hikari-hikari-hanazono-special-a-22803270-852-479.jpg
http://images4.fanpop.com/image/photos/22800000/Hikari-hikari-hanazono-special-a-22803105-852-479.jpg
http://desertheart.files.wordpress.com/2007/12/hikari_cd.jpg
http://3.bp.blogspot.com/_hJVox6-vy_4/TULYi43v7iI/AAAAAAAAJR0/Vv3rllRCJ-Y/s1600/Hikari+Yamaguchi+playful+gym+class14.jpg
http://i341.photobucket.com/albums/o390/LuvsHikari39/Special%20A/Hikari3.jpg
http://images5.fanpop.com/image/photos/24700000/Kei-x-Hikari-special-a-24717020-1024-768.jpg
http://blogphilic.files.wordpress.com/2011/08/hotaru2.jpg
http://img.photobucket.com/albums/v297/Yurichan/Hikari/Hikari%20Screenshots/Episode%2019/EP19002.jpg
http://images4.fanpop.com/image/photos/23700000/Hikari-dawn-hikari-23792549-514-600.jpg
http://pics.wikifeet.com/Hikari-Yamaguchi-Feet-529562.jpg
http://media.screened.com/uploads/0/2793/161397-171418_hikari1_large_large.jpg
http://moetron.com/newfiles/20080510_hikari.jpg
http://www.sandg-anime-reviews.net/wp-content/uploads/2008/01/hikari1.jpg
http://i387.photobucket.com/albums/oo319/Hikari-A/1265947816824_f.jpg
http://images4.fanpop.com/image/photos/23700000/Hikari-dawn-hikari-23792547-571-800.jpg
http://images4.fanpop.com/image/photos/20300000/Dawn-dawn-hikari-20300799-575-808.png
http://2.bp.blogspot.com/-bsUQ4FScYUE/T6afCCodjeI/AAAAAAAABvM/z9VJ3wnM2-w/s1600/257_hikari_07-008.jpg
http://images5.fanpop.com/image/photos/26700000/Hikari-hikari-and-akemi-26747705-720-960.jpg
http://images4.fanpop.com/image/photos/21100000/Dawn-dawn-hikari-21110646-480-600.jpg
http://i482.photobucket.com/albums/rr188/ChibiSenseiChan/Hikari-Dress.jpg
http://rainlane.hudie.org/hikari_ishida035.jpg
http://images4.fanpop.com/image/photos/22800000/Hikari-hikari-hanazono-special-a-22803274-852-479.jpg
http://i955.photobucket.com/albums/ae33/Beaconshipping_FC/Hikari/hikari9.gif
http://images4.fanpop.com/image/photos/22800000/Hikari-hikari-hanazono-special-a-22803269-852-479.jpg
http://ichigo69.mayulive.com/images/misc/Facepalm/Hikari_Facepalm.png
http://images4.fanpop.com/image/photos/22800000/Hikari-hikari-hanazono-special-a-22802735-851-479.jpg
http://www.bobx.com/idol/hikari-iwaki/hikari-iwaki-02573535.jpg
http://images4.fanpop.com/image/photos/21700000/Hikari-Hanazono-special-a-21726529-704-396.jpg
http://4.bp.blogspot.com/-XGhm2kqtkto/Tuo_S4QkixI/AAAAAAAAACc/gwzjQcRoQ0o/s1600/hikari.jpg
http://images4.fanpop.com/image/photos/23700000/Hikari-dawn-hikari-23792502-400-450.jpg
http://images5.fanpop.com/image/photos/27300000/Hikari-3-dawn-hikari-27301113-570-764.jpg
http://static2.wikia.nocookie.net/__cb20120804155244/thecampione/images/3/31/Hikari_Mariya.png
http://www.bobx.com/idol/hikari-asano/hikari-asano.jpg
http://www.bobx.com/idol/hikari-yamaguchi/hikari-yamaguchi-02567859.jpg
http://images4.fanpop.com/image/photos/23700000/Hikari-dawn-hikari-23792506-600-380.jpg
http://images2.fanpop.com/images/photos/7400000/Dawn_Rose-dawn-hikari-7443472-670-1162.jpg
http://i955.photobucket.com/albums/ae33/Beaconshipping_FC/Hikari/hikari10.jpg
http://fc07.deviantart.net/fs70/i/2013/036/4/2/dawn_hikari___pajama_clothes___v2_by_krizeii-d5szm7m.png
http://1.bp.blogspot.com/-F5e6GEKt9-c/UcIo41JouxI/AAAAAAAAVcs/VirQ9NCYPr0/s1600/hikari-mochida-10.jpg
http://images4.fanpop.com/image/photos/23700000/Hikari-dawn-hikari-23792553-500-555.jpg
http://images4.fanpop.com/image/photos/21000000/Hikari-dawn-hikari-21083529-640-480.png
http://images6.fanpop.com/image/photos/33300000/Princess-Dawn-pokemon-dawn-hikari-33359147-720-404.jpg
http://images5.fanpop.com/image/photos/27400000/Hikari-3-pokemon-27419219-600-600.jpg
http://images4.fanpop.com/image/photos/22800000/Hikari-hikari-hanazono-special-a-22803198-852-479.jpg
http://images1.fanpop.com/images/photos/1400000/hikari-digimon-1481377-1024-768.jpg
http://img148.imageshack.us/img148/6968/hikari01ll0.jpg
http://images5.fanpop.com/image/photos/27300000/Hikari-3-dawn-hikari-27301107-600-535.jpg
http://ilarge.listal.com/image/3112285/968full-hikari-mitsushima.jpg
http://images4.fanpop.com/image/photos/23700000/Hikari-dawn-hikari-23792480-450-500.jpg
http://th02.deviantart.net/fs71/PRE/i/2010/195/8/e/___mmmm_______by_Hikari151.jpg
http://images4.fanpop.com/image/photos/22800000/Hikari-hikari-hanazono-special-a-22803119-852-479.jpg
http://i203.photobucket.com/albums/aa15/bump69911/Pokemon/Girls/hikari183.png
http://yasashiisekai.files.wordpress.com/2010/05/hotaru-no-hikari.jpg
http://fc00.deviantart.net/fs71/i/2012/049/9/f/hikari_and_kei__for_kiri__by_makeyo_kirishame-d4q6d0j.png
http://i222.photobucket.com/albums/dd18/thangkho_no1/Hino%20Hikari%202/5.jpg
http://myblogsux.files.wordpress.com/2010/05/hikari12.jpg
http://2.bp.blogspot.com/-OATd9j4UjW0/ThWNLpdTeEI/AAAAAAAAHjU/Maf2VtZUggg/s1600/p_hikari-a_01_010.jpg
http://fc08.deviantart.net/fs11/i/2006/182/c/7/Satoshi_x_Risa___Angel_Hikari__by_lems.jpg
http://asianforfun.files.wordpress.com/2013/12/968full-hikari-agarie.jpg
http://i496.photobucket.com/albums/rr325/Hikari_Platina/Hikari%20Dawn/12689104720011.jpg
http://images4.fanpop.com/image/photos/22800000/Hikari-x-Kei-kei-and-hikari-22803455-842-479.jpg
http://fc05.deviantart.net/fs71/i/2012/358/0/8/hikari_dawn_6_by_akakit-d58gn07.png
http://i222.photobucket.com/albums/dd18/thangkho_no1/Hino%20Hikari%202/3.jpg
http://i694.photobucket.com/albums/vv302/Hikari_Dawn_Maya/DawnyMay.png
http://www.bobx.com/idol/hikari-asano/hikari-asano-00669218.jpg
http://i189.photobucket.com/albums/z188/pokemongalge/hikari_test.png
http://media.mademan.com/chickipedia/uploaded_photos/0/08/hikari-mitsushima-q-q-q-138280_thumb_585x795.jpeg
http://i103.photobucket.com/albums/m145/Shade-Hikari/Hikari/Episode%2067/07.jpg
http://1.bp.blogspot.com/-Ua0O9pXTp9Q/T4jhrAF9gXI/AAAAAAAAEE4/jjvsyNshIWM/s1600/Kipi-Cosplay-Photography-002-as-Hikari-Konohana-.jpg
http://www.anime-planet.com/images/characters/hikari_horaki_10404.jpg
http://unshiuu.files.wordpress.com/2011/05/lan1.jpg
http://itsnottoobeautiful.com/wp-content/uploads/2013/01/Hikari-Shimoda_web9_its_not_too_beautiful.jpeg
http://i665.photobucket.com/albums/vv19/Carlos_Reiven/Pokemon/Hikari%20Pokemon/1393bed3fea08a09f822df3061b9e092c40.png
http://troislam.tripod.com/Hikari03.jpg
http://fc05.deviantart.net/fs49/f/2009/183/2/e/summer_and_love_time_by_HikariAngel85.png
http://www.fotosimagenes.org/imagenes/kari-kamiya-4.jpg
http://i665.photobucket.com/albums/vv19/Carlos_Reiven/Pokemon/Hikari%20Pokemon/575fe0a8d7518bd714372ddbf89062b2f72.jpg
http://th03.deviantart.net/fs70/PRE/i/2012/189/7/1/hikari_endless_summer181_by_kurumierika-d56gvge.png
http://fc02.deviantart.net/fs70/f/2012/068/a/d/hikari_tyl_by_xanastasia-d4s82of.png
http://stevebasu.net/cdn/Wallpapers/240x320/Cartoon/Pokemon_(Hikari)_(mobyet.com).jpg
http://fc06.deviantart.net/fs70/i/2012/183/1/3/hikari_and_amane_by_nakamura02-d55qwlg.png
http://fc09.deviantart.net/fs70/f/2010/187/c/3/Princess_Hikari_by_SgtDespair.png
http://images4.wikia.nocookie.net/__cb20130420101828/evangelion/images/2/2b/Brainwashed_Hikari_In_Anima.png
http://fc04.deviantart.net/fs70/i/2010/251/3/3/picture_time___takeru_x_hikari_by_mieki-d2y99ef.jpg
http://th08.deviantart.net/fs71/PRE/i/2012/135/a/d/kei_and_hikari_by_seejay196-d4zu7n3.jpg
http://images.ados.fr/1/bd-manga/hikari-pokemon/photo/hd/3115311311/303610696b/hikari-pokemon-konachan-hikari_-pokemon-big.jpg
http://25.media.tumblr.com/tumblr_lgmoc5OPfX1qgqi51o1_400.jpg
http://webzoom.freewebs.com/godzilla_2000/Hikari1.jpg
http://www.asiacool.com/jpg/Ishida_Hikari/yule_big_pic/001.jpg
http://static.zerochan.net/Hikari.%28Pok%C3%A9mon%29.full.1501969.jpg
http://farm4.staticflickr.com/3339/4631392931_cda3ebd816_z.jpg
http://th01.deviantart.net/fs70/PRE/i/2013/179/5/e/hikari_yagami_kari_kamiya_by_skylights01-d6b1wps.png
http://fc07.deviantart.net/fs71/f/2012/197/3/3/pokemon_hikari_render_by_hikari_luna-d57ghd2.png
http://i694.photobucket.com/albums/vv302/Hikari_Dawn_Maya/Hikari3.jpg
http://img.photobucket.com/albums/v639/Kuroi_Hikari/Anime%20pics/Strawberry%20Panic%20Screenshots/StrawberryPanic-Hikari4.jpg
http://fc00.deviantart.net/fs70/f/2012/149/f/e/hikari___pokemon_by_kurumierika-d51lbpm.png
http://www.freewebs.com/dawnmaylover/410268ccfpw1pw3s.jpg
http://fc07.deviantart.net/fs71/i/2010/157/0/e/Dawn_Hikari_by_DigitalHikari.jpg
http://a.fsdn.com/con/app/proj/hikari-chat-bot/screenshots/316805.jpg
http://omoikane.as.arizona.edu/~enielsen/animenight/hikari-197.jpg
http://fc04.deviantart.net/fs71/f/2012/124/5/1/dawn_hikari_maya_by_songokukai-d4yi106.png
http://24.media.tumblr.com/ce28e506b07ab4f8525fa446cd02ae5a/tumblr_mk5ffmSd691rhi61mo1_500.jpg
http://i665.photobucket.com/albums/vv19/Carlos_Reiven/Pokemon/Hikari%20Pokemon/Hikari___Dawn_from_Pokemon_by_veget.jpg
http://farm5.staticflickr.com/4123/4934389657_7e5042e3f4_z.jpg
http://cdn.pimpmyspace.org/media/pms/c/9n/j5/y2/pokemon-11.jpg
http://i298.photobucket.com/albums/mm244/hikari2eden/kari%20and%20takeru/littleedo0074.jpg
http://2.bp.blogspot.com/_1g0OSC98LYI/Suj99TImj1I/AAAAAAAACr8/8zQjFOPxWHg/s320/hikari-hino-3.jpg
http://fc05.deviantart.net/fs10/i/2006/103/f/9/Hikari_Saito___Wind_by_Arumakan.png
http://i559.photobucket.com/albums/ss33/RainbowSkellington/Anime%20or%20Manga/Special%20A/Hikari3-1.jpg
http://i303.photobucket.com/albums/nn135/Hikari_Shining_Light/Pokemon/Vulpix.jpg
http://schooldayshq.0verflow.com/img/chara/hikari.jpg
http://i284.photobucket.com/albums/ll35/TK-no1/Hino%20Hikari/10.jpg
http://www.bobx.com/race-queen/hikari-uzawa/hikari-uzawa.jpg
http://mangadrawing.net/users/imagecache/display/admin/image/admin.image.pokemon_-_hikari_pokemon.ab5aa78ea9e97606dec5afff8be0d137-6738.jpg
http://fc01.deviantart.net/fs71/i/2011/066/9/e/hikari_y_takeru_by_amaifa-d3b4dgd.jpg
http://2.bp.blogspot.com/-G3AooYIZo8A/UAXJwqzwcnI/AAAAAAAAAvE/doSHfMVkofg/s640/Hikari.jpg
http://2.bp.blogspot.com/_Oi0Co_XHyiI/TLi8wkvaApI/AAAAAAAAABY/GQhmTOQs_bk/s1600/gh_hikari146.jpg
http://i785.photobucket.com/albums/yy132/Sayuri_Uchiha35/Hikari%20Uchiha/Hikariowo.png
http://art.ngfiles.com/images/13/kevinsano_pocketbabe-hikari.jpg
http://img.photobucket.com/albums/v297/Yurichan/Hikari/Hikari%20Fanart/hikaripoke4.jpg
http://ilarge.listal.com/image/3112289/936full-hikari-mitsushima.jpg
http://cdn.myanimelist.net/images/characters/2/37207.jpg
http://fc02.deviantart.net/fs70/i/2013/088/8/7/hikari_yagami_25_years_old_by_deco_kun-d5ypnqg.png
http://image.blingee.com/images17/content/output/000/000/000/5e6/515348779_1590106.gif?6
http://fc04.deviantart.net/fs71/f/2010/161/b/2/Dawn__Hikari__Platinum_by_HastySkitty456.jpg
http://2.bp.blogspot.com/-7lzf2UGzT7w/TeOs8SirgPI/AAAAAAAAAGk/-c40XgeQvhE/s1600/800px-Hotaru_no_Hikari_2-p2.jpg
http://i284.photobucket.com/albums/ll35/TK-no1/Hino%20Hikari/11.jpg
http://images3.wikia.nocookie.net/__cb20120505131605/prettycure/es/images/1/10/Hikari%26luminous.jpg
http://cdn.pimpmyspace.org/media/pms/c/de/53/hw/2520450011.jpg
http://2.bp.blogspot.com/-OSsPcbaMKoE/UDmil5UFT7I/AAAAAAAAGeM/efjH-XQLj6M/s1600/miwa-hikari-e-cover.jpg
http://i665.photobucket.com/albums/vv19/Carlos_Reiven/Pokemon/Hikari%20Pokemon/Hikari_Contest_by_Strawberryduck.png
http://sweet-station.com/blog/wp-content/uploads/2011/04/Hikari-Shimoda-1.jpg
http://troislam.tripod.com/Hikari05.jpg
http://www.angelfire.com/anime3/inoue/hikari02.JPG
http://japancinema.net/wp-content/uploads/2012/01/hikari3.jpg
http://sp7.fotolog.com/photo/39/52/83/digixworld94/1264862749435_f.jpg
http://www.bobx.com/idol/hikari-shiina/hikari-shiina-02653368.jpg
http://www.celebrityring.info/images/pictures/Ishida-Hikari-4.jpg
http://media.animegalleries.net/albums/userpics/96155/Hikari%3B%20Yeah%21.jpg?=123
http://3.bp.blogspot.com/-w4B8D9F89rs/Udyp_CWMGFI/AAAAAAAAzTA/VZemakSGJVg/s1600/GILLE+-+HIKARI.jpg
http://i70.photobucket.com/albums/i95/Katsuko-chan/Hikari/HIkariNewDress.jpg
http://markhenry500.files.wordpress.com/2013/05/sanehara-hikari.png
http://static.comicvine.com/uploads/original/8/89742/2604035-lan_hikari_bn.jpg
http://rainlane.hudie.org/hikari_ishida032.jpg
http://media-fanart.theotaku.com/274378-20070405155407.jpg
http://webzoom.freewebs.com/godzilla_2000/Hikari2.jpg
http://fc00.deviantart.net/fs71/i/2012/328/6/d/pokemon_hikari_by_kiaaaaaa-d5m00l2.jpg
http://th00.deviantart.net/fs71/PRE/i/2010/157/0/e/Dawn_Hikari_by_DigitalHikari.jpg
http://i298.photobucket.com/albums/mm244/hikari2eden/hikari%20kamiya/picnic0009.jpg
http://i806.photobucket.com/albums/yy344/certifiedkikay_18joyce/nka-eukataxamaybekimono.jpg
http://i2.listal.com/image/3112287/600full-hikari-mitsushima.jpg
http://i851.photobucket.com/albums/ab77/nyaronchan/blog/hikari_hero.jpg
http://fc00.deviantart.net/fs70/f/2013/094/2/7/hikari_colored_by_shadow_chaos00-d60go8p.png
http://1.bp.blogspot.com/-ScekDJ7amQA/TwSUtvmM1TI/AAAAAAAAAFM/JpkevsbJFm4/s1600/Hikari+Ishida+4.jpg
http://images3.wikia.nocookie.net/__cb20091122060054/speciala/images/2/2b/3207984569_57dc4977e5.jpg
http://stream1.gifsoup.com/view4/1407230/dawn-hikari-o.gif
http://cdn.pimpmyspace.org/media/pms/c/j7/lk/0x/pokemon-5.jpg
http://fc05.deviantart.net/fs28/i/2009/254/0/3/Hikari_Hanazono_by_Kasuriin.jpg
http://2.bp.blogspot.com/_dNdHbDvb5aY/TTH9sTHC9YI/AAAAAAAAAEY/HiFC4uEk2ZU/s1600/hikari1.jpg
http://pics.wikifeet.com/Hikari-Yamaguchi-Feet-530855.jpg
http://asiacue.com/images/persons/m/Mitsushima,%20Hikari_image.jpeg
http://sweet-station.com/blog/wp-content/uploads/2011/04/Hikari-Shimoda-5.jpg
http://images2.wikia.nocookie.net/__cb20111214055146/sekirei/images/1/11/Hikari_1.jpg
http://upload.wikimedia.org/wikipedia/en/thumb/7/73/Hikari_no_Densetsu_characters.jpg/300px-Hikari_no_Densetsu_characters.jpg
http://i694.photobucket.com/albums/vv302/Hikari_Dawn_Maya/Hikari-Dawn-Maya-.jpg
http://fc00.deviantart.net/fs31/f/2008/189/8/c/Hikari_Pokemon_by_0ozzzo0.jpg
http://fc06.deviantart.net/fs25/f/2008/184/9/8/Hikari___Pokemon_Style_by_Endless_Summer181.png
http://fc08.deviantart.net/fs37/f/2008/273/8/9/Platinum_Hikari_by_Danny07312017.jpg
http://i236.photobucket.com/albums/ff78/hikari-dawn/Hikari_staring-1.jpg
http://www.uploadimages4free.com/upload/big/dawn_aka_hikari_87287783-24728.jpg
http://www.reocities.com/Hollywood/mansion/1646/vanessa06.jpg
http://iv1.lisimg.com/image/6012572/600full-hikari-hino.jpg
http://fc05.deviantart.net/fs70/f/2013/069/2/8/hikariqu_by_deco_kun-d5xlzvm.png
http://img.photobucket.com/albums/v639/Kuroi_Hikari/Anime%20pics/Strawberry%20Panic%20Screenshots/StrawberryPanic-Amane.jpg
http://images3.wikia.nocookie.net/__cb20110301053326/speciala/images/c/c7/Speciala24-04.jpg
http://i665.photobucket.com/albums/vv19/Carlos_Reiven/Pokemon/Hikari%20Pokemon/Hikari_and_Pochama_by_xilver100.jpg
http://2.bp.blogspot.com/-iDOXi-xfHY4/TwSUq8gff3I/AAAAAAAAAE8/gL4a536p2yE/s1600/Hikari+Ishida+1.jpg
http://3.bp.blogspot.com/_-qy9N1f5TII/TEuptYbkodI/AAAAAAAAAJg/njZzAPyCAZU/s1600/Hotaru+no+hikari.png
http://kreavi.com/data/user-kreavi/680-kvtbhgo6-hikari-yagami.jpg
http://pokemonwallpapers.org/wp-content/uploads/wallpapers/hikari--in-love-with-four-wallpaper.jpg
http://fc00.deviantart.net/fs41/f/2009/033/7/f/Dawn_or_Hikari__by_Luckyia.jpg
http://fc04.deviantart.net/fs50/i/2009/267/7/8/Hikari_cosplay_by_BrokenTeapot.jpg
http://whatwouldashketchumdo.files.wordpress.com/2011/06/dawn-hikari.png
http://fc06.deviantart.net/fs71/f/2012/192/e/9/dawn_hikari_pixel_art_by_lordorga-d56tdrn.png
http://images2.wikia.nocookie.net/__cb20100814142302/speciala/images/6/69/KeiAndHikariKiss.jpg
http://i360.photobucket.com/albums/oo45/PurebloodYuuki/Sekirei/SEKIREI20-200120-20Large2009.jpg
http://fc04.deviantart.net/fs43/f/2009/085/5/3/Hikari___Beach_by_Endless_Summer181.png
http://hikarihino.org/wp-content/uploads/2010/02/hikari-hino-police-cosplay-0033.jpg
http://fc09.deviantart.net/fs71/f/2012/145/a/c/hikari_yagami_all_outfits_in_pixel_by_jakeyblacksoul-d512ttg.png
http://fc05.deviantart.net/fs70/f/2010/360/9/6/hikari_and_haruka_by_millaii-d35qhqd.png
http://akca.org/wp-content/uploads/2011/07/N-Hikari-Utsuri_Showa.jpg
http://www.absoluteanime.com/special_a/thumbs/_hikari.jpg
http://desertheart.files.wordpress.com/2007/12/hikari_cddvd.jpg
http://magiclovemuseum.com/artistes2/hikari_yamaguchi/hikari_yamaguchi001g.jpg
http://2.bp.blogspot.com/-1rqHwqTPMF4/TZuC6NTE5BI/AAAAAAAAADc/Y2fHOSF7zHs/s320/takeru_hikari2.jpg
http://epii.info/anime/2010/Digimon/Digimon%20-%20Takeru%20and%20Hikari%201.jpg
http://fc06.deviantart.net/fs70/i/2013/170/5/2/pokemon___hikari_from_platinum_by_hilarymitsumi-d63wut8.jpg
http://fc08.deviantart.net/fs70/f/2012/273/f/4/lan_hikari__hikari_netto__by_alexis_the_senmurv-d5gezxt.png
http://fc02.deviantart.net/fs71/i/2010/094/f/8/Hikari_Yagami_sitting_by_hikari_chan1.jpg
http://fc09.deviantart.net/fs41/f/2009/044/2/4/Hikari__s_gift_for_Shinji_by_samyhedgehog654.jpg
http://fc02.deviantart.net/fs71/i/2012/358/1/e/hikari_dawn_pkmn_by_akakit-d3go9s9.png
http://www.booooooom.com/wp-content/uploads/2008/12/shimoda_hikari_580b.jpg
http://www.cineol.net/galeria/fotos/hikari-mitsushima_65031.jpg
http://s3.argim.net/files/t/pokemon_hikari.jpg?3
http://fc05.deviantart.net/fs26/i/2009/242/6/a/Hikari_Kamiya___Our_Digiworld_by_Wish_UponAStar.jpg
http://i1237.photobucket.com/albums/ff476/Mikan-Chii/Pokemon%20-Pocket%20Monsters-/Hikari_Dawn.jpg
http://otakuness.files.wordpress.com/2008/04/s2.jpg
http://fc06.deviantart.net/fs71/i/2013/149/9/4/hikari_hanazono___special_a_by_xtoaste-d673rjq.jpg
http://cdn.myanimelist.net/images/characters/14/125849.jpg
http://cdn.pimpmyspace.org/media/pms/c/yc/qs/la/6485050070.jpg
http://i284.photobucket.com/albums/ll35/TK-no1/Hino%20Hikari/3.jpg
http://i129.photobucket.com/albums/p217/bobbob_020/Pokemon_Hikari_.jpg
http://i298.photobucket.com/albums/mm279/kittyonkrack/Hikari/hikari-36.jpg
http://i205.photobucket.com/albums/bb170/monuex/Hikari_ending19.jpg
http://img.photobucket.com/albums/v94/fuzzychi05/Pokemon/Pairings/Hikari%20x%20Shinji/sh12.png
http://fc09.deviantart.com/fs38/f/2008/337/3/5/Hikaru_and_Kaoru_Hitachiin_by_dawn_hikari.jpg
http://www.quebrada.net/multimedia/Hikari1.jpg
http://www.animemangahome.com/gallery/image?format=raw
http://fc07.deviantart.net/fs70/i/2012/358/f/f/hikari_dawn_pkmn_dp_by_akakit-d42593l.png
http://www.uploadimages4free.com/upload/big/hikari_aka_dawn_new_look-16522.jpg
http://images.wikia.com/pokemon/images/9/9a/Hikari_Gf_dress_pic.jpg
http://fc08.deviantart.net/fs70/i/2012/362/9/7/commission__hikari_yagami___custom_outift_by_jakeyblacksoul-d5pccvc.png
http://animemvc.com/Content/animes/neon_genesis_evangelion/hikari_horaki.jpg
http://asianwiki.com/images/thumb/a/a1/Hikari_Mitsushima-p3.jpg/275px-Hikari_Mitsushima-p3.jpg
http://animetrip.net/wallpapers/ea/38/KissXsis-My-sister-9_f18e2.jpg
http://www.h5.dion.ne.jp/~potta/d_sabou/art/ryu_p/p_hikari.jpg
http://fc04.deviantart.net/fs6/i/2005/029/2/d/Taichi_and_Hikari_by_Mysterious_D.jpg
http://4.bp.blogspot.com/-T8Cp0DmP7Xk/UGCLpnQDsFI/AAAAAAAAGPo/IYQgUtxBD5M/s1600/Kalafina_Hikari_Furu_Anime_LE_SECL-1205.jpg
http://wallpoper.com/images/00/01/39/39/hanazono-hikari_00013939.jpg
http://i406.photobucket.com/albums/pp146/Animebex/Special%20A/Hikari11.png
http://fc05.deviantart.net/fs70/i/2012/180/6/9/takeru_and_hikari_by_jakecbiebs-d55dmiw.jpg
http://i.listen.jp/img/news/20090630/27228_2.jpg
http://th08.deviantart.net/fs71/PRE/i/2011/336/4/4/dawn_hikari_maya_by_songokukai-d4hvaqk.png
http://th05.deviantart.net/fs70/PRE/f/2012/142/4/d/digim_ster____yagami_hikari_by_jubia_loxar_kaulitz-d50rkj7.jpg
http://www.drawingnow.com/file/pic/gallery/78060_view.jpg
http://fc06.deviantart.net/fs71/i/2013/080/b/9/02_hikari_yagami_adult_line_arts_colors_adventure_by_rollyagami02-d5ytk8l.jpg
http://i284.photobucket.com/albums/ll35/TK-no1/Hino%20Hikari/5.jpg
http://themeyoutube.com/Backgrounds/230-Hikari.jpg
http://cdn.myanimelist.net/images/characters/12/60052.jpg
http://farm3.staticflickr.com/2528/3742901849_7dd0e418b8.jpg
http://th03.deviantart.net/fs71/PRE/i/2010/113/9/5/Hikari_and_Tailmon_by_bacemono.jpg
http://fc00.deviantart.net/fs71/f/2011/136/6/c/hikari___dawn_from_pokemon_by_vegeta2711-d1u52nv.jpg
http://i665.photobucket.com/albums/vv19/Carlos_Reiven/Pokemon/Hikari%20Pokemon/Hikari___Chiquita_by_Eternal_Illusi.png
http://www.thai-toku.com/thaitokuboard/YaBBFiles/Attachments/_Hikari_01.jpg
http://img.photobucket.com/albums/v232/HolyAjora/Hikari-small.jpg
http://shrani.si/files/hikari31rtht.gif
http://images.mylot.com/userImages/images/postphotos/2325429.jpg
http://i895.photobucket.com/albums/ac159/gorojaa/Hikari3.jpg
http://th05.deviantart.net/fs71/PRE/i/2011/185/b/e/hikari_from_pokemon_platinum_by_xxstardreamers-d3l0dmo.png
http://cdn.pimpmyspace.org/media/pms/c/hm/1v/lw/li12hikari.jpg
http://upload.wikimedia.org/wikipedia/it/thumb/7/74/HikariKujou.jpg/280px-HikariKujou.jpg
http://th00.deviantart.net/fs71/PRE/i/2012/096/9/4/hikari_dawn_8_by_akakit-d4v8dgt.png
http://fc01.deviantart.net/fs71/f/2010/260/8/7/naruto_oc___hikari_uchiha_by_lrakuenl-d2yww7w.png
http://np.kitsunesforest.com/wallpapers/hikari800.jpg
http://th06.deviantart.net/fs42/200H/f/2009/104/2/8/Hikari_Yagami_by_tajiba.png
http://www.clublez.com/movies/lesbian_movie_scenes/actresses/h/hikari_mitsushima/hikari_mitsushima_01.jpg
http://i.ytimg.com/vi/CPOAnVpj0G4/hqdefault.jpg
http://s3.zerochan.net/Hikari.%28Pok%C3%A9mon%29.240.842823.jpg
http://fc01.deviantart.net/fs71/i/2010/238/e/9/chibi_Hikari_by_pandora29.jpg
http://img.photobucket.com/albums/v639/Kuroi_Hikari/Anime%20pics/Strawberry%20Panic%20Screenshots/StrawberryPanic-Yaya4.jpg
http://fc04.deviantart.net/fs70/f/2010/322/4/6/kei_and_hikari_by_nini_bleach-d333agw.jpg
http://www.jpopasia.com/img/album-covers/1/2009-hikari-9788.jpg
http://fc04.deviantart.net/fs70/f/2010/200/a/8/Miss_Hikari_Netto_by_LeaveFishysWishbones.jpg
http://www.bobx.com/idol/hikari-ishida/hikari-ishida-02597245.jpg
http://www.boyfriendofsteel.com/Hikari147.jpg
http://fc05.deviantart.net/fs70/i/2010/044/5/4/Haruka_and__Hikari__mermaids_by_MimiNaegino.jpg
http://fc08.deviantart.net/fs70/f/2011/103/9/a/sexy_hikari_by_shadow_kiss-d3dvom3.jpg
http://fc06.deviantart.net/fs70/i/2013/088/f/2/request__hikari_yagami_doll_by_deco_kun-d5zp1rq.png
http://s3.zerochan.net/Kujo.Hikari.240.12069.jpg
http://i253.photobucket.com/albums/hh78/asiangirlimage/Japan/Hikari%20Gonoi/071201-HG-33.jpg
http://img.photobucket.com/albums/v639/Kuroi_Hikari/Anime%20pics/Strawberry%20Panic%20Screenshots/StrawberryPanic-AmaneHikarifairytal.jpg
http://i955.photobucket.com/albums/ae33/Beaconshipping_FC/Hikari/hikari15.jpg
http://static.zerochan.net/Hikari.%28Pok%C3%A9mon%29.full.1246494.jpg
http://www.hikari.info/tropical/img/06_011.jpg
http://i797.photobucket.com/albums/yy257/mermaidmelodyrainbow/Pretty%20Cure%20Max%20Heart/31-1.jpg
http://img.photobucket.com/albums/v627/MayHaruka/Hikari/5765555555555555.jpg
http://www.jasms.de/d_bank/bilder/hikari06.jpg
http://cdn.pimpmyspace.org/media/pms/c/vd/xa/np/6482540048.jpg
http://s3.zerochan.net/Tsuki.no.Hikari.Taiyou.no.Kage.240.433686.jpg
http://farm4.staticflickr.com/3350/4631981626_223e5657d5_z.jpg
http://i222.photobucket.com/albums/dd18/thangkho_no1/Hino%20Hikari/28.jpg
http://i694.photobucket.com/albums/vv302/Hikari_Dawn_Maya/Misao-Chan.jpg
http://i605.photobucket.com/albums/tt132/hatsunekiriesugina/hikari-chanakira-chanandmegumi-chan.jpg
http://media.animevice.com/uploads/0/150/179888-pokemon___dawn____hikari_by_derrasa.jpg
http://www.yashuntafun.com/wp-content/uploads/2010/10/edit-AWA2009-Strawberry-062.jpg
http://th06.deviantart.net/fs71/PRE/f/2011/180/7/6/satoshi___hikari___accident_c_by_xox1melly1xox-d3khywf.jpg
http://i665.photobucket.com/albums/vv19/Carlos_Reiven/Pokemon/Hikari%20Pokemon/Dark_Magician_Hikari_by_xilver100.jpg
http://fc02.deviantart.net/fs71/i/2012/207/4/a/takeru_and_hikari__takari__by_jakecbiebs-d58pies.jpg
http://th05.deviantart.net/fs70/PRE/i/2012/183/7/b/takeru_y_hikari__takari__by_jakecbiebs-d55qxrf.jpg
http://pokemoncosplay.blog.com/files/2011/09/Dawn-Hikari-pokemon-23928085-320-240.jpg
http://fc08.deviantart.net/fs71/i/2010/296/4/f/takari__itsumo_issho_ni_by_hallsth_eien-d3157rv.png
http://th06.deviantart.net/fs70/PRE/i/2011/293/b/9/hikari_dawn_4_by_akakit-d4dgpf6.png
http://fc01.deviantart.net/fs42/i/2009/135/2/4/Kei_and_Hikari_by_piscis_no_aphrodite.png
http://fc03.deviantart.net/fs71/i/2010/257/e/0/digimon___yagami_hikari_by_yuki_haruka-d2ypxkk.jpg
http://wallpoper.com/images/00/01/39/38/hanazono-hikari_00014814_thumb.jpg
http://img.24meitu.com/hdmvs/Minisuka.tv/Hikari%20Azuma%201/p_hikari-a_02_044.jpg
http://2.bp.blogspot.com/-T7kJb76OUoY/TsfWDvVLUBI/AAAAAAAAAWw/jHmxiBSIED0/s1600/kei+hikari.jpg
http://wallpoper.com/images/00/01/39/21/hikari-and-kei_00013921.jpg
http://i694.photobucket.com/albums/vv302/Hikari_Dawn_Maya/PrincessMay.png
http://gallery.crazyidol.net/wp-content/gallery/hikari-yamaguchi-02-bwh-bjk0009p/hikari-yamaguchi_02-bwh_bjk0009p-120.jpg
http://fc03.deviantart.net/fs71/i/2012/193/b/6/takeru_y_hikari__takari__by_jakecbiebs-d56zsud.jpg
http://www.nautiljon.com/images/perso/00/85/mini/lan_hikari_2658.jpg
http://dogasu.bulbagarden.net/comparisons/diamond_pearl/op01/hikari02.jpg
http://i1152.photobucket.com/albums/p489/simplichan/kinopoiskru-Hikari-Mitsushima-1302243.jpg
http://moetron.com/newfiles/20080829_hikari.jpg
http://www.freewebs.com/princeoftennis5110/HIKARI%20%20[2011].JPG
http://i236.photobucket.com/albums/ff78/hikari-dawn/z_hikari1.gif
