http://2.bp.blogspot.com/-VnaUfIkmcAc/T87TUSlFHgI/AAAAAAAACEA/lEcCIRtd1W4/s1600/Hyuna.jpg
http://images6.fanpop.com/image/photos/33900000/Hyuna-hyuna-33911591-1920-1080.jpg
http://images6.fanpop.com/image/photos/33900000/Hyuna-hyuna-33911595-1920-1080.jpg
http://hityourmuzik.files.wordpress.com/2011/07/20110721_hyuna_1.jpg
http://images5.fanpop.com/image/photos/25200000/Hyuna-hyuna-25214428-467-700.png
http://cullogo.com/full/wallpapers-hyuna-1920x1080.jpg
http://4.bp.blogspot.com/-aIfVDPC1KLQ/UHlbagy4Y6I/AAAAAAAAFlw/oInRN1LkbpA/s1600/www.funnycutegirls.blogspot.com.Hyuna001.jpg
http://images5.fanpop.com/image/photos/25700000/Hyuna-kim-hyuna-25780515-1024-1365.jpg
http://images5.fanpop.com/image/photos/25700000/Hyuna-kim-hyuna-25780519-740-1110.jpg
http://images4.fanpop.com/image/photos/23800000/BUBBLE-POP-hyuna-23874316-1920-1080.jpg
http://images6.fanpop.com/image/photos/33900000/Hyuna-Ice-Cream-hyuna-33911449-1600-900.jpg
http://www.wallsave.com/wallpapers/1920x1080/hyuna-kim-yoo-bin/142264/hyuna-kim-yoo-bin-142264.jpg
http://kpopconcerts.com/wp-content/uploads/2012/03/HYUNA-SPICY-COLOUR-CF-B.jpg
http://wizbangpop.com/wordpress/wp-content/uploads/2011/07/hyuna.jpg
http://3.bp.blogspot.com/-MBsvYXwOo5s/UPr_BN0x3CI/AAAAAAAAAnk/MI-ou_Rv9K8/s1600/hyuna_pouts-1913.png
http://www.picomazing.com/wp-content/uploads/2013/05/Hyuna-8.jpg
http://images5.fanpop.com/image/photos/25700000/Hyuna-kim-hyuna-25780823-743-1114.jpg
http://www.soompi.es/wp-content/blogs.dir/8/files/2013/03/HyunA1.jpg
http://www.wallsave.com/wallpapers/1920x1080/hyuna/115546/hyuna-women-black-dress-115546.jpg
http://www.picomazing.com/wp-content/uploads/2013/05/Hyuna-3.jpg
http://heroeswallpapers.com/wp-content/uploads/2013/01/kim-hyuna-wallpapers-2013.jpg
http://3.bp.blogspot.com/-RQEEVC66cnY/UDRQNsu8YWI/AAAAAAAAA6M/_-VCLd7q1kU/s1600/hyuna1.jpg.png
http://images5.fanpop.com/image/photos/25700000/Hyuna-kim-hyuna-25780709-477-624.jpg
http://1.bp.blogspot.com/-C4VQIv6y0rY/UDUWda5GblI/AAAAAAAAP-I/E-TLBolEt_w/s1600/Hyuna+%283%29.jpg
http://kpopbrasil.com.br/wp-content/uploads/2012/05/tumblr_m40qh0lbuP1qb0b9ro1_1280.jpg
http://images5.fanpop.com/image/photos/24700000/Hyuna-hyuna-24717561-400-600.jpg
http://images6.fanpop.com/image/photos/33900000/Hyuna-Ice-Cream-hyuna-33911464-1920-1080.jpg
http://www.picomazing.com/wp-content/uploads/2013/05/Hyuna-1.png
http://images5.fanpop.com/image/photos/25700000/Hyuna-kim-hyuna-25780848-853-1280.jpg
http://images4.fanpop.com/image/photos/23400000/Hyuna-hyuna-23479073-388-563.png
http://1.bp.blogspot.com/-2iCMXxnFHms/TsUV90GGVyI/AAAAAAAAAyY/Sf7Ca6J9u_g/s400/Hyuna-First-4minute-16715191-400-400.jpg
http://3.bp.blogspot.com/-TkkZeGZT6rE/UT1lL0XcxVI/AAAAAAAAgZw/llcpG1anUZE/s1600/Hyuna-G-by-Guess-Pictures-7.jpg
http://2.bp.blogspot.com/-7IPGaXQbTeo/T3P_ABWyMiI/AAAAAAAAPtM/cQclc6mZvGQ/s1600/20120328_hyuna1.jpg
http://images5.fanpop.com/image/photos/25300000/hyuna-hyuna-kim-25387156-580-773.jpg
http://images4.fanpop.com/image/photos/16300000/Hyuna-hyuna-16395014-460-564.jpg
http://images6.fanpop.com/image/photos/33900000/Hyuna-hyuna-33911568-1210-1650.jpg
http://images6.fanpop.com/image/photos/33900000/Hyuna-hyuna-33911573-1920-1080.jpg
http://images6.fanpop.com/image/photos/33900000/Hyuna-Ice-Cream-hyuna-33911456-1920-1080.jpg
http://kpopseven.com/wp-content/uploads/2012/02/Hyuna-Cute.jpg
http://images5.fanpop.com/image/photos/24500000/Hyuna-hyuna-24545735-500-714.jpg
http://www.soompi.com.br/wp-content/blogs.dir/9/files/2013/06/hyuna.png
http://images5.fanpop.com/image/photos/25700000/Hyuna-kim-hyuna-25780730-853-1280.jpg
http://images5.fanpop.com/image/photos/25000000/Hyuna-hyuna-25065181-500-706.png
http://images4.fanpop.com/image/photos/23800000/BUBBLE-POP-hyuna-23874309-1920-1080.jpg
http://kpopseven.com/wp-content/uploads/2012/02/Hyuna-sexy-768x1024.jpg
http://images6.fanpop.com/image/photos/33900000/Hyuna-Ice-Cream-hyuna-33911460-2560-1440.jpg
http://images6.fanpop.com/image/photos/33900000/Hyuna-hyuna-33911579-1920-1080.jpg
http://images6.fanpop.com/image/photos/33900000/Hyuna-hyuna-33911607-1800-1115.jpg
https://mnkoreanpop.files.wordpress.com/2012/06/hyuna651.jpg
http://1.bp.blogspot.com/-naVfsycU1vk/T3P_MKv-e3I/AAAAAAAAPtU/tPQ0r_fhbtE/s1600/20120328_hyuna2.jpg
http://japanstereo.com/wp-content/uploads/2012/08/12006-joeppg6lx1.jpeg
https://pouet2.files.wordpress.com/2012/04/5mrsq.jpg
http://www.wallsave.com/wallpapers/1280x1024/hyuna/136352/hyuna-jang-geun-suk-ever-free-style-136352.jpg
http://images6.fanpop.com/image/photos/33900000/Hyuna-hyuna-33911577-1680-1050.jpg
http://1.bp.blogspot.com/-tbeFV3E_I40/UUcEVMduH-I/AAAAAAAAg1c/q5I-6TV6qqs/s1600/HyunA-%ED%98%84%EC%95%84-Wallpaper-HD-9.jpg
http://images4.fanpop.com/image/photos/23800000/BUBBLE-POP-hyuna-23874254-1920-1080.jpg
http://images4.fanpop.com/image/photos/23400000/Hyuna-hyuna-23479077-388-560.png
http://images4.fanpop.com/image/photos/23400000/Hyuna-hyuna-23479075-388-560.png
http://www.wallsave.com/wallpapers/1920x1080/hyuna-kim/162208/hyuna-kim-kh-jpg-minus-162208.jpg
http://3.bp.blogspot.com/-um4nCFAuOUU/UIUJy201PwI/AAAAAAAAARQ/M7IyHzgqswc/s1600/hyuna_18.jpg
http://images5.fanpop.com/image/photos/25700000/Hyuna-kim-hyuna-25780888-960-1280.jpg
http://www.wallsave.com/wallpapers/1920x1080/hyuna/138995/hyuna-138995.jpg
http://images4.fanpop.com/image/photos/23400000/Hyuna-hyuna-23479115-388-565.png
http://images4.fanpop.com/image/photos/20800000/Hyuna-3-hyuna-20884570-476-585.jpg
http://images5.fanpop.com/image/photos/25700000/Hyuna-kim-hyuna-25780739-853-1280.jpg
http://images5.fanpop.com/image/photos/24900000/Hyuna-hyuna-24913889-500-483.png
http://images5.fanpop.com/image/photos/25400000/HyunA-Kim-hyuna-kim-25400686-600-450.jpg
http://images5.fanpop.com/image/photos/25700000/Hyuna-kim-hyuna-25780490-394-600.jpg
http://4.bp.blogspot.com/-Ve9i1hqApAU/UT1kuNPHJbI/AAAAAAAAgZA/WPx29hawuWk/s1600/Hyuna-G-by-Guess-Pictures.jpg
http://www.officiallykmusic.com/wp-content/uploads/2012/10/121013HYUNA2.jpg
http://3.bp.blogspot.com/-aYkT_bqr9ZI/Tijm2Y4lzhI/AAAAAAAAEvo/D8vaYex_Z58/s1600/pop1.JPG
http://images5.fanpop.com/image/photos/25700000/Hyuna-kim-hyuna-25780699-800-1243.jpg
http://25.media.tumblr.com/tumblr_m538ditLqV1qb0b9ro2_1280.jpg
http://images5.fanpop.com/image/photos/25700000/Hyuna-kim-hyuna-25780904-960-1280.jpg
http://allforbluesky.files.wordpress.com/2013/02/hyuna.jpg
http://www.soompi.com/wp-content/uploads/2013/01/hyuna1.jpeg
http://thekpoprage.files.wordpress.com/2012/06/hyuna-cover.jpg
http://images5.fanpop.com/image/photos/25700000/Hyuna-kim-hyuna-25780732-853-1280.jpg
http://4niamongolian.files.wordpress.com/2013/03/hyuna-hot-body-15.jpg
http://4.bp.blogspot.com/-nApc6mJdOlg/UT1k-PKbu9I/AAAAAAAAgZg/lNQfqYC-Pd4/s1600/Hyuna-G-by-Guess-Pictures-5.jpg
http://images4.fanpop.com/image/photos/23400000/Hyuna-hyuna-23479196-388-560.png
http://images5.fanpop.com/image/photos/25700000/Hyuna-kim-hyuna-25780512-500-706.jpg
http://1.bp.blogspot.com/-tMP0etT5y5A/UITCk-aDLpI/AAAAAAAAAKk/SOG5Jv8CKzA/s1600/hyuna-bubble-pop-screenshot-1.jpg
http://images4.fanpop.com/image/photos/20900000/Hyuna-4Minute-Left-4minute-20988808-1024-1365.jpg
http://1.bp.blogspot.com/-LKOY-FYqTog/USMDLg0Ac9I/AAAAAAABJwU/_uoEQyAfPKE/s640/hyuna.jpg
http://img03.imgsinemalar.com/images/artist_buyuk/633071/hyuna-141.jpg
http://2.bp.blogspot.com/-JSy9Sz1omcE/T5PDTvJn5AI/AAAAAAAAAcM/4vsEHS6st1c/s1600/hyuna+sorry2.png
http://images2.fanpop.com/image/photos/14600000/HyunA-4minute-14634644-1280-800.jpg
http://seoulbeats.com/wp-content/uploads/2012/10/20121014_seoulbeats_hyuna.jpg
http://iamipodman.files.wordpress.com/2012/04/4minute-volumeup-hyuna-3.jpg
http://th08.deviantart.net/fs70/PRE/i/2012/304/4/d/hyuna_by_fullmetalshitty-d5jj57p.jpg
http://kpopbrasil.com.br/wp-content/uploads/2012/08/20120816_4minute_Hyuna_hazzys_2.jpg
http://images4.fanpop.com/image/photos/23400000/Hyuna-hyuna-23479076-422-316.png
http://4.bp.blogspot.com/-YdYyvyFTG3g/Tqu86xz77sI/AAAAAAAABQU/I7vZjOovlDc/s1600/hyuna1.jpg
http://1.bp.blogspot.com/_Kh5oo0laxpY/TIgXU77XNzI/AAAAAAAAByM/swmGrSP0QSg/s1600/hyuna_20091006_seoulbeats.jpg
http://4.bp.blogspot.com/-AfGtudDRjl4/UW4HHRK8fEI/AAAAAAAAAFM/U33i5iJeS_8/s1600/HYUNA+-+MELTING+WALLPAPER.jpg
http://seoulbeats.com/wp-content/uploads/2011/10/20111009_seoulbeats_hyuna3.jpg
http://wallpoh.com/wp-content/uploads/2013/04/Download-Hyuna-HD-Wallpaper-1920x1080.jpg
http://images5.fanpop.com/image/photos/25400000/Kim-Hyuna-hyuna-kim-25404427-402-568.jpg
http://1.bp.blogspot.com/-80ftB3Uih50/Tt7WD2tZ4iI/AAAAAAAADU0/DADlhVi1FXA/s1600/hyuna_london_111206_2.jpg
http://images5.fanpop.com/image/photos/25800000/HyunA-s-Selca-hyuna-kim-25823011-600-800.jpg
http://koreangirlsgroup.com/wp-content/uploads/2012/08/4minute-hyuna-spicycolor-3.jpg
http://images5.fanpop.com/image/photos/25700000/Hyuna-kim-hyuna-25780920-600-800.jpg
http://3.bp.blogspot.com/-I8zPbQvoYS0/UZDus26xxDI/AAAAAAAAPFg/R19QtzPGOKs/s1600/4minutes-hyuna-to-be-released-from-hospital.jpg
http://wallpoh.com/wp-content/uploads/2013/04/Hyuna-Wallpaper-HD-1920x1080.jpg
http://www.billboard.com/files/styles/promo_650/public/media/hyuna-650-430-b.jpg
http://p9.storage.canalblog.com/96/64/874918/80311390_o.jpg
http://dramaswhoo.files.wordpress.com/2011/12/hyuna.jpg
http://images5.fanpop.com/image/photos/24900000/Hyuna-hyuna-24913890-500-596.png
http://stuffpoint.com/kpop/image/23314-kpop-hyuna.jpg
http://cdn.idigitaltimes.com/data/images/full/2012/08/14/842-hyuna-performing-psys-gungnam-style.jpg
http://3.bp.blogspot.com/-Im8YWi3WLLs/UJk15fydYeI/AAAAAAAAJKk/SvmIMN4W7o0/s640/hyuna_main.jpeg
http://kavenyou.com/wp-content/uploads/2012/08/Hyuna.jpg
http://4minutetopia.files.wordpress.com/2012/05/tumblr_m40od10hbx1qbjs6xo1_1280.jpg
http://www.tunebee.com/wp-content/uploads/2012/12/Hyuna-with-Lighter-Trouble-Maker-Pics.jpg
http://2.bp.blogspot.com/-plwTUzjQYVA/UT1kmpsaPII/AAAAAAAAgY4/eXnAHk0zUNI/s1600/Hyuna-G-by-Guess-Wallpaper-HD-2.jpg
http://kormore.com/wp-content/uploads/2012/12/HyunA.jpg
http://3.bp.blogspot.com/-tTrbSKv-XSI/UT1khTM--9I/AAAAAAAAgYw/OpJNvkpTtjU/s1600/Hyuna-G-by-Guess-Wallpaper-HD.jpg
http://2.bp.blogspot.com/-eaVsa85Zzwg/UDUWlUIWSZI/AAAAAAAAP-s/xed_AEzGVyM/s1600/Hyuna+%288%29.jpg
http://4.bp.blogspot.com/-sZcZ77FqVm0/USqUwQfHnPI/AAAAAAAAEhg/LlNjFI5zegE/s1600/hyuna_wallpaper_by_kittyloveskpop-d3kf9ec.jpg
http://3.bp.blogspot.com/-UY6on_5H_jA/UIS1vVMNWDI/AAAAAAABB7Y/NlPYkW_hlt8/s640/h9.jpg
http://www.mtvk.com/wp-content/uploads/2012/10/hyuna-melting1.png
http://www.wallsave.com/wallpapers/1920x1080/hyuna/188004/hyuna-women-hd-free-luxehd-com-188004.jpg
http://4.bp.blogspot.com/-DTqfzzj4YZM/ThPjImdAFBI/AAAAAAAAC98/rjuIoKgY_9Y/s1600/HYUNA%2B-%2BBubble%2BPop%2521%2B091.jpg
http://onekpop.com/i/hyuna-nearing-a-mental-breakdown_ainad_3.jpg
http://en.korea.com/files/2011/12/hyuna2.jpg
http://heroeswallpapers.com/wp-content/uploads/2013/01/photos-kim-hyuna-wallpapers-2013.jpg
http://4.bp.blogspot.com/--UwtZAnp1cI/TsBsOZzruCI/AAAAAAAAA7g/WosN32Rl4K0/s1600/Hyuna+Kim+4minute+Bubble+Pop+Change+Wonder+Girls+Sexy.jpg
http://kpopseven.com/wp-content/uploads/2012/02/Hyuna-sexy.jpg
http://wallpaperpassion.com/upload1/32822/kim-hyuna-bubble-gum-wallpaper.jpg
http://3.bp.blogspot.com/-pwDiFcRX07o/UVU6CIAf_KI/AAAAAAAAC04/68eBUdLHhjQ/s1600/hyuna-wide-800x450.jpg
http://www.jpopasia.com/i1/news/4/12416-ncw5ds601i.jpg
http://4.bp.blogspot.com/-IQlUcNg7rPw/ULujuaL-hgI/AAAAAAAAHp8/NM9cu23nol0/s1600/Hyuna+Bling+2.jpg
http://iamipodman.files.wordpress.com/2011/07/hyuna-bubblepop-4.jpg
http://images4.fanpop.com/image/photos/23400000/Hyuna-hyuna-23479159-483-650.png
http://3.bp.blogspot.com/-fojC05UiRjE/Tt7VuzuE_0I/AAAAAAAADUk/qJQyg5UyE34/s1600/hyuna_london_111206.jpg
http://www.jpopasia.com/i1/celebrities/1/20-hyuna-9ktq.jpg
http://ceffany.files.wordpress.com/2013/05/hyuna24.jpg
http://i855.photobucket.com/albums/ab116/daveyhasselhoff/hyuna.jpg
http://fc04.deviantart.net/fs70/f/2012/341/4/4/hyuna_by_artofwei-d5ndgdu.jpg
http://latintyreexpo.com/hyuna-bikini-14.jpg
http://1.bp.blogspot.com/-cJyUnaFBJVQ/UACbevnX7CI/AAAAAAAAEvc/bhwQ3lT8ViA/s1600/Hyuna+4minute+closeup+(4).jpg
http://4.bp.blogspot.com/-Co94Pg2zWTY/USlmY6OHldI/AAAAAAAABd4/ov_L47gDbt8/s1600/93143-4minute-4minute-hyuna.png
http://www.whitegirlswithasianguys.com/wp-content/uploads/2012/09/hyuna-gangnam-style.jpg
http://2.bp.blogspot.com/-8aIOndpwLdc/ThRxikkJLJI/AAAAAAAADF0/E4UH7tXLN4Q/s1600/Hyuna%2BBubble%2BPop%25281%2529.jpg
http://i7.photobucket.com/albums/y287/krystle_lane/thinspirational%20jouney/Asian%20Thinspo/Kim%20Hyuna/K25Iy.jpg
http://4.bp.blogspot.com/-paKreuaeh8U/UJ8zJrk_-2I/AAAAAAAAAGk/kL4sYTbxhVQ/s1600/hyuna-ice-cream-mv-teaser-4.jpg
http://www.wallsave.com/wallpapers/1024x768/hyuna/154364/hyuna-kim-muzic-world-com-154364.jpg
http://ceffany.files.wordpress.com/2013/05/hyuna11.jpg
http://images4.fanpop.com/image/photos/14600000/hyunA-i-my-me-mine-4minute-14678768-1280-720.jpg
http://www.4-minute.sosugary.com/albums/userpics/10001/hyuna_ice_cream_mv_4mf_nx_2811929.jpg
http://cuteasianhair.com/wp-content/uploads/2011/08/20110728_hyuna.jpg
http://www.theconcertinconcert.com/wp-content/uploads/2013/03/hyuna.jpg
http://hityourmuzik.files.wordpress.com/2011/12/hyuna11.jpg
http://seoulbeats.com/wp-content/uploads/2013/04/20130414_seoulbeats_4minute_hyuna.jpg
http://3.bp.blogspot.com/-bCYrjFkFm5g/T0AYxU-1mqI/AAAAAAAAEhk/lVjfrtV5AAw/s1600/Hyuna+%25285%2529.JPG
http://2.bp.blogspot.com/-Saj5BITJDlA/UMh_w1-zNQI/AAAAAAAAYe4/SLp2BOxxz0s/s1600/Kim+Hyuna+1.jpg
http://thekpoprage.files.wordpress.com/2012/06/hyuna-selca.jpg?w=600
http://famous-wallpapers.com/wp-content/uploads/2012/10/hyuna-kim2.jpg
http://4.bp.blogspot.com/-aIfVDPC1KLQ/UHlbagy4Y6I/AAAAAAAAFlw/oInRN1LkbpA/s640/www.funnycutegirls.blogspot.com.Hyuna001.jpg
http://indonesia4nia.files.wordpress.com/2012/05/tumblr_m40oc7z60y1qbjs6xo1_1280.jpg
http://www.tunebee.com/wp-content/uploads/2012/12/Hyuna-With-Handgun-Trouble-Maker-Pics.jpg
http://www.wallpaperswala.com/wp-content/gallery/hyuna-kim/hot-hyuna-in-red-hair.jpg
http://3.bp.blogspot.com/-fojC05UiRjE/Tt7VuzuE_0I/AAAAAAAADUk/qJQyg5UyE34/s400/hyuna_london_111206.jpg
http://2.bp.blogspot.com/-KtBpbw2bYhc/UBj4z3IXiaI/AAAAAAAAHgo/kcDegdhYEZM/s1600/Hyuna+4minute+Purple+Shirt.jpg
http://polygrafi.files.wordpress.com/2013/03/hyuna-ice-cream-809836.jpg
http://3.bp.blogspot.com/-JnXGOW5mSNs/TdZW83ylkfI/AAAAAAAACfY/veSW9r-1JUg/s1600/20110520_hyuna_4.jpg
http://2.bp.blogspot.com/-VYADK4juIFM/UE1a8eF8yxI/AAAAAAAAHFM/NYnHyMZfMfM/s1600/hyuna+nylon6.jpg
http://cdn.girlhdwalls.com/wallpapers/hyuna-kim/hyuna-kim-3924-1680x1050.jpg
http://images4.fanpop.com/image/photos/23800000/BUBBLE-POP-hyuna-23874283-1920-1080.jpg
http://images4.fanpop.com/image/photos/15800000/Hyuna-Huh-again-4minute-15879721-540-383.jpg
http://ceffany.files.wordpress.com/2013/05/hyuna12.jpg
http://fc09.deviantart.net/fs70/f/2012/141/3/e/hyuna_by_fuckyeahkpop-d50kh51.jpg
http://soeulmateskoreanaddicts.files.wordpress.com/2011/02/20110213_hyuna.jpg?w=490
http://1.bp.blogspot.com/-oCVt1ImpTaM/UKUEkPW9yxI/AAAAAAAABn8/4_xo0Pdhep8/s1600/img-kim-hyuna_122311364015.jpg
http://yellowslugreviews.files.wordpress.com/2013/04/hyuna-for-guess.png?w=640
http://wallpaperpassion.com/upload_puzzle_thumb1/30896/hyuna-hyun-wallpaper.jpg
http://www.tunebee.com/wp-content/uploads/2012/12/Hyuna-Listening-Trouble-Maker-Pics.jpg
http://3.bp.blogspot.com/-LW6yhEET9Lw/UT1k1zlhY1I/AAAAAAAAgZQ/Y8AvRPIISKY/s1600/Hyuna-G-by-Guess-Pictures-3.jpg
http://www.tunebee.com/wp-content/uploads/2012/12/Hyuna-Trouble-Maker-Pics.jpg
http://www.mtvk.com/wp-content/uploads/2012/11/HyunA_3.jpg
http://yeppopo.files.wordpress.com/2011/01/hyuna1.jpg
http://ilarge.listal.com/image/2508803/936full-hyuna.jpg
http://www.picomazing.com/wp-content/uploads/2013/05/Hyuna-4.jpg
http://3.bp.blogspot.com/-sBl9jINUtD0/UILXSLFVCoI/AAAAAAAADUc/penYvwjP24U/s1600/hyuna.png
http://www.tunebee.com/wp-content/uploads/2012/12/Hyuna-Listening-Close-Up-Trouble-Maker-Pics.jpg
http://famous-wallpapers.com/wp-content/uploads/2012/11/Hyuna.jpg
http://www.soompi.com/wp-content/uploads/2013/05/hyuna.png
http://spimages.kpopstarz.com/data/images/full/2012/04/11/12512-hyuna-de-4minute.jpg
http://hityourmuzik.files.wordpress.com/2011/08/20110728_hyuna.jpg?w=560
http://2.bp.blogspot.com/-d5PVioLED7Q/UKL9tx81enI/AAAAAAAATaM/rY8kshSPyFw/s1600/Hyuna+%252815%2529.jpg
http://1.bp.blogspot.com/-_I7gjmHXwg0/T9hWp7X5-wI/AAAAAAAAAuk/aZo5zgSkci4/s1600/hyuna_lost_tan1.jpg
http://3.bp.blogspot.com/-BtoOR-VWATg/T_wNnABc8tI/AAAAAAAAD1Q/CoEEw_kpMK4/s1600/Hyuna+x+Spicycolor.jpg
http://iamipodman.files.wordpress.com/2011/07/hyuna-bubblepop-3.jpg
http://25.media.tumblr.com/76a4719c29e6fb64beb7c82bade79cd9/tumblr_mj38ebihob1rso0iwo1_500.jpg
http://1.bp.blogspot.com/-xgUWQHyF-JU/UK-l25y0hDI/AAAAAAAAAEQ/aDK8hCYxWcM/s1600/hyuna-troublemaker.jpg
http://static.tumblr.com/893c55e25ae88606a8ae7374ef14d46c/onhx3pn/X4cmnhd8k/tumblr_static_hyuna_volume_up_2_by_pinku_gyaru-d4vkg1g.jpg
http://cutkillavince.com/wp-content/uploads/2012/10/Hyuna4.jpg
http://2.bp.blogspot.com/-wNlqBpg6yZo/UUb1sKIi4KI/AAAAAAAAD-U/qpes0aKejag/s640/20121021_hyuna_icecream6-600x337.jpg
http://hotspicykimchi.files.wordpress.com/2010/07/1149.jpg
http://i957.photobucket.com/albums/ae60/Beautiful4NIA/12801024hab.jpg
http://images6.fanpop.com/image/photos/32500000/Hyuna-wink-kiss-yumepetal-32584365-480-384.gif
http://1.bp.blogspot.com/-xBaqJB8fG9g/UUqRm_MLcRI/AAAAAAAAAUo/FtUeUGupU_w/s1600/foto+hot+hyuna.jpg
http://images5.fanpop.com/image/photos/25000000/Hyuna-hyuna-25065665-540-720.jpg
http://seoulbeats.com/wp-content/uploads/2012/03/20120304_seoulbeats_4minute_hyuna-620x464.png
http://www.soompi.com/wp-content/uploads/2012/11/121113-hyuna-wide-2.jpg
http://fc07.deviantart.net/fs70/f/2012/260/7/3/hyuna_by_ferhyuchun-d5f1vql.jpg
http://1.bp.blogspot.com/-Ja_latBj7WM/ToPW28V3nmI/AAAAAAAADiU/bQKyjJDam8k/s1600/hyuna7.jpg
http://1.bp.blogspot.com/-D_sw6MCJOS4/UCyxtksTZQI/AAAAAAAAAFs/crI3FDOolI8/s1600/081412_psy_hyuna_gangnam_style.jpg
http://www.soompi.com/wp-content/uploads/2012/10/121026-hyuna-music-bank-wide.jpg
http://3.bp.blogspot.com/-kY_NGE1nJjY/URqPacblr8I/AAAAAAAACRM/JsYgOAdx-7w/s1600/tumblr_m538ditLqV1qb0b9ro2_1280.jpg
http://i271.photobucket.com/albums/jj151/Chubiamuro/12Hyuna.jpg
http://asianmtownpt.files.wordpress.com/2012/11/img-kim-hyuna_122311364015.jpg
http://rawr6127.files.wordpress.com/2010/08/j.jpg
http://i30.servimg.com/u/f30/12/90/75/92/hyuna_12.jpg
http://2.bp.blogspot.com/-e7fC7a2SIiQ/UVtSZM7JY_I/AAAAAAAAAbE/L0C4xtWcfXQ/s1600/Hyuna+-+Ice+Cream+15.jpg
http://1.bp.blogspot.com/-KzZ5pZhi3Ks/UBcnAijETcI/AAAAAAAAHGs/SmmpHUryJdM/s1600/Hyuna+4minute+Fast+(3).jpg
http://hityourmuzik.files.wordpress.com/2011/08/20110809_hyuna_justfollow.jpg
http://www.soompi.com/wp-content/uploads/2012/10/121026-hyuna-music-bank-inside.jpg
http://www.tunebee.com/wp-content/uploads/2012/12/Hyuna-Fingers-Trouble-Maker-Pics.jpg
http://1.bp.blogspot.com/-GOw_f_043m4/TltiHfpuuNI/AAAAAAAADEk/Mdxcx3UtpO4/s1600/20110829_hyuna_gq_2.jpg
http://d1i45kki000yqu.cloudfront.net/wp-content/uploads/2012/10/121030-hyuna-america-wide.png
http://th09.deviantart.net/fs71/PRE/i/2012/306/0/6/hyuna_png__4minute_by_sellscarol-d5jsbsx.png
http://3.bp.blogspot.com/-feJxKC8cGik/TfFg80bhoxI/AAAAAAAAAmo/OGnQZVxRJyk/s1600/Hyuna++4minute+Sexy+2011+2.jpg
http://www.musicvideolist.com/wp-content/uploads/Hyuna.jpg
http://www.tunebee.com/wp-content/uploads/2012/12/Hyuna-side-View-Profile-Trouble-Maker-Pics.jpg
http://plenging.com/wp-content/uploads/2011/07/hyuna-5.jpg
http://cdn.girlhdwalls.com/wallpapers/hyuna-kim/hyuna-kim-3923-1920x1080.jpg
http://www.wallsave.com/wallpapers/1280x720/hyuna/862997/hyuna-862997.jpg
http://hityourmuzik.files.wordpress.com/2011/08/20110814_hyuna_1.jpg
http://www.vozfemenina.com/wp-content/uploads/2012/08/20120803090309588.jpg
http://1.bp.blogspot.com/-SNW9g3fwqO0/UBj4y1id0kI/AAAAAAAAHgg/UMTQjK8NzpQ/s1600/Hyuna+4minute+Purple+Shirt+%25285%2529.jpg
http://images5.fanpop.com/image/photos/25700000/Hyuna-kim-hyuna-25780881-720-1280.jpg
http://kpopfantasia.files.wordpress.com/2011/08/20110814_unitedcube_hyuna_19.jpg
http://hienarabugenta.com.br/wp-content/uploads/2012/10/hyuna-loira.jpg
http://3.bp.blogspot.com/-kK1zr3U-6-M/UTV1CGqsxCI/AAAAAAABMyQ/8W2EyuUfVAA/s1600/480858_547807461930044_165943712_n.jpg
http://images4.fanpop.com/image/photos/20800000/Hyuna-3-hyuna-20884754-500-500.png
http://4.bp.blogspot.com/-mP4_tPrdjOc/Tyd74VipryI/AAAAAAAAGbg/bvEe2UJwUdI/s1600/iitnk.jpg
http://stuffpoint.com/4minute/image/190009-4minute-hyuna-ice-cream-2.jpg
http://images5.fanpop.com/image/photos/25700000/Hyuna-kim-hyuna-25780711-540-383.jpg
http://d31x3df3kl02zx.cloudfront.net/soompi/wp-content/blogs.dir/8/files/2012/10/121023-hyuna-billboard-inside.jpg
http://www.kpopmagazin.de/wp-content/uploads/2013/05/121113-hyuna-wide.jpg
http://latintyreexpo.com/hyuna-11.jpg
http://kpopselca.com/selca/19422_hyuna-sohyun.jpg
http://www.soompi.com/wp-content/uploads/2012/12/HyunA-tumblr.png
http://thekpoprage.files.wordpress.com/2012/06/hyuna-v.jpg?w=600
http://img.ahawallpaper.com/dl/f3a/hyuna-532153-1366x768-1.jpg
http://images4.fanpop.com/image/photos/23400000/Hyuna-hyuna-23479117-388-564.png
http://allfanart.com/wp/wp-content/uploads/2013/07/hyuna_wrexjapan.jpg
http://images5.fanpop.com/image/photos/25400000/HyunA-Wallpaper-hyuna-kim-25401870-1280-800.jpg
http://images5.fanpop.com/image/photos/24500000/Hyuna-hyuna-24545828-320-480.jpg
http://1.bp.blogspot.com/-BZfHMNkpA2g/UCzScWVxHCI/AAAAAAAABIE/utgTDhB3xcA/s1600/hyuna014.jpg
http://www3.images.coolspotters.com/photos/859587/kim-hyuna-profile.jpg
http://www.hallyuhn.com/wp-content/uploads/2012/08/20120816_4minute_Hyuna_hazzys_4.jpg
http://www.wallsave.com/wallpapers/1280x720/hyuna/74933/hyuna-74933.jpg
http://www.asianbite.com/photos/hyuna-ice-cream-banned_28109.jpg
http://stuffpoint.com/4minute/image/93143-4minute-4minute-hyuna.png
http://jigload.com/wp-content/uploads/2012/08/7782047444_ccd2cf9baa_z1.jpg
http://2.bp.blogspot.com/_vLrLjurXFr8/THRhVn-hxiI/AAAAAAAAACs/Lt2mCXE6Dds/s1600/100823hyuna10.jpg
http://images4.fanpop.com/image/photos/23400000/Hyuna-hyuna-23479194-485-650.png
http://24.media.tumblr.com/tumblr_m78zrqsRCP1rahqp6o2_1280.jpg
http://www.viphairstyles.com/wp-content/uploads/2012/10/Hyunas-Hairstyle.jpg
http://ilarge.listal.com/image/3626543/936full-hyuna.jpg
http://sumandu.files.wordpress.com/2012/01/hyuna-troublemaker.jpg?w=510
http://d31x3df3kl02zx.cloudfront.net/soompi/wp-content/blogs.dir/8/files/2012/10/Hyuna.png
http://1.bp.blogspot.com/-aniA2IMbAYg/UDUXJZ1t4PI/AAAAAAAAQEU/ht7pYtMn28o/s1600/Hyuna+%2838%29.jpg
http://fc00.deviantart.net/fs70/f/2013/046/f/a/hyuna_by_sellscarol-d5v1bi8.gif
http://1.bp.blogspot.com/-nht8wdyZA-A/UIoWmtL8viI/AAAAAAAAF7M/6kEQwj0vADw/s1600/20120822_hyuna_123.jpg
http://d2tq98mqfjyz2l.cloudfront.net/image_cache/1401624840537377.jpg
http://images4.fanpop.com/image/photos/18200000/hyuna-diamond-concept-4minute-18210341-466-694.jpg
http://cdnimg.visualizeus.com/thumbs/29/8e/4minute,hyuna,kpop,photo-298e853268861b45451411aeef08c796_h.jpg
http://images4.fanpop.com/image/photos/18200000/hyuna-diamond-concept-4minute-18210353-464-693.jpg
http://s5.favim.com/orig/74/4-minute-4minute-gayoon-hyuna-Favim.com-759535.jpg
http://4.bp.blogspot.com/-lZgS9fpAFsA/TjFRjsmFj4I/AAAAAAAALWQ/dvybHybPxtY/s1600/20110728_hyuna.jpg
http://cutkillavince.com/wp-content/uploads/2012/10/Hyuna1.jpg
http://siesdestino.com/wp-content/uploads/2013/03/34-hyuna.jpg
http://www.tunebee.com/wp-content/uploads/2012/12/Hyuna-Looking-Away-Trouble-Maker-Pics.jpg
http://4.bp.blogspot.com/-mFxIeX0Ihgo/UG04bWBvjRI/AAAAAAAAGTs/6VbRCU1e-lA/s1600/gangnamstyle3.jpg
http://en.korea.com/files/2010/12/60b2d_20101219_hyuna_1.jpg
http://cdn.popdust.com/wp-content/uploads/2011/07/hyuna.jpg
http://soeulmateskoreanaddicts.files.wordpress.com/2011/06/hyuna.jpg
http://www.wallsave.com/wallpapers/1680x1050/hyuna/1336540/hyuna-hyunahabitu-1336540.jpg
http://onekpop.com/i/hyunas-undeniable-beauty-cute-and-sexy_htean_0.jpg
http://2.bp.blogspot.com/-OaAFq_vLwNw/TwOcRV8n4zI/AAAAAAAABOw/cEUdLDoV5bw/s1600/Hyuna-Change1.jpg
http://fc05.deviantart.net/fs70/f/2012/307/f/2/hyuna_png___4minute__render__by_sellscarol-d5ju06e.png
http://sugoiasian.files.wordpress.com/2013/05/hyuna-and-gayoon-4minute-instyle-magazine-may-2013-3.jpg
http://www.vozfemenina.com/wp-content/uploads/2012/10/untitled.bmp
http://1.bp.blogspot.com/-OJP87bdy9E4/UBj4wm4EWfI/AAAAAAAAHgI/bsKEKtR9xiI/s1600/Hyuna+4minute+Purple+Shirt+%25282%2529.jpg
http://www.foxcrawl.com/wp-content/uploads/2012/10/Hyuna.jpg
http://wallpaperan.com/wallpaper/hyuna_ice_cream.jpg
http://www.tunebee.com/wp-content/uploads/2012/12/Hyuna-Doorway-Trouble-Maker-Pics.jpg
http://2.bp.blogspot.com/_SU-c0JM9TTE/TKPQT_4f1vI/AAAAAAAAAcI/DV9tYXTshvg/s1600/20100327_hyuna_7.jpg
http://4.bp.blogspot.com/-FXLxH_Qk5AI/UEXpkXJpbyI/AAAAAAAABjA/UPkSjy1d2A8/s1600/hyuna1.jpg
http://cutkillavince.com/wp-content/uploads/2012/12/20121210103701_1351971079.jpg
http://www.wallpele.com/wp-content/uploads/2013/03/Hyuna-Bubble-Pop-HD-Wallpaper-1024x576.jpg
http://2.bp.blogspot.com/-PED7dk47qfE/UcU7-6u0i3I/AAAAAAAAEZM/TRaED-EXjAQ/s640/4Minute-Hyuna-Whats-Your-Name-Teaser-MV-2.jpg
http://thekpoprage.files.wordpress.com/2012/06/hyuna-sticking-out-tongue.jpg?w=500
http://3.bp.blogspot.com/-uztzd24iiKo/UDUWn2DSXZI/AAAAAAAAP-8/Es1cTchE2Lw/s400/Hyuna+%2810%29.jpg
http://1.bp.blogspot.com/-vBks-bhfp6k/UISsTsdmXZI/AAAAAAAAJXM/nUOhhdrOHBw/s640/hyuna+ice+cream+mv+5.JPG
http://onekpop.com/i/hyuna-nearing-a-mental-breakdown_ainad_1.jpg
http://www.wallsave.com/wallpapers/1024x768/hyuna/117385/hyuna-minute-heo-gayoon-117385.jpg
http://3.bp.blogspot.com/-MLwwKr86W9M/UM94uYmakfI/AAAAAAAAHJg/MHU29OqSmA4/s1600/4minute+hyuna7.jpg
http://images5.fanpop.com/image/photos/25700000/Hyuna-kim-hyuna-25780838-743-1114.jpg
http://ilarge.listal.com/image/3626540/936full-hyuna.jpg
http://3.bp.blogspot.com/-ClJZokXpnV0/ThJhse3_k5I/AAAAAAAAB-U/pbHNxtutthI/s1600/Bubble+Pop%2521+2.jpg
http://images5.fanpop.com/image/photos/24500000/Hyuna-hyuna-24545739-320-480.jpg
http://3.bp.blogspot.com/-hiQQKjOJ-e8/UEXpofGfL9I/AAAAAAAABjI/1dzykTNFU3s/s1600/hyuna2.jpg
http://3.bp.blogspot.com/_nusmNmwFbSM/TVGTB9aIjtI/AAAAAAAAAIo/CHBNrvWdHMk/s1600/33467_170946379585565_119609581385912_605339_385277_n.jpg
http://th01.deviantart.net/fs71/PRE/i/2011/347/8/e/kim_hyuna_by_belenbillth-d4izfjh.jpg
http://fc02.deviantart.net/fs70/i/2012/358/a/6/hyuna___change_by_fadingz-d5p02q4.png
http://3.bp.blogspot.com/-XSW2rQcVQt0/UKxo8Kn0RUI/AAAAAAAAGL0/vbSbldbzfhc/s1600/AKR20121121073800005_01_ihyuna.jpg
http://fc05.deviantart.net/fs70/f/2012/358/6/1/hyuna_1920x1080_animated_by_seraphimax-d5p27dj.gif
http://images6.fanpop.com/image/photos/33900000/Hyuna-hyuna-33911582-1920-1080.jpg
http://kpopselca.com/selca/15457_pretty-hyuna.jpg
http://1.bp.blogspot.com/-6i2eFcJkx6w/UFtyi91rvVI/AAAAAAAAGrg/yhJ2Z3dfW_o/s1600/IMG_9253.JPG
http://www.wallsave.com/wallpapers/1920x1080/hyuna/470569/hyuna-470569.jpg
http://www.djproradio.net/wp-content/uploads/2012/10/20121021_hyuna_icecream6-600x337-e1351332916942.jpg
http://cdn.popdust.com/wp-content/uploads/2012/11/Hyuna-Ice-Cream-Feature.jpg
http://images4.fanpop.com/image/photos/16700000/Hyuna-G-NA-4minute-16715600-550-442.jpg
http://media.tumblr.com/tumblr_m5lasfwGQH1qh1rts.jpg
http://3.bp.blogspot.com/-olIseeUgUJI/UIYzgyW6jHI/AAAAAAAAQ58/PH65bKqzleA/s1600/13.jpg
http://3.bp.blogspot.com/-m3_4-DCi28U/UCumEF69UnI/AAAAAAAAHYE/cWz_zcdJGb8/s1600/Gangnam%2BStyle%2BHyuna%2BSeductive.PNG
http://images5.fanpop.com/image/photos/24700000/Hyuna-hyuna-24717566-500-667.jpg
http://4.bp.blogspot.com/-NIsQHFHgJUE/UPgHCCJUNWI/AAAAAAAAAco/vOB4ph_JV9E/s1600/hyuna.jpg
http://3.bp.blogspot.com/-PhaNVFgmm1k/UHlabOU18kI/AAAAAAAAAYM/c7nbS91jXZ4/s640/kim-hyuna-hot-09.jpg
http://1.bp.blogspot.com/-B4pVB3IbFJ0/UT1i9ccHsUI/AAAAAAAAgX4/UzfV4qMQINM/s1600/Hyuna+FIFA+Online+3+Wallpaper.jpg
http://images5.fanpop.com/image/photos/25700000/Hyuna-kim-hyuna-25780860-720-1280.jpg
http://images4.fanpop.com/image/photos/20800000/Hyuna-3-hyuna-20884762-500-738.png
http://4.bp.blogspot.com/-hmzJeucu8wQ/UIpjoSuOgBI/AAAAAAAAuR8/t0e5ohjN0wk/s1600/hyuna.jpg
http://static.askkpop.com/images/celebs/Korea/8316/Hyuna_210.jpg
http://www.soompi.com/wp-content/uploads/2012/11/121101-hyuna-wide.jpg
http://images5.fanpop.com/image/photos/25700000/Hyuna-kim-hyuna-25780522-457-578.jpg
http://www.officiallykmusic.com/wp-content/uploads/2013/05/130519HYUNA.jpg
http://1.bp.blogspot.com/-gkuShceHRQY/UIQTxSq57wI/AAAAAAAABTs/I6zvzg6x4Dc/s1600/hyuna.jpg
http://2.bp.blogspot.com/-bKzH7GPTzAA/UIqWIbrlLYI/AAAAAAAAud4/YXzEgtN-5aw/s1600/hyuna.jpg
http://2.bp.blogspot.com/-7bR7o8kM7-o/UGhVg-wP4SI/AAAAAAAABdI/60YxFeXxd-k/s1600/hyuna.jpg
http://kpopconcerts.com/wp-content/uploads/2012/10/Hyuna-Ice_Cream_3.jpg
http://i302.photobucket.com/albums/nn89/eternalhereafter/hyuna1920x1080.jpg
http://cdn.popdust.com/wp-content/uploads/2012/08/gangnam-style-alternate-video1.jpg
http://s3.vidimg.popscreen.com/original/23/eGJyd2NjMTI=_o_hyuna---change-mv.jpg
http://images6.fanpop.com/image/photos/33100000/Hyuna-kpop-4ever-33103248-500-375.jpg
http://images4.fanpop.com/image/photos/20800000/Hyuna-3-hyuna-20884758-441-467.png
http://images5.fanpop.com/image/photos/25700000/Hyuna-kim-hyuna-25780702-800-1200.jpg
http://2.bp.blogspot.com/-v-ydF_J4qBo/UCzSWJuiOZI/AAAAAAAABHo/DjypmvAjKdc/s320/Hyuna-kim-hyuna-25780709-477-624.jpg
http://www.ulisesarvizu.com/wp-content/uploads/2013/04/hyuna.jpg
http://japandaman.com/wp-content/uploads/2012/12/HyunA-2.jpg
http://media.onsugar.com/files/2011/02/08/1/1300/13009710/fc/Hyuna049.jpg
http://images5.fanpop.com/image/photos/25000000/Hyuna-hyuna-25065671-540-720.jpg
http://www.wallsave.com/wallpapers/1280x720/suzy-miss-a/63740/suzy-miss-a-hyuna-pic-minute-volume-up-mv-screen-capture-63740.jpg
http://koreaidols.files.wordpress.com/2009/08/20090813_hyuna_3_thumb.jpg
http://fareastvibes.com/wp-content/uploads/2012/10/hyuna.png
http://www.wallsave.com/wallpapers/1920x1080/hyuna/286885/hyuna-hd-286885.jpg
http://fc01.deviantart.net/fs71/f/2011/144/9/4/kim_hyuna_painting_by_anabellaml-d3h0r5k.jpg
http://1.bp.blogspot.com/-Ubf6qf6H4u4/ULuj-QGaQOI/AAAAAAAAHrM/A4FvONfB-oE/s1600/Hyuna+Goo+Hara+Hyorin+Chum+Churum+2.jpg
http://3.bp.blogspot.com/-2QMLVKUCnNA/T26lAYv8sSI/AAAAAAAACvE/dXGMKv0NNwM/s1600/4minute+Hyuna+Bubble+Pop+Boobs+GIF.gif
http://www.tunebee.com/wp-content/uploads/2012/11/HYUNA-ICE-CREAM-IMAGES_hands-on-head_005.jpg
http://images5.fanpop.com/image/photos/25400000/Kim-HyunA-Blonde-hyuna-kim-25404225-372-493.jpg
http://3.bp.blogspot.com/-FZKIhpv7Y-s/UMiAY03LsLI/AAAAAAAAYig/fnVCC56Y0zI/s1600/Kim+Hyuna+6.jpg
http://2.bp.blogspot.com/-fRnAFJbkNtk/ULTaFqSCAWI/AAAAAAAAYFo/QYkUWPGAEZA/s1600/20121125_hyuna_3.jpeg
http://4.bp.blogspot.com/-nVQ8GXVysKo/UJHMXgBdE1I/AAAAAAAAApk/9CHmvTlwH2I/s1600/121030-hyuna-america-inside%5B1%5D.jpg
http://hityourmuzik.files.wordpress.com/2011/12/hyuna112.jpg
http://1.bp.blogspot.com/-WiUDcUN9gZ8/UID0tESZ2CI/AAAAAAAAASk/menLnUcXLWQ/s1600/hyuna.jpg
http://2.bp.blogspot.com/-KJZ40bP3fgk/ThJ_WDd9j5I/AAAAAAAADGU/3JTp0Q8yDLg/s1600/20110705_hyuna_mv_1.jpg
http://wrongwroks.files.wordpress.com/2012/10/screen-shot-2012-10-20-at-11-19-32-pm.png
http://kfashionqueen.files.wordpress.com/2011/08/01100402000065804_1.jpg?w=645
http://s3.amazonaws.com/rapgenius/hyuna-hyuna-kim-25387121-640-360.jpg
http://4.bp.blogspot.com/-4BY_NJSH6gA/ThKT4b9tzXI/AAAAAAAABRA/5ee14IjBusY/s1600/hyuna+bubble+pop.png
http://1.bp.blogspot.com/-k8bm_NgmBbc/UCsUFotHnsI/AAAAAAAANOQ/azHwDtIdjvw/s1600/HyunAGangbamDislike.JPG
http://www.soompi.es/wp-content/blogs.dir/8/files/2013/06/Hyuna.jpg
http://2.bp.blogspot.com/-sEiewnVW_iE/UIT46gsuhLI/AAAAAAAAAQw/o2wmz_sil48/s1600/191012_HyunA_IceCream_2.jpg
http://images4.fanpop.com/image/photos/23500000/Hyuna-hyuna-23529251-500-854.jpg
http://www.wallsave.com/wallpapers/1024x768/hyuna/126929/hyuna-126929.jpg
http://stuffpoint.com/kpop/image/23313-kpop-hyuna.jpg
http://kpopselca.com/selca/2670_moon-hyuna-3.jpg
http://kfashionqueen.files.wordpress.com/2011/07/20110704_hyuna_baseball_concept_2.jpg
http://1.bp.blogspot.com/-LoiimhwinPU/UIsu1XsQrLI/AAAAAAAAN5s/ezwbEUyQh7M/s1600/HyunA+Ice+Cream+Wallpaper.jpg
http://hotspicykimchi.files.wordpress.com/2010/09/hyuna1.jpg
http://cynsworkshop.files.wordpress.com/2013/01/012813_yoseob_hyuna.jpg
http://en.korea.com/files/2010/12/hyuna.jpg
http://2.bp.blogspot.com/-Wxe5cOmjbqQ/UI6BWk4SqmI/AAAAAAAAvH0/ISYcjsSDQZg/s1600/149871_479057525471705_180978045_n.jpg
http://asiakpopnews1.files.wordpress.com/2011/12/4minute_hyuna.jpg?w=630
http://2.bp.blogspot.com/_ba_jBUkT-7k/THTTfM6D3QI/AAAAAAAAQeY/Tu7ltkxlYMY/s1600/20100824_hyunagyarumakeupinterest_main.jpg
http://images4.fanpop.com/image/photos/20200000/Hyuna-For-Ceci-2011-4minute-20236954-550-698.jpg
http://fc01.deviantart.net/fs71/f/2013/102/a/0/hyuna_png_by_gajmeditions-d61fv8v.png
http://www.soompi.es/wp-content/blogs.dir/8/files/2012/08/Hyuna-crying.jpeg
http://wac.450f.edgecastcdn.net/80450F/popcrush.com/files/2011/07/hyu.jpg
http://idolfake.com/wp-content/uploads/2014/03/hyuna-idolfake3.jpg
http://images5.fanpop.com/image/photos/25200000/Hyuna-hyuna-25214436-467-636.png
http://images2.fanpop.com/image/photos/14600000/HyunA-4minute-14634580-1280-800.jpg
http://2.bp.blogspot.com/-X1h8drupZ7o/UDUWfaEj12I/AAAAAAAAP-Q/chhlBGoZ4hA/s1600/Hyuna+%284%29.jpg
http://www.wallsave.com/wallpapers/1920x1080/nsfw/141278/nsfw-hyuna-141278.jpg
http://upload.wikimedia.org/wikipedia/commons/thumb/4/47/HyunA_2012.jpg/220px-HyunA_2012.jpg
http://img.ohkpop.com/2012/03/10/Xp49JN37.jpg
http://mrkpop.files.wordpress.com/2011/04/hyuna-rockn2.gif
http://2.bp.blogspot.com/-BiXFBk4_ess/UBj4xArFJUI/AAAAAAAAHgQ/Gasw12lFRQY/s1600/Hyuna+4minute+Purple+Shirt+%25283%2529.jpg
http://images4.fanpop.com/image/photos/23800000/BUBBLE-POP-hyuna-23874277-1920-1080.jpg
http://www.tunebee.com/wp-content/uploads/2012/11/Ice-Cream-Bubbles-Melting-HYUNA-Official-Music-Video-for-ICE-CREAM.jpg
http://www.tunebee.com/wp-content/uploads/2012/12/Hyuna-Jang-Hyun-Seung-Dancing-Trouble-Maker-Pics.jpg
http://2.bp.blogspot.com/-das8ndb68Jw/ULn7DSLtPtI/AAAAAAABFUA/OLHYBBQyZts/s1600/chum.jpg
http://thekpoprage.files.wordpress.com/2012/06/hyuna-smile.jpg
http://images4.fanpop.com/image/photos/23800000/BUBBLE-POP-hyuna-23874303-1920-1080.jpg
http://4.bp.blogspot.com/-J0_8VX2Fhzk/T84s9RqAtwI/AAAAAAAAIkQ/viPLL9gRFRM/s1600/hyuna2.jpg
http://3.bp.blogspot.com/-IMZwJQWdPnM/UDUWX6yEF_I/AAAAAAAAP94/UYUNwpouNqI/s1600/Hyuna+%281%29.JPG
http://images6.fanpop.com/image/photos/33100000/Hyuna-kpop-4ever-33103246-500-398.png
http://www.koreaboo.com/forum/uploads/8a1bfce5e283c451225098de827a74df.jpg
http://images5.fanpop.com/image/photos/25700000/Hyuna-kim-hyuna-25780829-743-1114.jpg
http://images5.fanpop.com/image/photos/25700000/Hyuna-kim-hyuna-25780491-385-562.jpg
http://4.bp.blogspot.com/-V0llPHrl7ts/UGfhz4-Ug6I/AAAAAAAAADo/xh9QMnEzUlE/s1600/hyuna_of_4minute_01102010222340.jpg
http://th02.deviantart.net/fs71/PRE/i/2012/221/7/e/___hyuna____by_judicial_noir-d5ag30r.jpg
http://i586.photobucket.com/albums/ss309/Kaliope9D/Kpop/4Minute/Hyuna3.jpg
http://d1i45kki000yqu.cloudfront.net/wp-content/uploads/2012/10/121022-hyuna-ice-cream-wide.jpg
http://onekpop.com/i/2012/08/park-hanbyul-reveals-her-sline-for-underwear-brand-bodyguard-ad_fyrha_1.jpg
http://images6.fanpop.com/image/photos/35300000/Hyuna-4minute-35389478-500-333.jpg
http://kpopselca.com/selca/22595_hyuna.jpg
http://www.hellokpop.com/wp-content/uploads/2012/10/HyunA-ICE-CREAM.mp4_000222096.jpg
http://www.wallpaperswala.com/wp-content/gallery/hyuna-kim/hot-hyuna-kim-bathing-time.jpg
http://seoulbeats.com/wp-content/uploads/2012/10/20121014_seoulbeats_hyuna-e1350225597567-300x254.jpg
http://fr.wallpapersus.com/wallpapers/2012/10/4minute-Kim-Hyuna-960x1080.jpg
http://4.bp.blogspot.com/-vBrpAUDR3hs/UZycHCo_3ZI/AAAAAAABPgY/sPzXQVWR-II/s1600/Hyuna.jpg
http://3.bp.blogspot.com/-T6KVyG1mISw/UXw-tfUxu-I/AAAAAAAAfqY/jutyoZpy1uw/s1600/Hyuna+and+Gayoon+4minute+InStyle+Magazine+May+2013+%25283%2529.jpg
