http://paleblue2014.files.wordpress.com/2009/03/kim-bum-a.jpg
http://4.bp.blogspot.com/-dO39EvSoAig/Ty3zo1gHq4I/AAAAAAAADhk/9sjatB67SwI/s1600/kim_bum-200906021946213.jpg
http://meyparkway.files.wordpress.com/2009/08/kim-bum_7.jpg
http://images6.fanpop.com/image/photos/34200000/Kim-Bum-kim-bum-34240094-600-801.jpg
http://3.bp.blogspot.com/-3CKOluCaPZA/TeKjn4fz1_I/AAAAAAAAH3Y/P5OJljT3IMM/s1600/kim-bum-90310006.jpg
http://2.bp.blogspot.com/_qG2A2HUpe_0/TJGzclH03pI/AAAAAAAAI00/txOSH1DvkNk/s1600/kim-bum-90310003.jpg
http://images6.fanpop.com/image/photos/34400000/Kim-Bum-kim-bum-34435046-600-801.jpg
http://3.bp.blogspot.com/-wiYl8pgfm58/TeKjneC9jeI/AAAAAAAAH3I/hasHc_J5eeM/s1600/Kim_bum.jpg
http://images4.fanpop.com/image/photos/16000000/kim-bum-kim-bum-16088991-854-1280.jpg
http://1.bp.blogspot.com/-rUTwbgdGGQI/Ty3zydxM4nI/AAAAAAAADh8/HBTONVU6A4A/s1600/newps1.jpg
http://thonyrulez.files.wordpress.com/2009/10/kimbum5.jpg
http://images6.fanpop.com/image/photos/33800000/Kim-Bum-kim-bum-33877374-550-825.jpg
http://meyparkway.files.wordpress.com/2009/08/kim-bum_4.jpg
http://images6.fanpop.com/image/photos/34600000/Kim-Bum-kim-bum-34697322-590-907.jpg
http://images4.fanpop.com/image/photos/19700000/-Kim-Bum-kim-bum-19767406-800-600.jpg
http://images6.fanpop.com/image/photos/33800000/Kim-Bum-kim-bum-33877377-1280-827.jpg
http://4.bp.blogspot.com/-z6aOKXDhwAM/TeKjoGi3xKI/AAAAAAAAH3g/GXu6XDRA_Wc/s1600/kim-bum-903100081.jpg
http://images2.fanpop.com/images/photos/7000000/ahhhhhh-kim-bum-7038674-681-1024.jpg
http://images6.fanpop.com/image/photos/34600000/Kim-Bum-kim-bum-34697311-640-960.jpg
http://images6.fanpop.com/image/photos/34600000/Kim-Bum-kim-bum-34697324-600-801.jpg
http://images2.fanpop.com/images/photos/7000000/cutie-kim-bum-7038767-681-1024.jpg
http://images6.fanpop.com/image/photos/33800000/Kim-Bum-kim-bum-33877379-430-765.jpg
http://2.bp.blogspot.com/--JCn_xIqQ40/T9Bz5PAtPDI/AAAAAAAAJNI/FQX0VykKTjE/s1600/Kim+Bum+25.jpg
http://images4.wikia.nocookie.net/__cb20121010215543/drama/es/images/9/9f/Kim_Bum_03.jpg
http://3.bp.blogspot.com/-x7FbY7jM9Ck/TYa3qKO6-oI/AAAAAAAAAB8/HYl1_v6GPLw/s1600/kim-bum.jpeg
http://images6.fanpop.com/image/photos/34800000/Kim-Bum-kim-bum-34843696-800-1066.jpg
http://3.bp.blogspot.com/-6atR7ZDyUA0/TkQeai3V5yI/AAAAAAAAADA/QEtHswZHmcY/s1600/My+Kim+Bum+%2528108%2529.jpg
http://mundohallyu.files.wordpress.com/2009/09/kim-bum_t-i14.jpg
http://images4.fanpop.com/image/photos/16000000/kim-bum-3-kim-bum-16089052-531-740.jpg
http://images5.fanpop.com/image/photos/29900000/Kim-Bum-kim-bum-29901424-1600-1200.jpg
http://images4.fanpop.com/image/photos/19700000/-Kim-Bum-SPRIS-kim-bum-19767503-800-600.jpg
http://images6.fanpop.com/image/photos/34400000/Kim-Bum-kim-bum-34435053-640-480.jpg
http://3.bp.blogspot.com/-atfwcmTASg8/USbri-dBKcI/AAAAAAAAJQw/z_QA_m0rdvA/s1600/Kim+BUm+7.jpg
http://images6.fanpop.com/image/photos/34400000/Kim-Bum-kim-bum-34435042-550-757.jpg
http://images6.fanpop.com/image/photos/33800000/Kim-Bum-kim-bum-33877382-490-735.jpg
http://images6.fanpop.com/image/photos/32200000/kim-bum-3-3-kim-bum-32286219-404-599.jpg
http://images6.fanpop.com/image/photos/33800000/Kim-Bum-kim-bum-33877378-580-909.jpg
http://3.bp.blogspot.com/-0lTaNj26_IE/UYd3lbAT7II/AAAAAAAAEbc/5VD_jv1eJP8/s1600/kim-bum-18.jpg
http://niesa87himura.files.wordpress.com/2011/03/kim-ki-bum-8.jpg
http://images2.fanpop.com/images/photos/7000000/bum-kim-bum-7038645-787-1183.jpg
http://images6.fanpop.com/image/photos/33800000/Kim-Bum-kim-bum-33877380-640-426.jpg
http://3.bp.blogspot.com/-3wFRQSQFTbY/T9B0Jyq3RaI/AAAAAAAAJN8/mp95aeH9Kis/s1600/Kim+Bum+8.jpg
http://4.bp.blogspot.com/_dj4BQny-86g/S8K-HN_myzI/AAAAAAAACRc/F3RLbkZsdPw/s1600/kim+bum2.jpg
http://images6.fanpop.com/image/photos/34600000/Kim-Bum-kim-bum-34697315-550-724.jpg
http://2.bp.blogspot.com/_qG2A2HUpe_0/TJGzc3wvMSI/AAAAAAAAI08/i4E9_SGVkWM/s1600/kim-bum-90310004.jpg
http://images4.fanpop.com/image/photos/19700000/-Kim-Bum-SPRIS-kim-bum-19767489-1024-819.jpg
http://images4.fanpop.com/image/photos/19700000/-Kim-Bum-SPRIS-kim-bum-19767474-800-600.jpg
http://star.koreandrama.org/wp-content/uploads/2006/06/Kim-Bum-20.jpg
http://images2.fanpop.com/image/photos/13700000/Kim-Bum-kim-bum-13778305-415-460.jpg
http://images4.fanpop.com/image/photos/16000000/kim-bum-3-kim-bum-16089027-814-1280.jpg
http://4.bp.blogspot.com/-tN4D-aUvr9o/T1AtoStExBI/AAAAAAAABtg/v9YFNy8Dp8k/s1600/Kim%2BBum%2B%252B.jpg
http://2.bp.blogspot.com/-eahG1_q4Pfk/UaGcoe5EYtI/AAAAAAAABM0/7LqCh0vSJKA/s1600/017c8_KimBum17.jpg
http://popseoul.files.wordpress.com/2011/02/kim-bum.jpg?w=590
http://ashtoh.files.wordpress.com/2009/12/dc31750a73280b1fe9248804.jpg
http://stc.obolog.net/multimedia/fotos/251000/250767/250767-141185.jpg
http://images4.fanpop.com/image/photos/16000000/kim-bum-3-kim-bum-16089098-853-1280.jpg
http://images6.fanpop.com/image/photos/33800000/Kim-Bum-kim-bum-33877373-900-1112.jpg
http://images6.fanpop.com/image/photos/34400000/Kim-Bum-kim-bum-34435038-660-960.jpg
http://images4.fanpop.com/image/photos/19700000/-Kim-Bum-kim-bum-19767430-800-600.jpg
http://2.bp.blogspot.com/-qLVJT0kk0Gg/Ty3zdtBhWwI/AAAAAAAADg0/YDJL9_rSNUs/s1600/sfall05m.jpg
http://4.bp.blogspot.com/-HMXLMXBXgOM/T-M5nbTejBI/AAAAAAAAARg/h5aRNjubsJo/s1600/kim+bum.jpg
http://images6.fanpop.com/image/photos/34600000/Kim-Bum-kim-bum-34697312-1140-620.jpg
http://images4.fanpop.com/image/photos/19700000/-Kim-Bum-SPRIS-kim-bum-19767479-800-600.jpg
http://www.wallsave.com/wallpapers/1024x768/kim-bum/45914/kim-bum-pictures-45914.jpg
http://images6.fanpop.com/image/photos/34200000/Kim-Bum-kim-bum-34240096-800-781.jpg
http://1.bp.blogspot.com/-tLtys4JwAQM/Tk9H0jqePhI/AAAAAAAABeE/tgcnbDHK0Cc/s1600/kim+bum+13.jpg
http://actorkimbum.files.wordpress.com/2010/11/kimbumbiography.jpg
http://bombasoju.files.wordpress.com/2011/08/kim-bum-2.jpg
http://asia247.files.wordpress.com/2012/03/kim-bum-2.jpg
http://2.bp.blogspot.com/-U267r4iUTfE/Ta5DYzJih7I/AAAAAAAAAdw/NGtkz-RX2Dw/s640/kimbum.jpg
http://images4.fanpop.com/image/photos/16000000/kim-bum-kim-bum-16088992-811-1162.jpg
http://mundohallyu.files.wordpress.com/2009/10/kim-bum.png
http://images3.wikia.nocookie.net/__cb20130419152134/drama/es/images/2/2e/Kim_Bum42.jpg
http://www.wallsave.com/wallpapers/1024x768/kim-bum/84647/kim-bum-84647.jpg
http://sumandu.files.wordpress.com/2012/02/kim-bum.jpg
http://images4.fanpop.com/image/photos/19800000/Kim-Bum-is-So-Hot-kim-bum-19834214-400-607.jpg
http://yeppopo.files.wordpress.com/2010/07/kim-bum.jpg
http://en.korea.com/kimbum/files/2011/10/111014cinepadam03.jpg
http://www.look.yeah1.com/albums/userpics/105175/Kim_Bum_Wallpapers_iloveyou_%286%29.jpg
http://images6.fanpop.com/image/photos/32200000/kim-bum-3-3-kim-bum-32286208-360-480.jpg
http://star.koreandrama.org/wp-content/uploads/2006/06/KimBum1.jpg
http://3.bp.blogspot.com/-FLth8f341jQ/TzCeHvR2byI/AAAAAAAAT-U/Zcv_aQTYp74/s400/4.jpg
http://star.koreandrama.org/wp-content/uploads/2006/06/Kim-Bum-26.jpg
http://images4.fanpop.com/image/photos/19700000/-Kim-Bum-kim-bum-19767449-550-426.jpg
http://1.bp.blogspot.com/-ZFHYF8nGwR8/UNvYH937bxI/AAAAAAAAHxc/J92UdNKk0GE/s1600/kim+bum+4.jpg
http://images6.fanpop.com/image/photos/33800000/Kim-Bum-kim-bum-33877381-426-600.jpg
http://chipskjaa.files.wordpress.com/2010/04/2ak12.jpg
http://images6.fanpop.com/image/photos/32200000/kim-bum-3-3-kim-bum-32286225-439-600.jpg
http://1.bp.blogspot.com/-GtTMwwkPAEE/Tk9H2iZ9TyI/AAAAAAAABeI/a8OtGETSGUU/s1600/kim+bum+14.jpg
http://files.myopera.com/thaiduong84/albums/843479/Kim%20Bum%20%28107%29.jpg
http://yeppopo.files.wordpress.com/2010/11/kim-bum.jpg
http://2.bp.blogspot.com/_IJqteR2nMqE/TK1lLf3Q1lI/AAAAAAAAACk/Po9AKvSWbyw/s1600/kim-bum.jpg
http://images2.fanpop.com/images/photos/7100000/URI-KIM-BUM-kim-bum-7150099-599-430.jpg
http://3.bp.blogspot.com/_xSEYtQpMIh0/TOpEBNGevdI/AAAAAAAAACg/9fwWRdXowrM/s1600/kim-bum.jpg
http://es.soompi.com/files/2012/01/Kim-Bum.jpg
http://vehilien.files.wordpress.com/2010/12/kim-bum-ringpang-donuts-01.jpg
http://images2.fanpop.com/images/photos/7000000/Uri-KiM-BuM-kim-bum-7071081-400-600.jpg
http://images4.fanpop.com/image/photos/19700000/-Kim-Bum-kim-bum-19767426-800-600.jpg
http://arlin71.files.wordpress.com/2009/08/kim_bum.jpg
http://mundohallyu.files.wordpress.com/2009/11/kim-bum_cd_cover1.jpg
http://2.bp.blogspot.com/_eEbe8MBWNWc/ShdknLMMYKI/AAAAAAAAABI/hk_qX3nJkeI/s400/Kim+bum+%282%29.jpg
http://i532.photobucket.com/albums/ee330/cute_suflada/kimbum.jpg
http://1.bp.blogspot.com/_ot5hh3t63qU/TIHilXw4l9I/AAAAAAAAACg/IFkjNtCR-V8/s1600/kim+bum.jpg
http://mundohallyu.files.wordpress.com/2009/09/kim-bum_t-i71.jpg
http://2.bp.blogspot.com/-ETqNU9c-bi8/USbdMMDq5-I/AAAAAAAACVk/Aj4q2demwsw/s1600/Kim+Bum+Wallpaper,+Sexy+Photo,+Images+and+Picture+Download+3.jpg
http://bombasoju.files.wordpress.com/2012/02/kim-bum-interview-cover.jpg?w=640
http://images6.fanpop.com/image/photos/34200000/Kim-Bum-kim-bum-34240100-550-825.jpg
http://webkorealovers.files.wordpress.com/2010/04/kim-bum-gh.jpg
http://4.bp.blogspot.com/-9oHh5Srmj1k/UTqvuxdcVlI/AAAAAAAADVU/jkHA1niAjyo/s1600/kim+bum+9.jpg
http://images4.fanpop.com/image/photos/19700000/-Kim-Bum-SPRIS-kim-bum-19767491-1024-819.jpg
http://3.bp.blogspot.com/-potGq-xlBUM/Ts_FA8MJTtI/AAAAAAAAAjM/LF_13KqUB0M/s1600/Kim+Bum_Wallpaper.jpg
http://1.bp.blogspot.com/-8UgDBTV2Lsk/Tg0bu-x3NSI/AAAAAAAAASA/SuQCMBlZbZU/s1600/kim-bum.jpg
http://4.bp.blogspot.com/-zz45TvMAgN0/T-tfKbwddHI/AAAAAAAAAIg/yPlu7S26gLQ/s1600/kim-bum-3-kim-bum-16089068-853-1280.jpg
http://plaza.yenta4.com/forum/uploads/2009/10/07/33633-kim_bum.jpg
http://1.bp.blogspot.com/-GNFX9vXONMc/Tk9HPOIzW8I/AAAAAAAABdo/R-yVo6-K78s/s1600/kim+bum+6.jpg
http://masalevi.files.wordpress.com/2011/10/800px-emergency-02.jpg
http://paleblue2014.files.wordpress.com/2009/03/kim-bum-22.jpg
http://2.bp.blogspot.com/-6iQcLSbBEcE/TZQSp5zaCQI/AAAAAAAAAJE/8xP20gTM6M0/s1600/kimbum1s.jpg
http://images4.fanpop.com/image/photos/16000000/kim-bum-3-kim-bum-16089028-922-1280.jpg
http://4.bp.blogspot.com/_KNg80YO_4ZQ/TCikk7LO6YI/AAAAAAAAAE4/XH2cBpsJUHg/s1600/kim+bum.jpg
http://images2.fanpop.com/images/photos/6100000/Kim-Bum-kim-bum-6163366-400-593.jpg
http://1.bp.blogspot.com/-zxXUecXbSeY/T5Ex_ymXxTI/AAAAAAAAAS0/Vjh-4VbwLuc/s1600/kim+bum+(34).jpg
http://images.kdramastars.com/data/images/full/4414/kim-bum.jpg?w=600
http://3.bp.blogspot.com/-q5yZ8vyBA-I/TeKlEKLSA_I/AAAAAAAAH4o/ypsjdz_7IJo/s1600/kim_bum-200906270731523.jpg
http://4.bp.blogspot.com/_UGQS1QlOHU0/TC1uJAO0gwI/AAAAAAAAAXQ/YuTVFXV9T6s/s1600/kim-bum-20.jpg
http://3.bp.blogspot.com/-1La6jFa5jgM/TeKjoIDeVJI/AAAAAAAAH3o/agArabWdZCY/s400/kim-bum.jpg
http://3.bp.blogspot.com/-91prjJLmhHo/Tg0b1dZnWnI/AAAAAAAAASM/YyzkYM-my-U/s400/kim-bum-16.jpg
http://images.kdramastars.com/data/images/full/22449/kim-bum.jpg?w=600
http://2.bp.blogspot.com/-QdYZ4nvFeDY/T3O_6QcvEdI/AAAAAAAAA_U/Zcm9nemScW4/s1600/kim-bum-actor-mundo-fama.jpg
http://images6.fanpop.com/image/photos/32200000/kim-bum-3-3-kim-bum-32286223-480-898.jpg
http://images2.fanpop.com/images/photos/6200000/Kim-Bum-Collage-Wallpaper-kim-bum-6251794-1280-1024.jpg
http://2.bp.blogspot.com/_85rkMJHb3PA/SvVNDBCq4WI/AAAAAAAAABs/LuNX3qHV8nk/s400/kb.jpg
http://star.koreandrama.org/wp-content/uploads/2006/06/Kim-Bum14.jpg
http://meyparkway.files.wordpress.com/2009/08/kim-bum_19.jpg
http://3.bp.blogspot.com/-VeCj1zB1zDw/TeKlEfMdaCI/AAAAAAAAH4w/jKpcv-XMRvI/s1600/kim-bum_cd_cover1.jpg
http://gongjunim.files.wordpress.com/2009/09/2009_9_1024_768_1.jpg
http://ashtoh.files.wordpress.com/2009/06/20090526_oz2.jpg
http://1.bp.blogspot.com/_aBVGpEJKZtw/S80CVS-cD5I/AAAAAAAAAAU/uHDM9-nhfbc/s1600/kim+bum.jpg
http://niesa87himura.files.wordpress.com/2010/11/kim-bum-7.jpg
http://farm8.staticflickr.com/7199/6852994951_7106f71726_b.jpg
http://images6.fanpop.com/image/photos/34600000/Kim-Bum-kim-bum-34697318-555-833.jpg
http://2sao.vietnamnetjsc.vn/2010/01/09/11/16/PP09012300073.JPG
http://1.bp.blogspot.com/-8QsD21-AqM4/UOWZeACc0OI/AAAAAAAABYI/DSqCCQWlP9g/s1600/kimbum+(17).jpg
http://ashtoh.files.wordpress.com/2009/07/1217572653410_1.jpg?w=535
http://en.korea.com/kimbum/files/2011/07/eabd83eb82a8eab980ebb29431.jpg
http://3.bp.blogspot.com/-sZlbe2M0vUI/TeKlESVNEwI/AAAAAAAAH44/Hsi4CLg-2kw/s1600/kim-bum_t-i2.jpg
http://images4.fanpop.com/image/photos/20300000/kim-bum-kim-bum-20369253-450-300.jpg
http://i658.photobucket.com/albums/uu302/radia_07/kim-bum-14.jpg
http://3.bp.blogspot.com/-kILjWFDZo8k/T9BzvZzZSMI/AAAAAAAAJMk/VAjj4FkBrR0/s1600/Kim+Bum+20.jpg
http://1.bp.blogspot.com/-cI1ci0-9q6M/TuzHPsfd7kI/AAAAAAAADVs/aW5wzKEVHtc/s1600/kim+bum+tudoparaotakus10.jpg
http://4c.img.v4.skyrock.net/4c1/vivianejin91/pics/2417995299_1.jpg
http://en.korea.com/kimbum/files/2011/07/28eab980ebb294ec868ced9dac.jpg
http://www.metrogaya.com/files/pictures/artikel/kim%20bum.jpg
http://2.bp.blogspot.com/-tas8PkYahWo/T1CmpOtLVsI/AAAAAAAAAHY/TeWFPUzO6cE/s1600/kim-bum81008008.jpg
http://1.bp.blogspot.com/-QFcf5aD-joQ/T1HnElv1lLI/AAAAAAAAAwU/3WzNuxpVMqA/s1600/Kim+Bum+Boys+Over+Flowers.jpg
http://i234.photobucket.com/albums/ee136/suwarnaadi/kimbumstraighthairstyle.jpg
http://www.soompi.com/wp-content/uploads/2013/03/Kim-Bum.jpg
http://sarangyoochunsshi.files.wordpress.com/2009/07/asia1.jpg
http://2.bp.blogspot.com/-xl0lU5yhLhU/USDilF9cNpI/AAAAAAAAJrs/UbprnNpF6bc/s1600/Kim+Bum+5.jpg
http://1.bp.blogspot.com/-jcuIQJquoe0/TZQUfGLk5XI/AAAAAAAAAJU/PWymxps8Aws/s320/kimbum15cropped1.jpg
http://fc09.deviantart.net/fs70/i/2012/355/7/4/kim_bum_by_valyag-d5oqgk1.jpg
http://i2.listal.com/image/931616/600full-kim-bum.jpg
http://images2.fanpop.com/image/photos/11400000/kim-bum-kim-bum-11427605-876-667.jpg
http://www.celebrityportal.org/wp-content/uploads/2009/06/kim-bum-05.jpg
http://2.bp.blogspot.com/-0kt5eKKRJKk/TfrCIpIC32I/AAAAAAAAAg8/zLxky4c29kY/s320/kim_bum-200906270731523.jpg
http://4.bp.blogspot.com/_YQNCCx2iHXQ/TCL0c4BAXpI/AAAAAAAADQ4/5lA0s6xtCTM/s1600/kim+bum+style+%281%29.jpg
http://1.bp.blogspot.com/_6-ew63hR0Zg/TGypwRopcKI/AAAAAAAAATA/MRB2psTwDEE/s1600/kim-bum-90310002.jpg
http://2.bp.blogspot.com/-2RKyE3nyNI4/UMvYFMV109I/AAAAAAAAJrE/vaQJELzU9XE/s1600/kim+bum+best+actorazos+2.jpg
http://blog.asia-team.net/wp-content/uploads/2010/09/20100903_kimbumtoenails-460x621.jpg
http://4.bp.blogspot.com/-roHLTltzuN4/TeY9KnqVXzI/AAAAAAAAAFU/ROv0ZaFEmh0/s1600/kim+bum2.jpg
http://hanguksarang.files.wordpress.com/2008/10/kim_bum.jpg
http://4.bp.blogspot.com/-ycBHn7M-qh8/T3O_95ZHo7I/AAAAAAAAA_s/5bcxL-BsCv0/s1600/kim-bum-como-modelo-mundo-fama.jpg
http://2.bp.blogspot.com/-N8lZNsl2cI4/UBaUWMCjkmI/AAAAAAAABzU/SIfLv6tpiyA/s1600/kim-bum-12.jpg
http://doramamania.com/wp-content/uploads/2013/05/Kim-Bum-....jpg
http://images2.fanpop.com/images/photos/6100000/Kim-Bum-kim-bum-6163368-332-500.jpg
http://3.bp.blogspot.com/-cy5bDdBJsYE/TeKkNaExg-I/AAAAAAAAH3w/DXSa4grr_40/s1600/kim_bum_car_accident.jpg
http://gongjunim.files.wordpress.com/2009/05/1.jpg?w=468
http://images3.wikia.nocookie.net/__cb20121122210337/drama/es/images/f/f3/Kim_Bum.jpg
http://bumsso.files.wordpress.com/2010/08/dreamfestival9.jpg
http://doztinoticias.files.wordpress.com/2009/06/20090603_kimbum_1.jpg
http://kawaiipic.files.wordpress.com/2010/10/kim-bum-spris-summer-3.jpg
http://i41.tinypic.com/e00byt.jpg
http://kawaiipic.files.wordpress.com/2010/10/kim-bum-spris-summer-25.jpg
http://4.bp.blogspot.com/_jEwMQAJHaFE/TBX0FzZxlQI/AAAAAAAAAC8/lLzhvkjG-po/s1600/kim-bum-ti-3.jpg
http://images.kdramastars.com/data/images/full/14984/kim-bum-and-kim-kang-woo-classy-black-suit-at-psychometry-media-press-conference.jpg?w=600
http://ashtoh.files.wordpress.com/2009/10/89073709.jpg?w=535
http://2.bp.blogspot.com/-Aif3kyeOh64/UJTKTSv3VMI/AAAAAAAAJ4I/0R71DO0cDT0/s1600/Kim11.JPG
http://bumsso.files.wordpress.com/2010/01/g8wed1.jpg
http://3.bp.blogspot.com/_Y-zQ4ZPEHn0/TGqq_1aTYSI/AAAAAAAAISE/T-7Tx4azWZw/s400/Kim+bum.jpg
http://4.bp.blogspot.com/-UBTG2AZYLrY/T-Xn__paMeI/AAAAAAAAAR8/mw435rdfih4/s1600/Kim_Bum-33.jpg
http://niesa87himura.files.wordpress.com/2010/11/kim-bum-10.jpg
http://images1.wikia.nocookie.net/__cb20121010215606/drama/es/images/1/13/Kim_Bum_05.jpg
http://media.onsugar.com/files/2010/03/11/6/346/3463885/7f679ee0d23b2f15_kimbum_singles_april2010_7.jpg
http://www.k-addicts.net/static/download/artists_images/kim-bum/kim_bum_04.jpeg
http://2.bp.blogspot.com/_rP3vq7HqHe4/TUbNioq5zQI/AAAAAAAAAoQ/JC3oWyGhmTg/s1600/20100108_kimbumstillmarry4.jpg
http://bumsso.files.wordpress.com/2009/07/screen3.jpg
http://en.korea.com/kimbum/files/2011/05/kb.jpg
http://th04.deviantart.net/fs71/PRE/i/2011/263/8/e/___kim_bum____by_timsawyer-d4afcb9.png
http://media.onsugar.com/files/2010/03/11/6/346/3463885/f7b043631c3f5327_kimbum_singles_april2010_3.jpg
http://popseoul.files.wordpress.com/2008/09/kimbum-0930-8.jpg
http://img.2sao.vietnamnet.vn/2010/04/25/02/06/kim-bum-13.jpg
http://fansclubelfindo.files.wordpress.com/2011/10/kim-bum1.jpg
http://i630.photobucket.com/albums/uu28/asianfanpress/Publicidad/Kim%20Bum/kimbum77.jpg
http://images5.fanpop.com/image/photos/29900000/Kim-Bum-kim-bum-29901453-1600-1200.jpg
http://2.bp.blogspot.com/_rP3vq7HqHe4/TUbRdtyl3PI/AAAAAAAAAqQ/71wJmL9g8ss/s1600/_Kim_Bum_Jo_In_Sung_Is_My_Idol_11092009181757.jpg
http://www.showwallpaper.com/wallpaper/0907/032156.jpg
http://4.bp.blogspot.com/-6s2IWpWv0tc/T_KeMG_0-TI/AAAAAAAACRs/b8tRD1xO_kU/s1600/600265_383280021720683_998313771_n.jpg
http://i630.photobucket.com/albums/uu28/asianfanpress/Photoshots/Kim%20Bum/KimBum_14.jpg
http://www.korean-drama-guide.com/images/Kim-Ki-Bum.jpg
http://3.bp.blogspot.com/-M8ocfrApmBc/TaKotc_YBtI/AAAAAAAAABo/kOU7f7522gY/s320/kim-bum.jpg
http://soeulmateskoreanaddicts.files.wordpress.com/2011/05/7607-bue8xp3bun.jpg
http://bumsso.files.wordpress.com/2009/09/hcpg8.jpg
http://3.bp.blogspot.com/-bFp1hbi-7T8/TVd5gyeibGI/AAAAAAAAADk/dpNzkfPh1SU/s1600/kim%2Bbum.jpg
http://images6.fanpop.com/image/photos/34400000/Kim-Bum-kim-bum-34435047-600-801.jpg
http://egosantrikrapsody.files.wordpress.com/2012/02/kim-bum.jpg
http://1.bp.blogspot.com/_CvwGAIs6xDQ/Ssa7cJLow4I/AAAAAAAAAAM/RndoDxWC2RM/s320/kim-bum-14.jpg
http://i406.photobucket.com/albums/pp146/ariannejoi18/kim-bum-903100051.jpg
http://farm4.staticflickr.com/3456/3761906030_7f61f06cdf.jpg
http://sin.stb.s-msn.com/i/81/10F0B15C518A55D26CF5A95A5B9CA2.jpg
http://d1i45kki000yqu.cloudfront.net/wp-content/uploads/2013/02/Kim-Bum.png
http://niesa87himura.files.wordpress.com/2011/03/kim-ki-bum-6.jpg
http://paleblue2014.files.wordpress.com/2009/03/kim-bum-18.jpg
http://2.bp.blogspot.com/_LxOGYvKFYKg/TVFajH6xrtI/AAAAAAAAApE/xc3Zawk3LfI/s640/kumpulan-foto-KIM-BUM-1.jpg
http://fc05.deviantart.net/fs71/f/2012/134/b/f/kim_bum___render_03_by_kariionigiridark-d4zt6le.png
http://2.bp.blogspot.com/-0bJnJ7ZK-qM/T9BzHCPtTsI/AAAAAAAAJLc/Ma-Fz8UhhP4/s1600/Kim+Bum+12.jpg
http://3.bp.blogspot.com/-CX_IYuGScA8/TeKjnphYpNI/AAAAAAAAH3Q/qhqLcdIWJmI/s400/kim-bum-6.jpg
http://3.bp.blogspot.com/_88wnLVk-VKI/SxIezBsGk8I/AAAAAAAAAAc/kbWqW1qZ2pM/s400/kim+sang+bum.jpg
http://www.asianbite.com/photos/kim-bum_20556.jpg
http://kpoprants.files.wordpress.com/2010/04/20100429_kimbumworlddate1-400x600.jpg
http://sports.chosun.com/news/entertainment/200912/20091213/9cm77110_1.jpg
http://1.bp.blogspot.com/-t2wRl1O1N1I/T-XhvGOXT6I/AAAAAAAAAH8/qDQ-Z9mv-Lg/s1600/smile_kim_bum_by_romantisous.jpg
http://2.bp.blogspot.com/-c1h-zitdbqI/TzM6OIJhwvI/AAAAAAAAB6M/k20TsXNH5nQ/s1600/kimbum.jpg
http://4.bp.blogspot.com/-8ugtzj5QU24/UG7z7OSqKmI/AAAAAAAABF8/d4HUmyBSjZY/s1600/New-Kim-Bum-Hairstyle-2012.jpg
http://www.koreandramafc.com/korean-star/kim-bum/kim-bum-16.jpg
http://farm4.staticflickr.com/3365/3616808592_ca5314a6c8.jpg
http://www.soompi.com/wp-content/uploads/2012/11/kim-bumi.jpg
http://coreaporsiempre.com/wp-content/uploads/2010/02/kim-bum-wall.jpg
http://popseoul.files.wordpress.com/2009/09/kim-bum-ti-6.jpg
http://1.bp.blogspot.com/-8UgDBTV2Lsk/Tg0bu-x3NSI/AAAAAAAAASA/SuQCMBlZbZU/s400/kim-bum.jpg
http://www.soompi.com/wp-content/uploads/2/h/ak/493094/493094.jpg
http://bumssoindo.files.wordpress.com/2011/02/easy2.jpg
http://images4.fanpop.com/image/photos/16000000/kim-bum-3-kim-bum-16089056-588-886.jpg
http://fourseasonscarnival.files.wordpress.com/2010/03/instyle1.jpg
http://star.koreandrama.org/wp-content/uploads/2006/06/Kim-Bum10.jpg
http://images5.fanpop.com/image/photos/29900000/Kim-Bum-kim-bum-29901474-1600-1200.jpg
http://1.bp.blogspot.com/-zxXUecXbSeY/T5Ex_ymXxTI/AAAAAAAAAS0/Vjh-4VbwLuc/s320/kim+bum+(34).jpg
http://sfiles.d1g.com/photos/94/21/4882194_max.jpg
http://www.ezluxe.com/accessories/images/mens/m15_kim_bum_%20onyx_earrings_e_1.jpg
http://www.asianbite.com/photos/kim-bum_21465.jpg
http://1.bp.blogspot.com/_NpFyQlVammg/TFs8gWd2WYI/AAAAAAAAFAc/mTea5GADUs4/s400/Kim+Bum+(5).jpeg
http://image.bugsm.co.kr/album/images/original/2101/210181.jpg
http://spimages.kpopstarz.com/data/images/full/2013/08/05/40044-kim-bum-est-esperando-su-enlistamiento-y-sorprender-a-todo-el-mundo-al.jpg
http://3.bp.blogspot.com/_2lTth7w46SU/S9WOgiu1YnI/AAAAAAAAA9Y/TjLfxXHeVbg/s1600/BUM+10.jpg
http://images3.wikia.nocookie.net/__cb20120617061545/drama/es/images/e/e3/Kim_Bum_Yong.jpg
http://i630.photobucket.com/albums/uu26/dramabeans/news/news2011/KimBum6.jpg
http://2.bp.blogspot.com/-x2cUBVUjZ7M/Tk9HY1ohKNI/AAAAAAAABds/KC_BDHJ1hi4/s1600/kim+bum+7.jpg
http://i669.photobucket.com/albums/vv54/0rch1d/dramas/20090803_dreamkimbumtrainingbeach3.jpg
http://2.bp.blogspot.com/-5mQkLrUpsOo/TYv8329d0qI/AAAAAAAAArs/GoGAT5bhGzQ/s1600/kim-bum-gq-2.jpg
http://star.koreandrama.org/wp-content/uploads/2006/06/kimbum6.jpg
http://3.bp.blogspot.com/_ot5hh3t63qU/TIHoHQSqaSI/AAAAAAAAADo/4YOSIvhUcFg/s1600/your+and+me.jpg
http://i2.listal.com/image/931639/600full-kim-bum.jpg
http://k14.vcmedia.vn/Images/Uploaded/Share/2010/05/04/100504StarKimBum-11.jpg
http://images4.fanpop.com/image/photos/20300000/kim-bum-kim-bum-20369302-377-500.jpg
http://i823.photobucket.com/albums/zz154/odyssey3199/kim-bum-195454.jpg
http://images4.fanpop.com/image/photos/20300000/kim-bum-kim-bum-20369229-399-787.jpg
http://4.bp.blogspot.com/_aoY9zgImI04/S20T-HN8UsI/AAAAAAAAABM/HqDIOXUjZig/S760/kim+bum+cool.jpg
http://img04.imgsinemalar.com/images/group_image_buyuk/8622/-Kim-Bum--53.jpg
http://3.bp.blogspot.com/-SDxg8QPfi20/UR7BiVnV-9I/AAAAAAAADMQ/2XkMqA2FDEc/s640/Kim+Bum.jpg
http://3.bp.blogspot.com/_ot5hh3t63qU/TIHjjjL5gWI/AAAAAAAAACo/T68RZDaw9j8/s1600/cute.jpg
http://i721.photobucket.com/albums/ww219/niccollo_05/Kim_Bum_5.jpg
http://asiadiction.files.wordpress.com/2011/08/kim_bum_hairstyles_01.jpg
http://images2.wikia.nocookie.net/__cb20130419152134/drama/es/images/6/63/Kim_Bum39.jpg
http://www.images-new.tapchilamdep.com/images/news/content_images/year2009/month6/1706091245115284-kim-bum-go-ara3.jpg
http://mundofama.net/wp-content/uploads/2009/04/kim-bum-photos-mundo-fama.jpg
http://images5.fanpop.com/image/photos/26100000/Kim-Bum-So-Yi-Jung-boys-before-flowers-26157763-384-384.jpg
http://images2.fanpop.com/images/photos/7000000/ahhhhhh-kim-bum-7038684-681-1024.jpg
http://www.showwallpaper.com/wallpapercenter/Korean_Star/Kim_Ki_Bum/Kim_Ki_Bum_050012.jpg
http://img04.imgsinemalar.com/images/artist_buyuk/228617/Bum-Kim-28.jpg
http://meyparkway.files.wordpress.com/2009/08/kim-bum_6.jpg
http://www.wallsave.com/wallpapers/1024x768/kim/216983/kim-bum-216983.jpg
http://4.bp.blogspot.com/-8ugtzj5QU24/UG7z7OSqKmI/AAAAAAAABF8/d4HUmyBSjZY/s320/New-Kim-Bum-Hairstyle-2012.jpg
http://images.kdramastars.com/data/images/full/4415/kim-bum.jpg?w=600
http://niesa87himura.files.wordpress.com/2010/11/kim-bum-16.jpg
http://images6.fanpop.com/image/photos/34800000/Kim-Bum-kim-bum-34843698-520-780.jpg
http://file.diendanbaclieu.net/hinh/2013/4/hinh-kim-bum-2013-8.jpg
http://images3.wikia.nocookie.net/__cb20121010215640/drama/es/images/thumb/c/c9/Kim_Bum_07.jpg/319px-Kim_Bum_07.jpg
http://images.wikia.com/drama/es/images/2/2d/Kim_Bum_13.jpg
http://meylaniaryanti.files.wordpress.com/2010/08/kimbum.jpg
http://fc05.deviantart.net/fs46/i/2009/226/e/3/Kim_Bum_00_by_Midotsuki.jpg
http://i.imgur.com/z6c6Lww.jpg
http://i792.photobucket.com/albums/yy203/cliffard_08/Kim_Bum.jpg
http://images.wikia.com/drama/es/images/c/c6/Kim_Bum_01.jpg
http://fc09.deviantart.net/fs71/i/2013/024/a/9/kim_bum_by_maniacsquirrel72-d5sl1tr.jpg
http://korea.tlcthai.com/wp-content/uploads/2010/01/kimbom011.jpg
http://blogmedia.dramafever.com/wp-content/uploads/2013/07/kimbum1.png
http://4.bp.blogspot.com/-HMXLMXBXgOM/T-M5nbTejBI/AAAAAAAAARg/h5aRNjubsJo/s320/kim+bum.jpg
http://images6.fanpop.com/image/photos/34600000/Kim-Bum-kim-bum-34697316-555-833.jpg
http://www.officiallykmusic.com/wp-content/uploads/2012/10/kim-bum-soo-psy.jpg
http://www.koreaittimes.com/images/imagecache/large/kim%20bum%20soo.jpg
http://media.tumblr.com/tumblr_lfda12uP301qfz5mt.jpg
http://dramahaven.com/wp-content/uploads/2012/01/padam-kim-bum-muscle5.jpg
http://goonao.files.wordpress.com/2010/01/1f4b12d7a27e3eeda044df6.jpg?w=450
http://kdramastars.files.wordpress.com/2011/09/kim-bum.jpg
http://img.2sao.vietnamnet.vn/2010/04/25/02/06/kim-bum-2.jpg
http://mundohallyu.files.wordpress.com/2009/09/kim-bum_t-i8.jpg
http://images4.fanpop.com/image/photos/19700000/-Kim-Bum-kim-bum-19767410-800-600.jpg
http://img04.blogcu.com/v2/images/big/e/z/g/ezgikapan739/ezgikapan739_135780678165.jpg
http://ashtoh.files.wordpress.com/2009/07/20090716_kimbum_highcut_pic1.jpg
http://images4.fanpop.com/image/photos/19700000/-Kim-Bum-kim-bum-19767411-800-600.jpg
http://www.korean-drama-guide.com/images/Kim-Bum-Soo-1.jpg
http://2.bp.blogspot.com/-geBtMH253zk/TzCeHK7_erI/AAAAAAAAT94/QB9d5h7mGJc/s400/2.jpg
http://idata.over-blog.com/1/37/76/11/002/Kim-Bum---Screen-Magazine3.jpg
http://3.bp.blogspot.com/-Xv3dlKsQmrM/USbdTHoTVlI/AAAAAAAACV0/EJMqSGELenc/s400/foto-foto-kim-bum-34.jpg
http://blog.pucp.edu.pe/media/2226/20090526-bisang_kim.bum_kim.byul_01.jpg
http://static.askkpop.com/images/upload/0/laplace/2012/10/19/Kim-Bum-Soo-receives-special-treatment-for-being-friends-with-Psy.jpg
http://bombasoju.files.wordpress.com/2011/08/kim-bum.jpg?w=640
http://kimchisoju.files.wordpress.com/2009/07/kimbum3.jpg?w=500
http://telepics.net/uploads/pictures/big_images/Kim_Bum.jpg
http://img1.loadtr.com/b-747998-kim_bum.jpg
http://data.whicdn.com/images/13154375/kim_bum-200906270731523_large.jpg
http://i622.photobucket.com/albums/tt304/tuszy/kim%20bum/bom57.jpg
http://ashtoh.files.wordpress.com/2010/07/kb-3.jpg
http://images4.fanpop.com/image/photos/19700000/-Kim-Bum-SPRIS-kim-bum-19767487-800-600.jpg
http://images4.fanpop.com/image/photos/19800000/Kim-Bum-is-So-hot-kim-bum-19834131-454-454.jpg
http://2.bp.blogspot.com/-eiZfsXxVXU8/T04EN3K-EJI/AAAAAAAAA6g/VpCOuqScXpo/s1600/Foto+Kim+Bum+5.jpg
http://upic.me/i/61/353194081_150301.gif
http://uccfs.paran.com/PUD/dh/fmrhf/IMG/20101101/1288620191_201011012304501212724201_0.jpg
http://4.bp.blogspot.com/-ga27jWAHhjg/Tq0ozVohwQI/AAAAAAAAAKg/OkLpC6GjVmg/s1600/600full-kim-bum%255B1%255D.jpg
http://1.bp.blogspot.com/-xj5M-Mij7E4/UPKyD-PM1wI/AAAAAAAAH5M/VtekHZq00Vg/s1600/Kim+Bum+1.jpg
http://telepics.net/uploads/pictures/big_images/1315258913_Kim_Bum.jpg
http://dhevygreenku.files.wordpress.com/2011/03/kim-bum.jpg
http://1.bp.blogspot.com/-lTeniGceLwc/T9By6sl1ZgI/AAAAAAAAJLM/NrEis6VtqbM/s1600/Kim+Bum+10.jpg
http://sin.stb.s-msn.com/i/7B/E5225128E87335C140576976A4CB8D.jpg
http://www.simply-love.net/wp-content/uploads/2013/07/¹«ºñÀ§Å©¹ü01.jpg
http://paleblue2014.files.wordpress.com/2009/03/kim-bum-10.jpg
http://i653.photobucket.com/albums/uu253/happy_win34/Kim%20Bum/kimbum.jpg
http://images4.fanpop.com/image/photos/22500000/kim-bum-2-kim-bum-22572651-1024-768.jpg
http://ashtoh.files.wordpress.com/2009/11/bisangscreen24.jpg
http://images.wikia.com/drama/es/images/a/a0/Kim_Bum_12.JPG
http://2.bp.blogspot.com/-BcF_r5f6kzM/UQxj4NJwE_I/AAAAAAAACb0/fUi2mnvOXyA/s1600/kimbum.jpg
http://4.bp.blogspot.com/_tsIMHkQBk7U/SmfpUuoMxZI/AAAAAAAAAIk/ItOdONzs-9E/s320/Kim+Bum.jpg
http://i630.photobucket.com/albums/uu28/asianfanpress/Publicidad/Kim%20Bum/kimbum76.jpg
http://images4.fanpop.com/image/photos/16000000/kim-bum-3-kim-bum-16089064-540-720.jpg
http://www.seoul.co.kr/img/upload/2009/02/03/SSI_20090203133613_V.jpg
http://wallpoper.com/images/00/08/74/66/kim-bum_00087466.jpg
http://www.koreanclicks.com/pics/KimBum1.jpg
http://images6.fanpop.com/image/photos/34800000/Kim-Bum-kim-bum-34843697-810-1023.jpg
http://www.soompi.com/wp-content/uploads/2013/05/kim-bum-main1.jpg
http://images4.fanpop.com/image/photos/20300000/kim-bum-kim-bum-20369306-370-555.jpg
http://i234.photobucket.com/albums/ee136/suwarnaadi/kimbumasianhairstyle2b.jpg
http://bumsso.files.wordpress.com/2012/12/kim-bum-king-kong-save-the-polar-bears-campaign-4.jpg
http://asianfamily.files.wordpress.com/2010/03/kim-bum3.jpg
http://niesa87himura.files.wordpress.com/2011/03/kim-ki-bum-9.jpg
http://ashtoh.files.wordpress.com/2009/09/kb-2.jpg
http://images6.fanpop.com/image/photos/34600000/Kim-Bum-kim-bum-34697317-555-833.jpg
http://www.video4viet.com/news/2009/12/01/images/2JL7IE_t259608.jpg
http://images5.fanpop.com/image/photos/26100000/Kim-Bum-So-Yi-Jung-boys-before-flowers-26157740-293-400.jpg
http://i528.photobucket.com/albums/dd327/pinkprophetarakz/kim%20bum/kimbum19.jpg
http://d1i45kki000yqu.cloudfront.net/wp-content/uploads/2013/01/snake-kim-bum.jpg
http://3.bp.blogspot.com/_ogYriNtPCKc/TETOvNeMFFI/AAAAAAAAASA/NgnHFfSn8Y0/s400/image-4c4431a949286-Kim-Bum-Preview.jpg
http://masalevi.files.wordpress.com/2011/10/bisang_30.jpg
http://images6.fanpop.com/image/photos/34800000/Kim-Bum-kim-bum-34843703-680-1024.jpg
http://images4.fanpop.com/image/photos/19800000/Kim-Bum-is-So-Hot-kim-bum-19834211-440-591.jpg
http://phoebeofficial.files.wordpress.com/2010/10/kim-bum.jpg
http://yeppopo.files.wordpress.com/2010/09/kimbum_081101.jpg
http://star.koreandrama.org/wp-content/uploads/2006/06/kimbum4.jpg
http://i2.listal.com/image/931605/600full-kim-bum.jpg
http://4.bp.blogspot.com/_8eeAOwnyP6I/S-Yf9flGT-I/AAAAAAAAAA4/XlNpPFPjp5E/s1600/1_667026665l.jpg
http://media.onsugar.com/files/2010/01/02/4/346/3463885/0d3bfcaf268b6578_kimbum_drama_presscon_1.jpg
http://en.korea.com/kimbum/files/2011/04/ebb88ceba19cecbd94eba6ac2-2.jpg
http://files.myopera.com/daotrongnghia/albums/2696061/1260748779-kim-bum-1.jpg
http://kawaiipic.files.wordpress.com/2010/10/kim-bum-5.jpg
http://i609.photobucket.com/albums/tt176/cyu1991/kim-bum-90310007.jpg
http://img103.imageshack.us/img103/2584/ichek0071yc5.jpg
http://www.koreanclicks.com/pics/KimBum3.jpg
http://img682.imageshack.us/img682/6533/int1x.jpg
http://3.bp.blogspot.com/-frdLH2jctSQ/TYCB2nRS_vI/AAAAAAAAA9I/bXtUUJxuJpE/s1600/KimBum7.jpg
http://4.bp.blogspot.com/-mYH0q8tBiAI/UDICACyKeuI/AAAAAAAAITQ/Gtmn4OtIgYM/s640/Kim+Sang+Bum+74.jpg
http://i234.photobucket.com/albums/ee136/suwarnaadi/kimbumstraightshaghairstyle.jpg
http://sujufemm.files.wordpress.com/2011/05/kim-bum.jpg
http://4.bp.blogspot.com/-GWByz-DKVUc/TpO145LNN_I/AAAAAAAAACk/iwidXroDYk4/s1600/love_kim_bum.jpg
http://3.bp.blogspot.com/_nL5OmnJ2m0c/TM1X4x5WSyI/AAAAAAAAACE/oLbIi8ecoD4/s1600/kim-bum-sing-with-piano-1.jpg
http://static.tumblr.com/kiavkd1/1FTlir7bz/gnj1102170536013-p2.jpg
http://digidrama.files.wordpress.com/2009/04/kimbum-0421-1.jpg
http://img02.imgsinemalar.com/images/group_image_buyuk/8622/-Kim-Bum--58.jpg
http://chipskjaa.files.wordpress.com/2010/04/kaf11.jpg
http://webboard.yenta4.com/uploads/2009/10/07/344968-2007229_attachment.jpg
http://4.bp.blogspot.com/-4p2ElfIMO8Q/Ta72wP1bXFI/AAAAAAAAAFU/VAFrR17yEaM/s1600/Kim_Bum_Wallpaper_by_iLACSA.jpg
http://paleblue2014.files.wordpress.com/2009/03/kim-bum-12.jpg?w=384
http://d1i45kki000yqu.cloudfront.net/wp-content/uploads/2013/01/kim-bum-me2day.png
http://www.ezluxe.com/accessories/images/mens/m41_kim_bum_cutting_round_arrings_e.jpg
http://media.tumblr.com/tumblr_ldtdu5IRCD1qa435t.jpg
http://koreanfansparty.files.wordpress.com/2011/08/bbf-kim-bum.jpg
http://stream1.gifsoup.com/view1/1139100/kim-bum-o.gif
http://wallpoper.com/images/00/08/69/63/kim-bum_00086963.jpg
http://3.bp.blogspot.com/-DtkXTfa_0Wk/UMvX8IRdgDI/AAAAAAAAJq8/9y8C6bK80Zw/s1600/kim+bum+best+actorazos+1.jpg
http://data.yeuamnhac.com/data/files/Image/Kim%20Bum%2001.jpg
http://3.bp.blogspot.com/_4ACzM49rXzA/TDaiLNwqSlI/AAAAAAAAADY/4X1i989CFKw/s1600/Kim+Bum.jpg
http://reikanorakuen.files.wordpress.com/2010/07/kimbum-in-tw-11.jpg?w=698
http://kibecy.files.wordpress.com/2009/06/ha11f20-20copy.jpg?w=535
http://images4.fanpop.com/image/photos/16000000/kim-bum-3-kim-bum-16089131-972-963.jpg
http://www.asianbite.com/photos/kim-bum_20347.jpg
http://i62.servimg.com/u/f62/15/52/22/51/955a6710.jpg
http://niesa87himura.files.wordpress.com/2011/03/kim-ki-bum-4.jpg
http://img845.imageshack.us/img845/4150/tumblrl2up1sek5d1qbrocu.png
http://images.wikia.com/drama/es/images/c/c4/Kim_Bum_Yong2.jpg
http://niesa87himura.files.wordpress.com/2011/03/kim-ki-bum-15.jpg
http://k14.vcmedia.vn/Images/Uploaded/Share/2010/05/23/100523StarKimBum-3.jpg
http://en.korea.com/kimbum/files/2011/06/ebb2941.jpg
http://images6.fanpop.com/image/photos/32200000/Kim-Bum-Boys-Over-Flowers-Round-Earrings-kim-bum-32295572-544-328.jpg
http://2.bp.blogspot.com/_e0y-gqjzqII/TMOqMHsQdEI/AAAAAAAAACk/90DNfhd4WzU/s1600/kim-bum-5.jpg
http://i535.photobucket.com/albums/ee360/maymay2711/BBF/5122.jpg
http://img.ohkpop.com/2013/04/04/ZP93Th18.jpg
http://www.showwallpaper.com/wallpaper/1008/046629.jpg
http://www.hancinema.net/photos/photo87949.jpg
http://images2.fanpop.com/images/photos/7000000/bumie-kim-bum-7038606-787-1183.jpg
http://www.showwallpaper.com/wallpapercenter/Korean_Star/Kim_Ki_Bum/Kim_Ki_Bum_050013.jpg
http://i662.photobucket.com/albums/uu350/sheenamogado/AvatarKimBum14.jpg
http://images4.fanpop.com/image/photos/15400000/new-version-of-Kim-Bum-kim-bum-15468211-593-539.jpg
http://lh5.ggpht.com/menphoto/SOy6nbKHb1I/AAAAAAAAB4Y/gwA4JB0pNew/s800/kim-bum81008006.jpg
