http://images5.fanpop.com/image/photos/27700000/-Lee-Joon-lee-joon-27723454-1440-900.jpg
http://images5.fanpop.com/image/photos/28200000/Lee-Joon-It-s-War-MV-lee-joon-28286685-1920-1080.jpg
http://images5.fanpop.com/image/photos/27700000/-Lee-Joon-lee-joon-27724657-1200-800.jpg
http://images5.fanpop.com/image/photos/28200000/Lee-Joon-It-s-War-MV-lee-joon-28286728-1920-1080.jpg
http://images5.fanpop.com/image/photos/27700000/-Lee-Joon-lee-joon-27724719-1029-1029.jpg
http://images5.fanpop.com/image/photos/28200000/Lee-Joon-It-s-War-MV-lee-joon-28286660-1920-1080.jpg
http://images5.fanpop.com/image/photos/28200000/Lee-Joon-It-s-War-MV-lee-joon-28286725-1920-1080.jpg
http://images5.fanpop.com/image/photos/27700000/-Lee-Joon-lee-joon-27724031-1024-768.png
http://images4.fanpop.com/image/photos/18400000/Lee-Joon-mblaq-18455291-1280-927.jpg
http://images5.fanpop.com/image/photos/27700000/-Lee-Joon-lee-joon-27724790-1280-1024.jpg
http://images6.fanpop.com/image/photos/32100000/JOONIE-lee-joon-32123015-1280-860.jpg
http://images5.fanpop.com/image/photos/28200000/Lee-Joon-It-s-War-MV-lee-joon-28286842-1920-1080.jpg
http://images5.fanpop.com/image/photos/28200000/Lee-Joon-It-s-War-MV-lee-joon-28286717-1920-1080.jpg
http://images5.fanpop.com/image/photos/28200000/Lee-Joon-It-s-War-MV-lee-joon-28286633-1920-1080.jpg
http://sfiles.d1g.com/photos/46/96/4679646_max.jpg
http://images6.fanpop.com/image/photos/32300000/Joonnie-lee-joon-32373662-1200-800.jpg
http://www.hancinema.net/photos/fullsizephoto130854.jpg
http://images5.fanpop.com/image/photos/28200000/Lee-Joon-It-s-War-MV-lee-joon-28286756-1920-1080.jpg
http://images4.fanpop.com/image/photos/16300000/Lee-Joon-lee-joon-E2-99-A5-16302109-1400-900.jpg
http://images5.fanpop.com/image/photos/28200000/Lee-Joon-It-s-War-MV-lee-joon-28286617-1920-1080.jpg
http://images4.fanpop.com/image/photos/16300000/Lee-Joon-lee-joon-E2-99-A5-16302110-1200-1800.jpg
http://images5.fanpop.com/image/photos/27700000/-Lee-Joon-lee-joon-27723966-1024-768.png
http://images5.fanpop.com/image/photos/28200000/Lee-Joon-It-s-War-MV-lee-joon-28287083-1920-1080.jpg
http://images5.fanpop.com/image/photos/27700000/-Lee-Joon-lee-joon-27723464-1920-1080.jpg
http://fc09.deviantart.net/fs71/f/2011/008/c/4/lee_joon_cry_mv_by_kuro_kokoro-d36ozdc.jpg
http://images5.fanpop.com/image/photos/28200000/Lee-Joon-It-s-War-MV-lee-joon-28287058-1920-1080.jpg
http://images6.fanpop.com/image/photos/32100000/JOONIE-lee-joon-32123037-1280-800.jpg
http://images5.fanpop.com/image/photos/27700000/-Lee-Joon-lee-joon-27723461-1012-1062.jpg
http://images5.fanpop.com/image/photos/28200000/Lee-Joon-It-s-War-MV-lee-joon-28287033-1920-1080.jpg
http://images5.fanpop.com/image/photos/27700000/-Lee-Joon-lee-joon-27723883-1024-768.png
http://images5.fanpop.com/image/photos/31600000/Lee-Joon-lee-joon-31624175-500-650.jpg
http://images4.wikia.nocookie.net/__cb20130118162250/drama/es/images/b/b4/Lee_Joon10.jpg
http://images5.fanpop.com/image/photos/27700000/-Lee-Joon-lee-joon-27724660-1280-853.jpg
http://4.bp.blogspot.com/_gyXH960f5oo/TCbRgKfXgLI/AAAAAAAAAXY/TBaGJUL7UYE/s1600/a0033230_4c2217e58fda8.jpg
http://4.bp.blogspot.com/-1Y9vSMua88c/UEq13s1_KYI/AAAAAAAADqA/u4lVav-DM1I/s1600/lee+joon+10.jpg
http://images5.fanpop.com/image/photos/27600000/-Lee-Joon-lee-joon-27699655-497-578.jpg
http://images6.fanpop.com/image/photos/32300000/Joonnie-lee-joon-32373627-1024-683.jpg
http://images6.fanpop.com/image/photos/32400000/Joonie-lee-joon-32449423-500-438.jpg
http://images6.fanpop.com/image/photos/32100000/JOONIE-lee-joon-32123025-1280-800.jpg
http://images6.fanpop.com/image/photos/32100000/JOONIE-lee-joon-32123110-1237-1600.jpg
http://3.bp.blogspot.com/-XCTiwdVzeI8/T5YDoJmIEII/AAAAAAAAYVA/liKiTQjUsj8/s1600/Foto-Lee-Joon-15.jpg
http://images5.fanpop.com/image/photos/28200000/Lee-Joon-It-s-War-MV-lee-joon-28286731-1920-1080.jpg
http://images5.fanpop.com/image/photos/31600000/Lee-Joon-lee-joon-31624288-500-392.jpg
http://images6.fanpop.com/image/photos/32100000/JOONIE-lee-joon-32123104-1280-800.jpg
http://1.bp.blogspot.com/-zf7GjP0z7wU/Tl5ZkkNAXPI/AAAAAAAAANs/LOFV4Z9sIsA/s1600/26-lee-joon.jpg
http://www.soompi.es/wp-content/blogs.dir/8/files/2013/06/0626-lee-joon-wide.jpg
http://images6.fanpop.com/image/photos/32300000/Joonnie-lee-joon-32373681-800-1200.jpg
http://images5.fanpop.com/image/photos/28200000/Lee-Joon-for-High-Cut-lee-joon-28268243-691-1023.jpg
http://images4.fanpop.com/image/photos/23600000/Lee-Joon-w-mblaq-23644241-1023-682.jpg
http://images6.fanpop.com/image/photos/32100000/JOONIE-lee-joon-32123033-1280-800.jpg
http://images5.fanpop.com/image/photos/31600000/Lee-Joon-lee-joon-31624384-600-450.jpg
http://images6.fanpop.com/image/photos/32100000/Joonie-lee-joon-32146617-700-982.jpg
http://star.koreandrama.org/wp-content/uploads/2006/06/Lee-Joon-1.jpg
http://images4.fanpop.com/image/photos/16300000/Lee-Joon-lee-joon-E2-99-A5-16302104-800-1200.jpg
http://images5.fanpop.com/image/photos/27600000/-Lee-Joon-lee-joon-27699640-540-687.jpg
http://25.media.tumblr.com/73f1d40164545d7ce29db406c7268ec6/tumblr_mh40uqJHx71qm375oo1_500.png
http://images5.fanpop.com/image/photos/31600000/Lee-Joon-lee-joon-31624268-520-780.jpg
http://images5.fanpop.com/image/photos/32000000/JOONIE-lee-joon-32070298-1366-768.jpg
http://images5.fanpop.com/image/photos/28200000/Lee-Joon-It-s-War-MV-lee-joon-28286824-1920-1080.jpg
http://images6.fanpop.com/image/photos/32400000/Joonie-lee-joon-32449461-498-550.jpg
http://www.hancinema.net/photos/fullsizephoto130871.jpg
http://images6.fanpop.com/image/photos/32300000/Joonnie-lee-joon-32373693-800-1200.jpg
http://images5.fanpop.com/image/photos/31500000/Lee-Joon-mblaq-31589206-1024-686.jpg
http://i807.photobucket.com/albums/yy357/SuperNoona/MBLAQ/ZL07466092_1_1.jpg
http://images5.fanpop.com/image/photos/29600000/Joon-lee-joon-29603287-1024-768.jpg
http://3.bp.blogspot.com/-tQGPvez1uZU/TaE9qAXi80I/AAAAAAAAC44/IbW4_e15CCQ/s1600/Lee%252520Joon1.jpg
http://images6.fanpop.com/image/photos/34300000/-lee-joon-34342498-1280-800.jpg
http://images6.fanpop.com/image/photos/32100000/Joonie-lee-joon-32146216-467-700.jpg
http://images6.fanpop.com/image/photos/34300000/-lee-joon-34342493-823-1280.jpg
http://asianwiki.com/images/8/8f/Lee_Joon-p03.jpg
http://4.bp.blogspot.com/-6FIVj_j3BOk/Tvs8KFulGWI/AAAAAAAAAOE/IepbC8Q0raE/s1600/ml2.jpg
http://images4.fanpop.com/image/photos/23400000/lee-joon-lee-joon-mblaq-23463894-400-400.png
http://images5.fanpop.com/image/photos/27700000/-Lee-Joon-lee-joon-27724574-1000-800.jpg
http://images5.fanpop.com/image/photos/27600000/-Lee-Joon-lee-joon-27699710-400-583.jpg
http://images4.fanpop.com/image/photos/23400000/lee-joon-lee-joon-23483449-500-422.png
http://star.koreandrama.org/wp-content/uploads/2006/06/Lee-Joon-2.jpg
http://images6.fanpop.com/image/photos/35000000/-Lee-Joon-mblaq-35081400-500-699.jpg
http://images5.fanpop.com/image/photos/28200000/Lee-Joon-It-s-War-MV-lee-joon-28286630-1920-1080.jpg
http://images5.fanpop.com/image/photos/28200000/Lee-Joon-It-s-War-MV-lee-joon-28286721-1920-1080.jpg
http://star.koreandrama.org/wp-content/uploads/2006/06/Lee-Joon-12.jpg
http://images5.fanpop.com/image/photos/27700000/-Lee-Joon-lee-joon-27723889-1024-640.jpg
http://star.koreandrama.org/wp-content/uploads/2006/06/Lee-Joon-11.jpg
http://star.koreandrama.org/wp-content/uploads/2006/06/Lee-Joon-7.jpg
http://images6.fanpop.com/image/photos/32100000/Joonie-lee-joon-32146468-816-1119.jpg
http://images4.fanpop.com/image/photos/23500000/Lee-Joon-w-mblaq-23554443-682-1023.jpg
http://2.bp.blogspot.com/_ba_jBUkT-7k/SwKzxxsuTAI/AAAAAAAAJzU/MkjkFqubEzU/s1600/joon14.jpg
http://media-cache-ec0.pinimg.com/736x/cb/e9/84/cbe9841f0e3fca1b78df4787cfa1b62c.jpg
http://koreandrama.com/wp-content/uploads/2013/01/이준.jpg
http://images4.fanpop.com/image/photos/23600000/Lee-Joon-w-mblaq-23644243-682-1023.jpg
http://2.bp.blogspot.com/_dR31oqpuJ7s/TTYdCdRghBI/AAAAAAAAALo/k0j_CoHKDJk/s1600/Lee%2BJoon%2B014.jpg
http://sookyeong.files.wordpress.com/2009/11/200911171957421001_1.jpg
http://images6.fanpop.com/image/photos/32100000/Joonie-lee-joon-32146550-500-707.jpg
http://images5.fanpop.com/image/photos/31600000/Lee-Joon-lee-joon-31624265-364-546.jpg
http://images5.fanpop.com/image/photos/31600000/Lee-Joon-lee-joon-31624210-500-418.jpg
http://images5.fanpop.com/image/photos/27700000/-Lee-Joon-lee-joon-27723902-1024-640.jpg
http://images6.fanpop.com/image/photos/35000000/-Lee-Joon-mblaq-35081372-1000-892.jpg
http://star.koreandrama.org/wp-content/uploads/2006/06/Lee-Joon-15.jpg
http://images6.fanpop.com/image/photos/34300000/-lee-joon-34342494-823-1280.jpg
http://images4.fanpop.com/image/photos/16300000/-Lee-Joon-Super-Power-Star-Concert-lee-joon-E2-99-A5-16302505-600-812.jpg
http://i295.photobucket.com/albums/mm148/0ayumie0/1269012503_100319mj_joon01.jpg
http://images5.fanpop.com/image/photos/28200000/Lee-Joon-It-s-War-MV-lee-joon-28286924-1920-1080.jpg
http://images4.wikia.nocookie.net/__cb20110811034933/drama/es/images/8/8a/Lee_Joon1.jpg
http://4.bp.blogspot.com/-Ixo75i5mU1s/UGTyigyC7dI/AAAAAAAAAjk/Y3Te59IasGQ/s400/Lee_Joon_MBLAQ__27122009032120.jpg
http://joonseocouple.files.wordpress.com/2012/09/lee-joon2.jpg
http://images5.fanpop.com/image/photos/28200000/Lee-Joon-for-High-Cut-lee-joon-28269370-691-1023.jpg
http://1.bp.blogspot.com/_-hlDSUYGlys/TJFNj87IRhI/AAAAAAAALxE/3Z9q4Dq48T8/s1600/ymb2y.jpg
http://i1185.photobucket.com/albums/z346/Kpop_boys_lover/Lee%20Joon%20-%20MBLAQ/LeeJoon128.jpg
http://2.bp.blogspot.com/-xXGJgPzhhBM/T5YDYUCBVJI/AAAAAAAAYUM/SZShVZqT1wQ/s320/Foto-Lee-Joon-2.jpg
http://images4.fanpop.com/image/photos/16300000/Lee-Joon-lee-joon-E2-99-A5-16302105-1200-1800.jpg
http://images4.fanpop.com/image/photos/18900000/-Lee-Joon-mblaq-18981512-600-531.jpg
http://kibecy.files.wordpress.com/2010/11/lee-joon-456er.jpg
http://images5.fanpop.com/image/photos/28200000/Lee-Joon-It-s-War-MV-lee-joon-28286846-1920-1080.jpg
http://3.bp.blogspot.com/--WBiCCbff8Y/UKMe87JyNmI/AAAAAAABDv4/6H9qmQSozFQ/s1600/lee+joon+yeon+seo+picture.jpg
http://images5.fanpop.com/image/photos/27700000/-Lee-Joon-lee-joon-27724041-1024-768.png
http://images4.fanpop.com/image/photos/16300000/Lee-Joon-lee-joon-E2-99-A5-16302103-800-1200.jpg
http://images5.fanpop.com/image/photos/31500000/Lee-Joon-mblaq-31589168-640-625.jpg
http://images4.fanpop.com/image/photos/16300000/Lee-Joon-lee-joon-E2-99-A5-16302076-1200-800.jpg
http://images4.fanpop.com/image/photos/23400000/lee-joon-lee-joon-mblaq-23463613-420-700.png
http://www.allkpop.com/upload/2012/04/lee-joon.jpg
http://images4.fanpop.com/image/photos/16300000/Lee-Joon-lee-joon-E2-99-A5-16302283-800-1101.jpg
http://images.kdramastars.com/data/images/full/28272/lee-joon-ki.jpg?w=600
http://images5.fanpop.com/image/photos/31600000/Lee-Joon-lee-joon-31624130-500-506.jpg
http://images5.fanpop.com/image/photos/27600000/-Lee-Joon-lee-joon-27699651-640-480.jpg
http://1.bp.blogspot.com/-il4p6pMlcoM/TWfQej4mpQI/AAAAAAAAADw/0UJaEeCs0Uk/s1600/4197841107_db114dbdbc.jpg
http://4.bp.blogspot.com/-nAxvmUV7fAg/TWfRXiaAJXI/AAAAAAAAAD8/E-hQeog_AKs/s1600/Lee-Joon-mblaq-11596218-358-331.jpg
http://2.bp.blogspot.com/_nobMHGTi8_g/TMuxvcUDhLI/AAAAAAAAFVs/NiddwjG8Aco/s1600/lee-joon.jpg
http://star.koreandrama.org/wp-content/uploads/2006/06/Lee-Joon-Ki12.jpg
http://24-7kpop.com/wp-content/uploads/2013/01/lee-joon.jpeg
http://star.koreandrama.org/wp-content/uploads/2006/06/Lee-Joon-Ki-17.jpg
http://images5.fanpop.com/image/photos/27700000/-Lee-Joon-lee-joon-27723983-1024-768.png
http://star.koreandrama.org/wp-content/uploads/2006/06/Lee-Joon-Ki-16.jpg
http://images6.fanpop.com/image/photos/32300000/Joonnie-lee-joon-32373549-1186-1600.jpg
http://images5.fanpop.com/image/photos/27700000/-Lee-Joon-lee-joon-27723915-1023-766.png
http://images6.fanpop.com/image/photos/35000000/-Lee-Joon-mblaq-35081660-960-641.jpg
http://rietanaya.files.wordpress.com/2010/01/leejoon_hannah_20091117.jpg?w=614
http://1.bp.blogspot.com/-J_MQxOxI-jw/UDBCqEiyl7I/AAAAAAAAA8Y/QRmHSESx78w/s1600/mblaq___lee_joon_by_anna06i-d476urz.png
http://images4.fanpop.com/image/photos/22200000/Lee-Joon-Oh-Yeah-MBLAQ-kpop-views-criticism-latest-news-22204259-969-958.jpg
http://images6.fanpop.com/image/photos/32300000/Joonnie-lee-joon-32373666-1280-800.jpg
http://images5.fanpop.com/image/photos/28200000/Lee-Joon-It-s-War-MV-lee-joon-28286739-1920-1080.jpg
http://images5.fanpop.com/image/photos/28200000/Lee-Joon-for-High-Cut-lee-joon-28268199-500-659.jpg
http://images6.fanpop.com/image/photos/32100000/JOONIE-lee-joon-32123098-1280-800.jpg
http://asiaclub-blog.com/wp-content/uploads/2012/06/Lee_Joon.png
http://images4.fanpop.com/image/photos/16300000/Lee-Joon-lee-joon-E2-99-A5-16302280-800-1119.jpg
http://images5.fanpop.com/image/photos/28200000/Lee-Joon-for-High-Cut-lee-joon-28268226-690-1023.jpg
http://images6.fanpop.com/image/photos/32100000/JOONIE-lee-joon-32123058-1280-800.jpg
http://images4.fanpop.com/image/photos/16200000/Lee-Joon-Scholl-Boy-lee-joon-E2-99-A5-16288806-500-898.jpg
http://star.koreandrama.org/wp-content/uploads/2006/06/Lee-Joon-Hyuk-6.jpg
http://3.bp.blogspot.com/-U8oxKe_jIAQ/UN5YyLDnXcI/AAAAAAAAAMc/cokRLvy5I1o/s1600/lee-joon-tumblr.png
http://images2.wikia.nocookie.net/__cb20110811035004/drama/es/images/2/23/Lee_Joon_3.jpg
http://i1185.photobucket.com/albums/z346/Kpop_boys_lover/Lee%20Joon%20-%20MBLAQ/LeeJoon01-28.jpg
http://star.koreandrama.org/wp-content/uploads/2006/06/Lee-Joon-4.jpg
http://mblaqmon.files.wordpress.com/2012/10/tumblr_leorxx428n1qfgtzdo1_500.png
http://star.koreandrama.org/wp-content/uploads/2006/06/Lee-Joon-Ki-38.jpg
http://2.bp.blogspot.com/-iY0W_X9Q0j0/TVuEOJgB5SI/AAAAAAAAAA8/PAV9EltbKbs/s1600/LeeJoon1.jpg
http://www.celebrityportal.org/wp-content/uploads/2011/04/Lee_Joon_02.jpg
http://4kpopjpop.files.wordpress.com/2011/08/112.jpg
http://star.koreandrama.org/wp-content/uploads/2006/06/Lee-Joon-Ki-29.jpg
http://star.koreandrama.org/wp-content/uploads/2006/06/Lee-Joon-Ki1.jpg
http://d31x3df3kl02zx.cloudfront.net/es/files/2012/04/Lee-Joon-MBLAQ.jpg
http://1.bp.blogspot.com/-SiRQ0IW7lwY/UhkqUeKi78I/AAAAAAAAWrE/ftgU36W8Mlg/s1600/LEE+JOON+SEXY.jpg
http://i1185.photobucket.com/albums/z346/Kpop_boys_lover/Lee%20Joon%20-%20MBLAQ/LeeJoon01-53.jpg
http://asianwiki.com/images/thumb/6/6b/Lee_Joon-p1.jpg/250px-Lee_Joon-p1.jpg
http://joonseocouple.files.wordpress.com/2012/09/20120920_leejoon_iris2.jpeg
http://mblaq.musicasia.net/wp-content/uploads/2011/04/Lee_Joon_03.jpg
http://www.soompi.com/wp-content/uploads/2013/05/lee-joon-uniform.jpg
http://oneasiaa.files.wordpress.com/2011/05/2lwsjd2.jpg
http://www.soompi.com/wp-content/uploads/f/e/at/504663/504663.png
http://images6.fanpop.com/image/photos/32100000/Joonie-lee-joon-32146330-500-500.jpg
http://star.koreandrama.org/wp-content/uploads/2006/06/Lee-Joon-14.jpg
http://fc01.deviantart.net/fs71/f/2012/243/7/3/lee_joon_by_mishie_hachi-d5d1hjk.jpg
http://th01.deviantart.net/fs70/PRE/f/2011/008/7/1/lee_joon_by_kuro_kokoro-d36oz3g.jpg
http://d31x3df3kl02zx.cloudfront.net/es/files/2012/04/Lee-Joon.jpg
http://3.bp.blogspot.com/_aVYk4ciVEsw/TFJBQW3dy8I/AAAAAAAABVE/4th7dpCVlWI/s400/Joon-1.jpg
http://1.bp.blogspot.com/-SJrHrrtN1FQ/TjNy0llvgwI/AAAAAAAAAgY/7Osjeow3HRs/s1600/_MBLAQ_LEE_JOON_30072010212142.jpg
http://media.tumblr.com/tumblr_llbhds3Hbl1qhcitg.jpg
http://star.koreandrama.org/wp-content/uploads/2006/06/Lee-Joon-Ki8.jpg
http://i824.photobucket.com/albums/zz169/barbiegirl8989/other%20stuff/Lee-Joon-lee-joon-E2-99-A5-16302076-1200-800.jpg
http://1.bp.blogspot.com/-fi7lRYMZsdk/UFvV_s4bLqI/AAAAAAAABGw/fFFYy_iNriQ/s1600/Lee-Joon-Hyuk-10.jpg
http://3.bp.blogspot.com/-Hxhh1c9sjwk/TWfQRRXIoKI/AAAAAAAAADs/8N-eT-UYJKQ/s1600/lee-joon-mblaq.jpg
http://star.koreandrama.org/wp-content/uploads/2006/06/Lee-Joon-Ki11.jpg
http://img.ohkpop.com/2012/05/21/pv72eN63.jpg
http://th00.deviantart.net/fs71/PRE/f/2011/008/c/4/lee_joon_cry_mv_by_kuro_kokoro-d36ozdc.jpg
http://fc03.deviantart.net/fs71/i/2010/358/5/d/lee_joon_oh_yeah_by_heartykeykeke-d35jsyg.jpg
http://1.bp.blogspot.com/_QM2-6hVKZbQ/TLQYwaSRN1I/AAAAAAAAM2k/FHDoUY-W0b0/s400/lee_joon4.jpg
http://star.koreandrama.org/wp-content/uploads/2006/06/Lee-Joon-Ki-31.jpg
http://wazteks.files.wordpress.com/2012/05/066933a8ca39799bc3e425772fb147c9.jpg
http://i188.photobucket.com/albums/z168/aarjeeii/mblaq/leejoon/joonie1.jpg
http://3.bp.blogspot.com/-6RET9lCcwWg/TmSpLyqAJZI/AAAAAAAAAJE/uSB_yovvhEo/s1600/tumblr_li8iusnEHT1qfgtzdo1_500.png
http://polygrafi.files.wordpress.com/2013/04/lee1.jpg
http://1.bp.blogspot.com/-JvhdGlJg5SM/UNz-WAtZ5OI/AAAAAAAAAB4/bnDmZOfT0rU/s1600/lee+joon8.png
http://i1185.photobucket.com/albums/z346/Kpop_boys_lover/Lee%20Joon%20-%20MBLAQ/LeeJoon380.jpg
http://2.bp.blogspot.com/_QM2-6hVKZbQ/TLQZNRx5vtI/AAAAAAAAM3Q/5Q-dcKBTo4A/s400/lee_joon15.jpg
http://star.koreandrama.org/wp-content/uploads/2006/06/Lee-Joon-8.jpg
http://www.soompi.fr/wp-content/blogs.dir/5/files/2012/03/MBLAQ-Lee-Joon.png
http://star.koreandrama.org/wp-content/uploads/2006/06/Lee-Joon-Ki-24.jpg
http://fc02.deviantart.net/fs70/f/2011/218/2/9/mblaq_lee_joon_by_kjcasianboy-d45ondq.jpg
http://star.koreandrama.org/wp-content/uploads/2006/06/Lee-Joon-9.jpg
http://3dogawa.files.wordpress.com/2008/12/lee-joon-ki-sebagai-min.jpg
http://4.bp.blogspot.com/-192yQU_68Ng/TaE9iLc8X5I/AAAAAAAAC4g/TKdWGecn46Y/s1600/132695.jpg
http://star.koreandrama.org/wp-content/uploads/2006/06/Lee-Joon-Ki2.jpg
http://choriccu.files.wordpress.com/2012/02/lee-joon-mblaq.jpg
http://seoulbeats.com/wp-content/uploads/2010/09/20100914_joon_seoulbeats.jpg
http://2.bp.blogspot.com/-q0Hil7boJaQ/TzDi7JHEkGI/AAAAAAAAAY8/fh-iG3eJ0cQ/s1600/lee-joon_mblaq_sick.jpg
http://star.koreandrama.org/wp-content/uploads/2006/06/Lee-Joon-Ki-34.jpg
http://img2.wikia.nocookie.net/__cb20120621072654/drama/es/images/a/a6/Lee_Joon_Hyuk26.jpg
http://star.koreandrama.org/wp-content/uploads/2006/06/Lee-Joon-18.jpg
http://star.koreandrama.org/wp-content/uploads/2006/06/Lee-Joon-16.jpg
http://www.soompi.com/wp-content/uploads/2013/10/lee-joon-1-800x450.jpg
http://3.bp.blogspot.com/-eaIPGeSv7rU/T9-1XWD68uI/AAAAAAAABoM/DlaiQ7ke74A/s1600/Lee%20Joon-Ki31.jpg
http://absolutemblaq.files.wordpress.com/2009/10/2rfsuac.jpg
http://3.bp.blogspot.com/_QM2-6hVKZbQ/TLQZD7TwrtI/AAAAAAAAM3E/uAWvjDdjVcE/s400/lee_joon12.jpg
http://i1185.photobucket.com/albums/z346/Kpop_boys_lover/Lee%20Joon%20-%20MBLAQ/LeeJoon307.jpg
http://media-cache-ak0.pinimg.com/736x/b0/0f/f5/b00ff5862eeebb2ee93c42b707267c46.jpg
http://koreanshowbizz.files.wordpress.com/2012/02/mblaq_lee_joon__10102010172312.jpg
http://images.wikia.com/drama/es/images/1/16/Lee_Joon_Hyuk16.jpg
http://4.bp.blogspot.com/_pki5_CepjLs/Swkhe3HtOHI/AAAAAAAAEps/SfTrMrkGK08/s1600/15.jpg
http://images.wikia.com/drama/es/images/0/0d/Lee_joon_gi_123.jpg
http://4.bp.blogspot.com/-nAxvmUV7fAg/TWfRXiaAJXI/AAAAAAAAAD8/E-hQeog_AKs/s320/Lee-Joon-mblaq-11596218-358-331.jpg
http://mblaq.musicasia.net/wp-content/uploads/2011/04/Lee_Joon_02.jpg
http://i250.photobucket.com/albums/gg258/kenshinfa/destination/LeeJoon.jpg
http://d1i45kki000yqu.cloudfront.net/wp-content/uploads/2012/10/121005-lee-joon-inside.jpg
http://3.bp.blogspot.com/-sq4myo2ImCc/T1r_-75lmgI/AAAAAAAAOVw/z-dtWKmGyKM/s1600/10MARET+LEE+JOON-KI.jpg
http://i681.photobucket.com/albums/vv180/raeraegirl_jonas/k%20pop%20pics/tumblr_l5d1b6Zh0l1qad6weo1_5001.jpg
http://www.officiallykmusic.com/wp-content/uploads/2013/01/20130109LeeJunKi.jpg
http://images.wikia.com/drama/es/images/a/a8/Lee_Joon_Hyuk15.jpg
http://absolutemblaq.files.wordpress.com/2009/11/240-4141911_1_1.jpg
http://star.koreandrama.org/wp-content/uploads/2006/06/Lee-Joon-17.jpg
http://shadowness.com/file/item8/219670/image_t6.jpg
http://star.koreandrama.org/wp-content/uploads/2006/06/Lee-Joon-Ki-36.jpg
http://www.soompi.com/wp-content/uploads/2012/11/lee-joon.jpg
http://3.bp.blogspot.com/_QM2-6hVKZbQ/TLQYxXlF0FI/AAAAAAAAM2o/RxUURT9vmcc/s400/lee_joon5.jpg
http://31.media.tumblr.com/tumblr_m2jt91kMFb1rp8hb7o1_1280.jpg
http://star.koreandrama.org/wp-content/uploads/2013/05/Lee-Joon-Hyuk-2.jpg
http://sin.stb.s-msn.com/i/21/3B71C4CFBA54B70761838E1E9EC9D_h498_w598_m2.jpg
http://2.bp.blogspot.com/-qtmNoYXUioM/T-dEYHnkEQI/AAAAAAAAC1U/CgLzwidkyTU/s1600/lee+joon.png
http://1.bp.blogspot.com/-TKY-56eHJIo/T2MXs7mM3bI/AAAAAAAABDM/KCirHVPZBb0/s1600/Lee%2BJoon%2BA.jpg
http://bombasoju.files.wordpress.com/2011/07/lee-joon-2.jpg
http://4.bp.blogspot.com/-hcdruF4K9E4/UFvWN8BCRDI/AAAAAAAABHQ/Abv-0PNUZ8E/s1600/Lee-Joon-Hyuk-7.jpg
http://sfiles.d1g.com/photos/02/86/4668602_max.jpg
http://4.bp.blogspot.com/_QM2-6hVKZbQ/TLQYuwFYUdI/AAAAAAAAM2g/Gula1jqghMk/s400/lee_joon3.jpg
http://25.media.tumblr.com/fd07dc154f6025b54610179b6bddd65e/tumblr_mltllp1I8X1qad3h0o1_500.jpg
http://3.bp.blogspot.com/_7plQnByyRlc/S9e26a8aTgI/AAAAAAAABZY/9tkJIXv4fs4/s1600/1172ad1e4bd6a19d9d9846.jpg
http://data2.whicdn.com/images/43443426/large.jpg
http://2.bp.blogspot.com/_XC0PGLHGpUo/TTVpg_NErEI/AAAAAAAAAF0/hiOcIDbBP6Y/s400/lee+joon+ki01.jpg
http://2.bp.blogspot.com/_1cAL35v1T6o/TNWjdEiWc5I/AAAAAAAAAu4/k0ntv2okB9Y/s1600/9q8wnq.jpg
http://fc09.deviantart.net/fs71/f/2012/050/7/9/joon___it__s_war____painting_by_casspoon-d4qbsup.jpg
http://koala41.files.wordpress.com/2008/11/lee_joon_ki_021.jpg
http://yanglover.files.wordpress.com/2012/09/lee_joon_blue_jacket_photowall_2012.jpg
http://star.koreandrama.org/wp-content/uploads/2006/06/Lee-Joon-Ki-33.jpg
http://sin.stb.s-msn.com/i/B7/1A288CABB2137353EAA3C4BE5521E.jpg
http://2.bp.blogspot.com/-8n1uYNpYfHg/Twy-03q9NcI/AAAAAAAAGU8/pORpocbEfZI/s1600/ImageProxy.jpg
http://93.img.v4.skyrock.net/7251/84527251/pics/3113359485_1_3_VECPVUrI.jpg
http://th08.deviantart.net/fs70/PRE/i/2012/336/3/6/lee_joon_by_iateyourfood-d5m957t.jpg
http://d1i45kki000yqu.cloudfront.net/wp-content/uploads/2012/11/ohyeonseodress.jpg
http://www.soompi.com/wp-content/uploads/2012/12/Lee_Joon.jpg
http://bieun.files.wordpress.com/2011/06/lee-joon.png
http://star.koreandrama.org/wp-content/uploads/2006/06/Lee-Joon-3.jpg
http://star.koreandrama.org/wp-content/uploads/2006/06/Lee-Joon-5.jpg
http://star.koreandrama.org/wp-content/uploads/2006/06/Lee-Joon-Ki14.jpg
http://www.scenicreflections.com/files/Lee_joon_ki_Wallpaper_JxHy.jpg
http://2.bp.blogspot.com/_staktO54hgQ/TDGbM85zecI/AAAAAAAAAO4/3I0kKgeI3-c/s400/35685_442891691801_182084146801_5863236_1628102_n.jpg
http://star.koreandrama.org/wp-content/uploads/2006/06/Lee-Joon-Ki-27.jpg
http://th09.deviantart.net/fs70/PRE/f/2011/204/e/d/lee_joon_wallpaper_by_katherins-d41e05f.png
http://www.soompi.com/wp-content/uploads/2014/05/Lee-Joon-for-article.jpg
http://dramabucks.com/wp-content/uploads/2013/09/lee-joon.jpg
http://images3.wikia.nocookie.net/__cb20101014174610/drama/es/images/5/59/Lee_Joon_Hyuk7.jpg
http://en.korea.com/files/2011/02/865be_20110213_leejoon.jpg
http://1.bp.blogspot.com/-pMgGcKexzF0/TVqW4ouKN_I/AAAAAAAAAlI/JZfym-KiSZ0/s1600/LEE+JOON+%255Bb2st%2526b2uty%255D.jpg
http://stuffpoint.com/mblaq/image/190216-mblaq-lee-joon.jpg
http://3.bp.blogspot.com/-xYTYOIfSGk0/Tx-iBIGNQhI/AAAAAAAApuE/m7qW0XkxoMw/s640/Lee_Joon_Hyuk_1.jpg
http://blaqies.files.wordpress.com/2010/10/616.jpg?w=630
http://hallyu.holacorea.com/sites/hallyu.holacorea.com/files/artistasgalery/Actor%20de%20cine/Lee%20Joon%20Hyuk/JH1.jpg
http://star.koreandrama.org/wp-content/uploads/2006/06/Lee-Joon-Ki6.jpg
http://images.kdramastars.com/data/images/full/7039/lee-joon-casted-for-iris-2.jpg?w=600
http://star.koreandrama.org/wp-content/uploads/2006/06/Lee-Joon-Hyuk-13.jpg
http://thegrandnarrative.files.wordpress.com/2010/04/lee-joon-mblaq-miero-fiber.jpg
http://www.hancinema.net/photos/photo11859.jpg
http://absolutemblaq.files.wordpress.com/2009/11/joon1.jpg
http://3.bp.blogspot.com/_TOpxRvlsdG8/TCcZrov7GDI/AAAAAAAABKo/qFItAVuvbQU/s400/1.jpg
http://www.hancinema.net/photos/photo11862.jpg
http://3.bp.blogspot.com/-eDZyHooF9YY/Tcq9Wv0kudI/AAAAAAAAAIk/2vqPLj3Oj0Y/s1600/lee_joon13.jpg
http://www.blike.net/files/100909LeeJoon.jpg
http://upload.wikimedia.org/wikipedia/commons/thumb/6/6b/Lee_Jun_Ki_2009_JapanFM_Press_Conference.jpg/250px-Lee_Jun_Ki_2009_JapanFM_Press_Conference.jpg
http://sp5.fotolog.com/photo/5/27/91/kehxiclets/1302313356518_f.jpg
http://star.koreandrama.org/wp-content/uploads/2006/06/Lee-Joon-Hyuk-9.jpg
http://img04.imgsinemalar.com/images/artist_buyuk/147963/Lee-Joon-ki-34.jpg
http://images4.fanpop.com/image/photos/23500000/Lee-Joon-w-mblaq-23554520-540-720.jpg
http://star.koreandrama.org/wp-content/uploads/2006/06/Lee-Joon-Ki-28.jpg
http://3.bp.blogspot.com/-z9-HuBhbkTc/TtnCvvu3mRI/AAAAAAAADNc/H8-FWQmAIXI/s1600/tumblr_lvlkcwGW7i1ql6phjo1_500.jpg
http://3.bp.blogspot.com/_XAePxwGya7E/ST6YaLumHOI/AAAAAAAAB-k/a-_evYtizaI/s400/LeeJunKi-LongHairstyle2.jpg
http://sumandu.files.wordpress.com/2010/04/joon1.png
http://3.bp.blogspot.com/-qMN_-uTWwX8/TXZMnmvgV4I/AAAAAAAAKaQ/5yZGN8rb43M/s1600/20110308_iu_mv_1.jpg
http://4.bp.blogspot.com/-9dMSWJUy9LU/Tl5XjA-Z-mI/AAAAAAAAANk/VzsC0gSxbFg/s1600/000w7w9w.png
http://s2.favim.com/orig/28/lee-joon-Favim.com-235966.gif
http://star.koreandrama.org/wp-content/uploads/2006/06/Lee-Joon-Hyuk-11.jpg
http://media-cache-ec0.pinimg.com/736x/d3/ef/95/d3ef95abca41f0226a4ff429f7b9c86a.jpg
http://2.bp.blogspot.com/-zrJQKTdmcyw/Tfj5gnUp0SI/AAAAAAAAAp8/FDFmeCIdH1g/s1600/lee%2Bjoon2.jpg
http://en.korea.com/mblaq/files/2013/01/2.jpg
http://star.koreandrama.org/wp-content/uploads/2006/06/Lee-Joon-13.jpg
http://images.wikia.com/drama/es/images/b/b0/Lee_Joon_Hyuk12.jpg
http://blaqies.files.wordpress.com/2010/09/kkk.jpg?w=500
http://absolutemblaq.files.wordpress.com/2011/09/2011092208301297428_1.jpg
http://i20.photobucket.com/albums/b222/just_a_girl/53323847201001312146423248884347609.gif
http://sp4.fotolog.com/photo/20/12/126/sweet_x_valeeh/1295214278193_f.jpg
http://3.bp.blogspot.com/_oHNNC_HO4gE/S2lw5D0Sb8I/AAAAAAAAIHI/BpZzYi_t1JM/s640/leejoon_20091125.jpg
http://media.mydramalist.com/cache/lng/51011729523568776_5d6bffb1_c.jpg
http://yeppopo.files.wordpress.com/2010/09/100920.jpg
http://www.soompi.com/wp-content/uploads/2012/06/Lee-Joon-MBLAQ--800x450.jpg
http://1.bp.blogspot.com/-bMQCsJ6OhoE/T6gOYj0mqAI/AAAAAAAAAUg/Sk4BW_Yx6IY/s1600/MBLAQ_s_Lee_Joon_reveals_secret_behind_his_chocolate_abs_16032010212949.jpg
http://spimages.kpopstarz.com/data/images/full/2013/02/01/30277-lee-joon-y-oh-yeon-seo-pondr-n-fin-a-su-vida-matrimonial-en-we-got-mar.jpg
http://4.bp.blogspot.com/-d5jURfO3y3g/Tfh4ZKF1bpI/AAAAAAAAAvo/r8D8ZVDTYIQ/s1600/20110615_kissrepublic_leejoon_2.jpg
http://th01.deviantart.net/fs71/PRE/f/2013/349/7/3/lee_joon__mblaq__iris_ii_by_sakutori-d5twv3e.jpg
http://3.bp.blogspot.com/_xUEF8bFnjE0/TC8OvvyzAgI/AAAAAAAAAY8/hLnNdk6Qfsc/s1600/Lee+Joon+2.jpg
http://29.media.tumblr.com/tumblr_lixd44QxJS1qh5vsdo1_500.jpg
http://bombasoju.files.wordpress.com/2011/11/lee-joon4.jpg?w=640
http://fast-images.picyou.com/images/MNSEmI/MNSEmI.jpg
http://i188.photobucket.com/albums/z168/aarjeeii/mblaq/leejoon/joon3.jpg
https://fbcdn-sphotos-e-a.akamaihd.net/hphotos-ak-ash3/923345_502316106483717_2109723840_n.jpg
http://koreanvibe.com/wp-content/uploads/2012/06/lee-joon-hyuk2.jpg
http://static1.allkpop.com/upload/content/Lee-Joon_1371235478_20130614_leejoon_mirandakerr3.jpg
http://1.bp.blogspot.com/-gGuhQ9DiM2I/T5xA4s71stI/AAAAAAAAAbM/L4-WvTHX5Bo/s1600/Lee+Joon+Gi.jpg
http://i382.photobucket.com/albums/oo267/shadowz93_photos/2723872lzsninmycs.jpg
http://static.tumblr.com/0yicxdr/Yeollu6x5/tumblr_ljrskxjmgd1qdcel5o1_500.gif
http://fc05.deviantart.net/fs71/f/2010/132/2/4/Lee_Joon___MBLAQ_by_A_asuka.jpg
http://24.media.tumblr.com/tumblr_m6tg6vwDyD1rvw6v7o1_500.jpg
http://fc09.deviantart.net/fs71/i/2013/065/3/c/lee_joon_mblaq_by_sakutori-d5u0o18.jpg
http://1.bp.blogspot.com/_cMBwwYZfYcE/S-kue19O75I/AAAAAAAAZBU/SsOx6lbQOOY/s1600/normal_hghg%2520(58).jpg
http://samgyeoepsalsconspiracy.files.wordpress.com/2009/10/lee-joon1.jpg
http://25.media.tumblr.com/tumblr_mdf0f18EI01qa4od3o1_500.jpg
http://3.bp.blogspot.com/__iAJNZGHs2A/SwQFoscCenI/AAAAAAAAAAc/tHPYJuUpufs/s320/lee2.png
http://fc02.deviantart.net/fs71/f/2010/018/f/6/Lee_Joon_by_SujuSaranghae.jpg
http://www.showwallpaper.com/wallpaper/1108/055268.jpg
http://24.media.tumblr.com/tumblr_m5xzik4UkT1rp8hb7o1_500.jpg
http://blaqies.files.wordpress.com/2010/09/j5.jpg
http://1.bp.blogspot.com/_Kh5oo0laxpY/TFNJc9Bg-7I/AAAAAAAABTI/kia2Jky-Zas/s1600/leejoon-1.jpg
http://kpopselca.com/selca/36339_lee-joon-3.jpg
http://kojaproductions.files.wordpress.com/2008/08/leejunkicosmo1.jpg
http://1.bp.blogspot.com/-N1WamInxhA0/TXXMFficalI/AAAAAAAADcA/z6V1Ch7AYRk/s1600/2011-03-07_15%25253B44%25253B17.jpg
http://th00.deviantart.net/fs70/PRE/i/2013/197/8/0/gift___lee_joon_for_you_by_jin_tan-d6dtxhu.png
http://static.tumblr.com/lgxj4fl/2pXm0cavq/lee_joon_.gif
http://www.showwallpaper.com/wallpaper/0704/007268.jpg
http://yeppopo.files.wordpress.com/2010/09/kwangju4.jpg
http://fc02.deviantart.net/fs70/i/2012/015/3/e/lee_joon_by_blueberry_is_cute-d47fw4d.jpg
http://api.ning.com/files/GiGOB8iTQWlTXn2UMr9AyK*dFr1mJvbythmmuXfFLxqxpDYHEsOXs2ZQUycMLm9Eh5xbMqFET85HcJbPweh07RKgZxCqcx2Q/LeeJoonKiupclose2.jpg?width=664
http://images4.fanpop.com/image/photos/16200000/Lee-Joon-Oh-YeaH-lee-joon-E2-99-A5-16288672-362-245.jpg
http://1.bp.blogspot.com/-CnGRZBbG9Jc/Ta096_xLNoI/AAAAAAAAC0I/3pWEqbl0hO4/s1600/41f117270c3090_full.jpg
http://i183.photobucket.com/albums/x96/lilogurloforever/Lee%20Jun%20Ki/Lee-Joon-Ki-28.jpg
http://www.soompi.com/wp-content/uploads/2012/12/Oh-Yeon-Seo-and-Lee-Joon.jpg
http://star.koreandrama.org/wp-content/uploads/2006/06/Lee-Joon-Ki-25.jpg
http://3.bp.blogspot.com/_cMBwwYZfYcE/Sw3_4JbP6SI/AAAAAAAANJg/DkBRyk7Zn0s/s1600/normal_ecb0bdec84a0ec9584ec9db4ecbba8ed858d1.jpg
http://everykpopnews.files.wordpress.com/2012/02/lee-joon-2.jpg
http://2.bp.blogspot.com/-EUnmnbhrmSY/TmSo9Qo6tXI/AAAAAAAAAI8/JcrJ4M0DyGk/s1600/tumblr_lffxaqNl691qad3h0o1_500.jpg
http://star.koreandrama.org/wp-content/uploads/2006/06/Lee-Joon-Ki-37.jpg
http://star.koreandrama.org/wp-content/uploads/2006/06/Lee-Joon-Hyuk-5.jpg
http://www.polyvore.com/cgi/img-thing?.out=jpg
http://star.koreandrama.org/wp-content/uploads/2006/06/Lee-Joon-Ki-26.jpg
http://en.korea.com/wegotmarried/files/2012/11/121113-mblaq-lee-joon-showcase-iris-5.jpg
http://yanglover.files.wordpress.com/2012/12/lee_joon.jpg?w=560
http://hinh.trochoivui.com/data/media/10/Lee_Joon_Ki_13.jpg
http://os1.i.ua/3/1/6666625_c89990ee.jpg
http://star.koreandrama.org/wp-content/uploads/2006/06/Lee-Joon-Ki7.jpg
http://iloveohkpop.files.wordpress.com/2010/12/leejoon.jpg?w=560
http://i47.tinypic.com/15hh0ya.png
http://25.media.tumblr.com/a27b9649aca5cd556bf63e2b71aa3850/tumblr_mltmdnl0yS1qad3h0o1_500.jpg
http://img.ohkpop.com/2012/11/16/oJ37CV14.jpg
http://s2.favim.com/orig/36/lee-joon-Favim.com-296984.gif
http://mblaq.musicasia.net/wp-content/uploads/2011/04/Lee_Joon_04.jpg
http://blaqies.files.wordpress.com/2010/12/118.jpg
http://images.tvrage.com/people_galleries/59/174563/4687.jpg#Lee+Joon+Ki
http://3.bp.blogspot.com/-CQJp2x3-liw/TXTTLMXghTI/AAAAAAAAAYQ/JVMCFF9V7g8/s1600/20110307_lee_joon.jpg
http://www.blike.net/files/frontimage/101105LeeJoon.jpg
http://4.bp.blogspot.com/_oHNNC_HO4gE/S9hCv9BKiaI/AAAAAAAAMkA/RFZfTGJxmsw/s1600/leejoon+wallie.jpg
http://i62.photobucket.com/albums/h117/jaejoongie012/201007090707521001_1.jpg
http://s5.favim.com/orig/53/joon-kpop-lee-lee-joon-Favim.com-495664.jpg
http://www.starmometer.com/wp-content/uploads/2012/01/25215426201744049046725.jpg
http://3.bp.blogspot.com/-ThawI2D5qg0/T0anOwWk_qI/AAAAAAAADuE/KYIm3oVf7W8/s1600/Lee-Joon-MBLAQ.jpg
http://star.koreandrama.org/wp-content/uploads/2006/06/Lee-Joon-Ki4.jpg
http://3.bp.blogspot.com/-dVTfv-KZonE/T2s3t8SIFyI/AAAAAAAAAqQ/uDF3_N6gx4E/s1600/lee+joon+ki.jpg
http://cloudusa.files.wordpress.com/2011/02/lee-joon-bnt-news.jpg
http://star.koreandrama.org/wp-content/uploads/2006/06/Lee-Joon-Ki-30.jpg
http://oneasiaa.files.wordpress.com/2011/09/lee-joon.jpg?w=560
http://www.hancinema.net/photos/photo11856.jpg
http://4.bp.blogspot.com/-pLliJT3v60E/T6JMYgGi0rI/AAAAAAAAQQU/pP0OS4Noluo/s1600/203004217_L.jpg
http://media.tumblr.com/tumblr_m8lmjfNQFE1rtkvy9.jpg
http://sookyeong.files.wordpress.com/2010/05/201005210105371001_1.jpg
http://dcp9w5sh0wews.cloudfront.net/news/3/8948-vechfegtff.jpg
http://absolutemblaq.files.wordpress.com/2009/10/1256403107joon2-1.jpg
http://fc05.deviantart.net/fs70/i/2013/269/e/7/lee_joon_by_ilonaeggy-d6o0a7u.png
http://4.bp.blogspot.com/-rpRpXb1CGvA/Ty_w6W1eKxI/AAAAAAAAAw4/ReMc-C75VFA/s1600/tumblr_lyz85s0yVo1qewzufo1_500.png
http://2.bp.blogspot.com/-KSfoF8rrk6Q/TdJ-yJyoaII/AAAAAAAAThA/V_K58_nobNk/s1600/k1.jpg
http://4.bp.blogspot.com/-axkUAr02Czg/TeI9RA3ulwI/AAAAAAAAT-s/VoBW2hHlL1s/s1600/lee+joon.jpg
http://images.quickblogcast.com/3/0/2/2/9/272224-292203/leejoon120702.jpg?a=30
http://2.bp.blogspot.com/-IQPOonaUfqM/TjyMP4Q0n4I/AAAAAAAAAH0/hy6iYHvRDlg/s1600/lee_joon2.jpg
http://2.bp.blogspot.com/_Kh5oo0laxpY/TEoSuuzPayI/AAAAAAAABL0/lXGGScgvDEI/s1600/Lee+Joon+Ki.jpg
http://2.bp.blogspot.com/-gbaKBjg8jfc/TxDbVztpxgI/AAAAAAAABYU/8ummwdvodjI/s1600/20120113-202210.JPG
http://4.bp.blogspot.com/-NAxovEfj-Mg/T5f9yS_AlxI/AAAAAAAAPPo/mhtaqHYjLH4/s1600/01.png
http://media.tumblr.com/tumblr_lk6v6zGHcC1qbunb5.jpg
http://1.bp.blogspot.com/-oxZbtOF-EWo/TaqinWH98vI/AAAAAAAAASY/oAckFtJLVwY/s1600/Lee+Joon+18.jpg
http://star.koreandrama.org/wp-content/uploads/2006/06/Lee-Joon-Ki-32.jpg
http://www.dramascreencaps.altervista.org/drama/korea/timebetweendogandwolf/lee_joon_ki%20(2).jpg
http://upload.wikimedia.org/wikipedia/commons/6/6b/Lee_Jun_Ki_2009_JapanFM_Press_Conference.jpg
http://3.bp.blogspot.com/-6fd2JFyBP2w/UOwhwhriQgI/AAAAAAAADY8/wJ6WZrMcPEI/s1600/tumblr_m7xr6lWoLg1r8vuax.jpg
http://cdn10.mixrmedia.com/wp-uploads/ningin/blog/2011/08/lee-joon-cornrows.jpg
http://star.koreandrama.org/wp-content/uploads/2006/06/Lee-Joon-Ki9.jpg
http://s9.favim.com/orig/131010/joon-lee-joon-mblaq-Favim.com-984499.jpg
http://25.media.tumblr.com/tumblr_m5oxv8mr451rp8hb7o1_500.jpg
http://os1.i.ua/3/1/6666616_1c2e5fc7.jpg
http://1.bp.blogspot.com/_zNaiYzbFzSA/TSysvfTOIEI/AAAAAAAAAG8/0c39fh7OjoI/s1600/Lee+Joon+Cry.bmp
http://25.media.tumblr.com/tumblr_lm5cyiIdsn1qc88z9o1_500.png
http://images.kdramastars.com/data/images/full/32058/lee-joon.jpg?w=600
http://kibecy.files.wordpress.com/2013/01/20130104_seoulbeats_wgm_joonseo2.png
http://i979.photobucket.com/albums/ae276/matarbi2/tohojess/1025ahnbawoo.jpg
http://4.bp.blogspot.com/-_q8JJlSf3XU/T0V5WlXpnuI/AAAAAAAAMc0/u6sN86IALGE/s1600/20120222_leejoon_3.png
http://www.m5zn.com/uploads2/2012/2/13/photo/021312090217m5qjj54tvjz3z.png
http://2.bp.blogspot.com/-W1DzFFpzll0/UQxoiBfyiaI/AAAAAAAACdM/cQdTHuuF2dA/s1600/iris-2-lee-joon.jpg
http://blaqies.files.wordpress.com/2010/11/53.jpg
http://cloudusa.files.wordpress.com/2011/02/photo156113.jpg
http://2.bp.blogspot.com/-qtmNoYXUioM/T-dEYHnkEQI/AAAAAAAAC1U/CgLzwidkyTU/s320/lee+joon.png
http://1.bp.blogspot.com/_oHNNC_HO4gE/SztPSyF0mhI/AAAAAAAAGEA/Ih6mHa3M0dM/s400/mir+joon.jpg
http://2.bp.blogspot.com/_RIqtr9I2Wg8/TUoDgWOMuQI/AAAAAAAAAKc/-9xDHumV0-w/s1600/p2tjq.jpg
