http://myhottestblog.files.wordpress.com/2010/12/taecyeon-6.jpg
http://images4.fanpop.com/image/photos/17000000/Ok-Taecyeon-2pm-17082976-501-595.jpg
http://3.bp.blogspot.com/-J29Sc-KQffk/ULq_8TGqT_I/AAAAAAAAITs/Qni_i19lRm4/s640/2.jpg
http://i2.listal.com/image/1418676/600full-ok-taecyeon.jpg
http://yellowslugreviews.files.wordpress.com/2013/03/taecyeon-cover.jpg
http://i2.listal.com/image/1418677/600full-ok-taecyeon.jpg
http://www.soompi.com/wp-content/uploads/2013/07/Ok-Taecyeon.jpg
http://media-cache-ak0.pinimg.com/736x/b7/77/4b/b7774b2657cbe578762e5648ae12862e.jpg
http://media-cache-ec0.pinimg.com/736x/67/07/7f/67077f58d5dadec08e5cbbf54dfef80f.jpg
http://4.bp.blogspot.com/-PaHtv64OzAQ/ULq_7JCia7I/AAAAAAAAITk/Mci_gU4SxZ0/s1600/5.jpg
http://media-cache-ak0.pinimg.com/736x/d4/ac/a9/d4aca950801b0cbcca04598f1b17f7a6.jpg
http://4.bp.blogspot.com/-FTBHw-sBJsY/TbUeVFygOXI/AAAAAAAAAQ8/FNeLrDof9_g/s1600/k1f8ec.jpg
http://2.bp.blogspot.com/_n18T59WsTbs/Sor4kG493hI/AAAAAAAABMU/91z00gIl9QU/s1600/OK-Taecyeon-10.jpg
http://4.bp.blogspot.com/-kL2U0NGkTHY/UVjN_9jNGuI/AAAAAAAAFhA/Rxo0n7g3X-E/s1600/IMG_6403.jpg
http://www.freecodesource.com/picture/i845/ab12/brittany-sheeckler/600full-ok-taecyeon.jpg
http://media-cache-ec0.pinimg.com/736x/cf/fd/81/cffd81d7264890351f8803b49641a79d.jpg
http://images.kdramastars.com/data/images/full/20322/ok-taecyeon.jpg?w=600
http://media-cache-ak0.pinimg.com/736x/6f/1e/13/6f1e136d32d4cfdf80ca5df0983c2446.jpg
http://1.bp.blogspot.com/-i9dKo1LNUwM/UCZCA1weM2I/AAAAAAAABgc/NBp_cuL1Z6Q/s1600/-Taecyeon-taecyeon-2pm-20763186-500-750.jpg
http://media-cache-ec0.pinimg.com/736x/02/b7/06/02b7068463e32731a46dd746ae7f673b.jpg
http://fc08.deviantart.net/fs70/f/2012/197/e/e/ok_taecyeon___2pm_by_cikhani-d57f0a9.jpg
http://allaboutnuneo.files.wordpress.com/2012/06/282608_478252715522005_456223969_n.jpg?w=593
http://3.bp.blogspot.com/-jKXOgLh0PkY/T-A9I3Ruh2I/AAAAAAAAArk/-KQB65Q--_E/s1600/-ok-taecyeon.jpg
http://i14.servimg.com/u/f14/14/64/86/60/6jul0911.jpg
http://2.bp.blogspot.com/_n18T59WsTbs/Sor371bqFLI/AAAAAAAABLk/sT6zIq4br7s/s1600/OK-Taecyeon-05.jpg
http://2.bp.blogspot.com/-_GOfHoHNQbc/TV38QDFeyxI/AAAAAAAAAF0/DHYHddeFbEY/s1600/OK-Taecyeon-04.jpg
http://viasilia.files.wordpress.com/2013/07/995806_10151571362913512_1942261776_n.jpg
http://media-cache-cd0.pinimg.com/736x/ea/d6/d4/ead6d400d8e1d943f48b08bb45397bc6.jpg
http://media-cache-ec0.pinimg.com/736x/a0/ac/9d/a0ac9d5d0383339b653ad9b8dcd30263.jpg
http://media-cache-ak0.pinimg.com/736x/78/60/38/78603882819e5be4a744f73dfb8b2143.jpg
http://media-cache-ec0.pinimg.com/736x/0a/d2/83/0ad283f330ddc34f58290016419f90c3.jpg
http://ww4.sinaimg.cn/large/6990450ejw1dqzqxzc2wrj.jpg
http://2pmhottestprojects.files.wordpress.com/2009/07/1247333519_img_6285.jpg
http://media-cache-ak0.pinimg.com/736x/b3/0d/e3/b30de31106c9a525314dad0a0614ed4a.jpg
http://03.img.v4.skyrock.net/5683/69095683/pics/3129249070_1_2_KG5JTU1n.jpg
http://media-cache-cd0.pinimg.com/736x/35/f1/e5/35f1e51fcc281c2fda764616918cb6cb.jpg
http://media-cache-ec0.pinimg.com/736x/9e/7f/d4/9e7fd4b9c290ec5acd68094ae42d043e.jpg
http://sv6.postjung.com/picpost/data/62/62943-pic-1.jpg
http://farm4.staticflickr.com/3403/3652290551_ca20a4272d_z.jpg?zz=1
http://2.bp.blogspot.com/-MnybagmT_Is/Uf5JjZnXsCI/AAAAAAAALkk/93AVPfvZpeg/s1600/Screenshot_2013-08-04-07-49-45-1.png
http://ukimages.kpopstarz.com/data/images/full/1311/taecyeon.jpg?w=600
http://sv6.postjung.com/picpost/data/62/62943-pic-13.jpg
http://media-cache-ak1.pinimg.com/550x/9b/0f/ec/9b0fec9d98181482251de9304c755f60.jpg
http://media-cache-ak0.pinimg.com/736x/1b/15/c1/1b15c1dff37fb3d1db62698fc9df77de.jpg
http://iv1.lisimg.com/image/1418643/600full-ok-taecyeon.jpg
http://viasilia.files.wordpress.com/2013/07/1011362_10151573357463512_1768969622_n.jpg
http://media-cache-ak0.pinimg.com/736x/cd/fa/bb/cdfabbe062d46a0201bd4e415387b177.jpg
http://i2.listal.com/image/1011492/600full-ok-taecyeon.jpg
http://3.bp.blogspot.com/-kaDdIf-UBVQ/Udwum7xzQiI/AAAAAAAAAes/CTSHQAdIRPw/s1600/Ok-taecyeon.jpg
http://i2.listal.com/image/1418650/600full-ok-taecyeon.jpg
http://2.bp.blogspot.com/-8CIXmTT0ToA/ULdXYRXJ71I/AAAAAAAAADw/2Vp7lHMjR_M/s1600/20101210_taecyeon_1.jpg
http://i2.listal.com/image/1418679/600full-ok-taecyeon.jpg
http://2.bp.blogspot.com/-A9OTtI0Y-xA/UTNbtv_R4-I/AAAAAAAAAOY/WeaUtxSJFLc/s1600/b939ea99-2ca3-472a-9c82-e7cf8022387b_Ok-Taecyeon.jpg
http://3.bp.blogspot.com/_n18T59WsTbs/Sor4UKa6moI/AAAAAAAABMM/CtDFnJr5708/s1600/OK-Taecyeon-09.jpg
http://dramabucks.com/wp-content/uploads/2013/10/600full-ok-taecyeon.jpg
http://taecyeonfanid.files.wordpress.com/2013/09/ckvspkobwpzybpb6uiqm_.jpg
http://myhottestblog.files.wordpress.com/2010/12/taecyeon-4.jpg
http://beasia.net/wp-content/uploads/2011/12/ok-taecyeon_beasia_1.jpg
http://fc00.deviantart.net/fs71/i/2010/007/a/2/2pm___Ok_Taecyeon_by_SoshinaAi.jpg
http://i2.listal.com/image/1418695/600full-ok-taecyeon.jpg
http://ukimages.kpopstarz.com/data/images/full/1315/taecyeon.jpg?w=600
http://1.bp.blogspot.com/-xSNSE2peDoc/ULrCUiCtb6I/AAAAAAAAIWE/wEt53MZtLLc/s1600/b.jpg
http://4.bp.blogspot.com/-Wj-9i66jdeM/TVQDiCKFNWI/AAAAAAAAAkE/ROXRySNcjY4/s1600/taecyeon.jpg
http://sv6.postjung.com/picpost/data/62/62943-pic-23.jpg
http://media-cache-ec0.pinimg.com/736x/08/8f/25/088f25eb7f1f9fef39f1455799d5beb6.jpg
http://media-cache-ec0.pinimg.com/736x/c1/40/e1/c140e1aa20529e38a3f8398e8fa24047.jpg
http://media-cache-ec0.pinimg.com/736x/e0/56/bd/e056bd922071ba4ebafa2daf072bab6c.jpg
http://images5.fanpop.com/image/photos/24700000/Taecyeon-taecyeon-2pm-24765739-395-591.jpg
http://koreastar.info/wp-content/uploads/2012/03/Korean-star-Ok-Taecyeon.jpg
http://2.bp.blogspot.com/_5E98OvgW5TU/TS1YCtFrXgI/AAAAAAAAACA/ju1BIiPJOdY/s1600/2PM_OkTaekYeon2.jpg
http://iv1.lisimg.com/image/1418696/600full-ok-taecyeon.jpg
http://media-cache-ak0.pinimg.com/736x/20/c7/c2/20c7c24cce14a7d31a7ec0819dcf566e.jpg
http://media-cache-ec0.pinimg.com/736x/43/85/5e/43855e7af738fd1e5bd75e297369b1d7.jpg
http://image.blingee.com/images19/content/output/000/000/000/7a5/782736903_1552099.gif?4
http://images.kdramastars.com/data/images/full/19217/ok-taecyeon.jpg?w=600
http://media-cache-ak0.pinimg.com/736x/9a/0d/d6/9a0dd6b6e3e0fe6caaccbb7140a8d7d3.jpg
http://sv6.postjung.com/picpost/data/62/62943-pic-5.jpg
http://media-cache-ak0.pinimg.com/736x/de/8e/1e/de8e1eadb765a9eb95b75f0622b3f90e.jpg
http://ukimages.kpopstarz.com/data/images/full/1309/taecyeon.jpg?w=600
http://media-cache-ak0.pinimg.com/736x/7b/d2/5b/7bd25b5de0a5064a4c9d7be0e04b5b65.jpg
http://myhottestblog.files.wordpress.com/2010/12/taecyeon-8.jpg
http://media-cache-ak0.pinimg.com/736x/a6/fa/02/a6fa02c7974f27d34a25f5ea8547a123.jpg
http://sv6.postjung.com/picpost/data/62/62943-pic-21.jpg
http://3.bp.blogspot.com/-vPWc5uoEIJA/T-A9PKl2UNI/AAAAAAAAAsE/In2v3TfHkks/s1600/taecyeon+%252815%2529.jpg
http://img.blog.zdn.vn/14424812.jpg
http://media-cache-ak0.pinimg.com/736x/b6/cd/f7/b6cdf79f13732f1fbe5398517e2fd2d2.jpg
http://ukimages.kpopstarz.com/data/images/full/1305/taecyeon.jpg?w=600
http://4.bp.blogspot.com/-IR-hfPJE7qc/TWN4R0pexZI/AAAAAAAAAOA/UarhclrheMY/s640/OK-Taecyeon-07.jpg
http://www.showwallpaper.com/wallpaper/1006/044377.jpg
https://pbs.twimg.com/profile_images/378800000806568542/3d44de145f32bb752953a12dda0adc45.jpeg
http://i231.photobucket.com/albums/ee251/electropop_robot2/okdaddy/okcat016.png
http://2.bp.blogspot.com/-Gfk2wmneIx4/ULrAYnkfADI/AAAAAAAAIV8/pHl1aPO92JU/s1600/Taecyeon+Cabi+WallPaper+1680_1050.jpg
http://syndromkorea.files.wordpress.com/2009/12/2pm-taecyeon.jpg
http://www.ttwigo.com/wp-content/uploads/2013/12/Taec-Dream-High.png
http://myhottestblog.files.wordpress.com/2010/12/taecyeon-10.jpg
http://media-cache-ak0.pinimg.com/736x/76/21/aa/7621aa2abaa9b33f642fd7abc861f8ff.jpg
http://media-cache-ak0.pinimg.com/736x/e8/5f/5c/e85f5c363bae7a10c8a54d8ab8813fa4.jpg
http://fc05.deviantart.net/fs50/f/2009/259/f/a/Ok_Taecyeon_by_theeFOB.png
http://taecyeonfanid.files.wordpress.com/2012/02/142125_personel-2pm-ok-taecyeon-saat-peresmian-lotte-duty.jpg
http://media-cache-ak0.pinimg.com/736x/68/28/df/6828dfb07beee0b9c53d07c162643c24.jpg
http://1.bp.blogspot.com/-mm0eBUftUDM/TXdf4AvrGuI/AAAAAAAABu8/x3vDNtnAreg/s1600/HRP%2B-%2BDH%2B%25283%2529.JPG
http://blogmedia.dramafever.com/wp-content/uploads/2013/05/taecyeon.png
http://25.media.tumblr.com/tumblr_m45l9qjLWr1qa67bro1_400.jpg
http://media-cache-ak0.pinimg.com/736x/1a/b7/03/1ab703fb364225776891362e036a2a29.jpg
http://3.bp.blogspot.com/-l8VKxp4lPdA/UCeJEgoxN2I/AAAAAAAAG_U/tsWeYz0q414/s1600/20120110_taecyeon.jpg
http://media-cache-ec0.pinimg.com/736x/ef/69/ab/ef69ab85640209c03b858f8668df5b20.jpg
http://media-cache-ak0.pinimg.com/736x/ed/e6/c9/ede6c933b6109d1c6de5a8d31856c7bb.jpg
http://cdn.dramatrailers.com/wp-content/uploads/2014/05/7959b46e0d6e5316124e620034794c48.jpeg
http://1.bp.blogspot.com/-bF5FrhlMDaU/Tjje324P_1I/AAAAAAAAAd4/vDDXrbxl0Vk/s1600/331.jpg
http://iv1.lisimg.com/image/1418687/600full-ok-taecyeon.jpg
http://koreastar.info/wp-content/uploads/2012/03/Ok-Taecyeon.jpg
http://koreastar.info/wp-content/uploads/2012/03/2PM-Ok-Taecyeon.jpg
http://1.bp.blogspot.com/-sl3f4abh4vg/TjO49GVVJ-I/AAAAAAAAAGY/ZU0gLAnTNks/s1600/Dream+High_Taecyeon+%25286%2529.jpg
http://iv1.lisimg.com/image/1418684/600full-ok-taecyeon.jpg
http://2.bp.blogspot.com/-M0G_lwYNL8s/TpcFBaVYULI/AAAAAAAAAG8/fk2c9DFMwKc/s1600/ok+taecyeon.jpg
http://4.bp.blogspot.com/-h8IJ2klq220/UMBHgbQyrzI/AAAAAAAAAaY/ACGENbm0QIA/s1600/ok.jpg
http://koreaaddictsindo.files.wordpress.com/2010/11/2pm_ok_taecyeon_30082009125529.jpg?w=490
http://1.bp.blogspot.com/-nNk4E_jzcdE/ULrAVeb7o_I/AAAAAAAAIV0/t3leUoDHrYw/s640/Ok_Taecyeon_by_theeFOB.png
http://media-cache-ec0.pinimg.com/736x/a3/5a/82/a35a82715b088f9c52306d854a1b2572.jpg
http://media-cache-ec0.pinimg.com/736x/d9/d6/ee/d9d6ee2f9bda494a7a3adb1e39d3be02.jpg
http://media-cache-ec0.pinimg.com/736x/78/bc/f6/78bcf625e345cef07a1404506b2e4357.jpg
http://baesungyoung.files.wordpress.com/2011/08/taecyeon-2pm.jpg?w=500
http://media-cache-ak0.pinimg.com/736x/8d/cd/55/8dcd553faaae9833005c8f67b92012d8.jpg
http://media-cache-ec0.pinimg.com/736x/4b/fe/67/4bfe67768f2917f19fcae99a673a1d57.jpg
http://i2.listal.com/image/996664/600full-ok-taecyeon.jpg
https://pbs.twimg.com/profile_images/2686670935/8038ab1387554fbe4e2720fda3e517b1.jpeg
http://media-cache-ak0.pinimg.com/736x/6e/bd/1a/6ebd1a1b220c3293a18393276a568fa5.jpg
http://iv1.lisimg.com/image/1418690/600full-ok-taecyeon.jpg
http://media-cache-ec0.pinimg.com/736x/96/65/89/966589e38ca2f0c304f23880e2689c91.jpg
http://sv6-w2.postjung.com/picpost/data/62/62943-pic-18.jpg
http://2.bp.blogspot.com/-AvB0eaAyieU/TfDEmc7NLqI/AAAAAAAAAoc/hd0FWwC3MlQ/s1600/taecyeon.jpg
http://media-cache-ec0.pinimg.com/736x/4b/c0/66/4bc06607377bfe92e60faebb870b4400.jpg
http://sv6.postjung.com/picpost/data/62/62943-pic-12.jpg
http://sv6.postjung.com/picpost/data/62/62943-pic-14.jpg
http://iv1.lisimg.com/image/1418691/600full-ok-taecyeon.jpg
http://media-cache-ec0.pinimg.com/736x/81/94/da/8194da54e92fb190662ead220ede0ef4.jpg
https://c2.staticflickr.com/4/3589/3663135465_85f1795102_z.jpg?zz=1
http://media-cache-ec0.pinimg.com/736x/11/2b/98/112b98f8991e4c46ac5b13803ea10a91.jpg
https://c2.staticflickr.com/4/3593/3451412940_e0556ab299_z.jpg?zz=1
http://media-cache-ec0.pinimg.com/736x/f1/c0/90/f1c09067f60734cf6de74299a9a8946a.jpg
http://www.ktopia.net/images/stars/taecyeon.png
http://th02.deviantart.net/fs71/300W/i/2010/007/a/2/2pm___Ok_Taecyeon_by_SoshinaAi.jpg
http://media-cache-ec0.pinimg.com/736x/79/7f/24/797f24549bc16650aa237b6a63accaa3.jpg
http://1.bp.blogspot.com/--3eJIW_iQhI/TfDEYJcQakI/AAAAAAAAAoE/ZUOd6KIql_k/s400/2pm_ok_taecyeon_30082009125529.jpg
http://2.bp.blogspot.com/-4v9GxH7yf3c/TWN4RIlzkpI/AAAAAAAAAN8/aSxSKjDiQcw/s640/OK-Taecyeon-06.jpg
http://media-cache-ak0.pinimg.com/736x/39/66/e9/3966e9c65c46aa3a5a003659fa00b029.jpg
http://media-cache-ak0.pinimg.com/736x/18/4f/6d/184f6d172f644101d2aa8f7785e422a3.jpg
http://4.bp.blogspot.com/_QM2-6hVKZbQ/Sxp9VEuybZI/AAAAAAAAI1E/yqAWXNoEM7s/s640/2PM_OkTaekYeon6.jpg
http://iv1.lisimg.com/image/1418671/600full-ok-taecyeon.jpg
http://1.bp.blogspot.com/-USnRwYQ-X-Q/TWN4QBXZKCI/AAAAAAAAAN0/45NFs4YQIOE/s1600/OK-Taecyeon-03.jpg
http://media-cache-ec0.pinimg.com/736x/56/84/fb/5684fbe7de1b61b14361c70033797079.jpg
http://cdn8.staztic.com/app/a/3125/3125402/ok-taecyeon-1391872911-0-s-307x512.jpg
http://vinashock.com/wp-content/uploads/2013/03/2pm_ok_taecyeon.jpg
http://iv1.lisimg.com/image/1418697/600full-ok-taecyeon.jpg
http://dr2myn8hjue41.cloudfront.net/wp-content/uploads/2011/10/Airplane-Wednesdays-Taecyeon-2pm-AX3-4.jpg
http://media-cache-ak0.pinimg.com/736x/51/b2/d9/51b2d9a8eaf070b564d43b1ab87fc6be.jpg
http://media-cache-ak0.pinimg.com/736x/32/e6/9c/32e69ca1fcf0705e3402a5e575c24626.jpg
http://media-cache-ak0.pinimg.com/736x/68/00/40/680040f6179a83801732783ef87802d8.jpg
http://media-cache-ec0.pinimg.com/736x/0a/de/08/0ade08368f6388e80229bd3da7c28e4f.jpg
https://c1.staticflickr.com/3/2590/3859157875_e8097cddbd_z.jpg?zz=1
http://iv1.lisimg.com/image/1418689/600full-ok-taecyeon.jpg
http://media-cache-ec0.pinimg.com/736x/9e/8e/88/9e8e8881235849b4869241ec085213ba.jpg
http://media-cache-ak0.pinimg.com/736x/c4/a6/0e/c4a60e6f2fabb396803a54c04740384b.jpg
http://31.media.tumblr.com/tumblr_kz3hpjyj6R1qaejjmo1_500.jpg
http://media-cache-ec0.pinimg.com/736x/3c/98/f2/3c98f21bf5716c58d16cbc4a0d157904.jpg
http://iv1.lisimg.com/image/1011491/600full-ok-taecyeon.jpg
http://media-cache-ak0.pinimg.com/736x/34/31/72/343172e01d228179da6860ee2106e9ca.jpg
http://ukimages.kpopstarz.com/data/images/full/1314/taecyeon.jpg?w=600
http://media-cache-ak0.pinimg.com/736x/f8/0b/6e/f80b6e275083a68bc499c83c496ccdd9.jpg
http://media-cache-ec0.pinimg.com/736x/13/cf/dd/13cfddc8a7f93f0bd0b5243dcf9b94d3.jpg
http://unniyuni.files.wordpress.com/2012/01/tumblr_lx5f7wpkin1qlpbxzo1_4001.gif
http://media-cache-ak0.pinimg.com/736x/e2/62/30/e262306764e8912176cb302c0c168cd8.jpg
http://images.kdramastars.com/data/images/full/41346/ok-taecyeon.jpg?w=600
http://iv1.lisimg.com/image/1418641/600full-ok-taecyeon.jpg
http://i2.listal.com/image/1418666/600full-ok-taecyeon.jpg
http://media-cache-ec0.pinimg.com/736x/37/47/5f/37475f6e30290e84316297a408f7dc32.jpg
http://media-cache-ak0.pinimg.com/736x/32/e7/d8/32e7d88e674d7837396011132c3ae4e7.jpg
http://2.bp.blogspot.com/-SOGextJn87Y/TdDUdmXSiiI/AAAAAAAAAIM/i8u2GvuZ3sg/s1600/2pm01-0011.jpg
http://24.media.tumblr.com/tumblr_m23lexKVTa1qir81ho1_1280.jpg
http://i.imgur.com/bL2cM.jpg
http://rietanaya.files.wordpress.com/2009/11/taecyeon.jpg
http://i.imgur.com/m5qFD97.jpg
http://1.bp.blogspot.com/-EwrgD-elW40/T2gLRE1xDLI/AAAAAAABMk8/bA-jGzfKkpQ/s320/foto-foto-taecyeon-14.jpg
http://ukimages.kpopstarz.com/data/images/full/1313/taecyeon.jpg?w=600
https://c1.staticflickr.com/3/2502/3894836198_71360cb44e_z.jpg
http://i2.listal.com/image/1418652/600full-ok-taecyeon.jpg
http://i2.listal.com/image/1418678/600full-ok-taecyeon.jpg
http://2.bp.blogspot.com/-Z_qGfjzSxeA/UN5yvcE9NFI/AAAAAAAAAMg/NyAr9c2X1rA/s1600/Ok_TaecYeon_2PM_31102009022324.jpg
http://media-cache-ec0.pinimg.com/736x/25/b2/6c/25b26cb9b8e28c0130abb285d3799812.jpg
http://media-cache-ec0.pinimg.com/736x/c5/14/d5/c514d5278d8a6d4eb560cec6a1b27de0.jpg
http://4.bp.blogspot.com/-hewqMTr52dg/T8dOP6oqSxI/AAAAAAAAAQU/gARjp7x0C40/s1600/taecyeon+(52).jpg
http://media-cache-ak0.pinimg.com/736x/1d/7d/4c/1d7d4cd8c8c0055ba3ea32a0c443f15b.jpg
http://www.soompi.com/wp-content/uploads/2013/07/Taecyeon-feature2_7.2013.jpg
http://4.bp.blogspot.com/_eS5B_ot9YwA/TU-3xS35CWI/AAAAAAAAAXE/g59rb4_gN9g/s320/2PM-Ok+Taecyeon.jpg
http://media-cache-ec0.pinimg.com/736x/4b/cf/9f/4bcf9fbdf0aede0c5bdb48d18f7e0816.jpg
http://1.bp.blogspot.com/-174N7aHIa0E/TzE2YffLb2I/AAAAAAAAAaY/Aft5aoQToA4/s1600/2pm.jyp.nation.2011.cute.05.taecyeon.jpg
http://media-cache-ak0.pinimg.com/736x/d1/73/d1/d173d1e6d15166dc95c0173bc261e884.jpg
http://i1019.photobucket.com/albums/af317/apop_newlooks/2pm/taecyeon02.png
http://taecyeonfanid.files.wordpress.com/2014/02/1779342_639972259402379_1323189376_n.png
http://media-cache-ec0.pinimg.com/736x/b1/f3/da/b1f3da773d4827f581135e9088aa03a1.jpg
http://media-cache-ak0.pinimg.com/736x/ae/ea/42/aeea42ef71f8f9329427890243f61977.jpg
http://31.media.tumblr.com/65bdc782bf380c8fd16f50e5b7d12603/tumblr_mxbaukJl7T1rjrwp2o1_500.gif
http://thewallmachine.com/files/1313681607.jpg
https://upload.wikimedia.org/wikipedia/commons/thumb/2/23/Ok_Taekyeon.jpg/250px-Ok_Taekyeon.jpg
http://media-cache-ak0.pinimg.com/736x/5a/7c/9b/5a7c9b779a503a62f8cac871478d02cd.jpg
http://fc02.deviantart.net/fs51/i/2009/281/1/b/OK_TAECYEON_by_Jozzlyn.png
http://media-cache-ak0.pinimg.com/736x/72/1e/0a/721e0ab44839132dd9bc76cce9af960e.jpg
http://krxia.files.wordpress.com/2012/01/q67sa.jpg
http://media-cache-ak0.pinimg.com/736x/2c/06/f9/2c06f9e00ce35295b032949629630b93.jpg
http://images5.fanpop.com/image/photos/26200000/-Ok-Taecyeon-taecyeon-2pm-26204728-500-230.gif
http://i.pinger.pl/pgr365/9ede8c8f000a26124d1a6d2f/Ok+TaecYeon.jpg
http://media-cache-ec0.pinimg.com/736x/85/aa/98/85aa987cfb921d6d9956cfc5ef86e297.jpg
http://farm4.staticflickr.com/3593/3451412940_e0556ab299_z.jpg?zz=1
http://3.bp.blogspot.com/-6u_Q3gQCQyM/T7PXi6wBsTI/AAAAAAAAAJ0/ydPITWAHikM/s1600/fullsizephoto213934.jpg
http://www.blike.net/files/frontimage/20100203Taecyeon.jpg
https://pbs.twimg.com/profile_images/2466227569/image.jpg
http://images5.fanpop.com/image/photos/26200000/-Ok-Taecyeon-taecyeon-2pm-26204728-500-230.gif
http://media-cache-ec0.pinimg.com/736x/5e/2e/7a/5e2e7a0c7dc5f372b32373c7238d5a49.jpg
http://media-cache-ak0.pinimg.com/736x/5c/f6/27/5cf6273ed61d4c648bb97443e256a81e.jpg
http://myhottestblog.files.wordpress.com/2010/12/taecyeon-3.jpg?w=300
http://static.doramatv.ru/uploads/pics/00/19/405.jpg
http://media-cache-ec0.pinimg.com/736x/9e/8e/88/9e8e8881235849b4869241ec085213ba.jpg
https://pbs.twimg.com/profile_images/2482183756/tumblr_m056vprwMg1qmcbq9o1_500.jpg
http://sd.keepcalm-o-matic.co.uk/i/keep-calm-and-love-ok-taecyeon-5.png
http://en.korea.com/dreamhigh/files/2013/02/taecyeon_unicaunnisansu1.jpg
http://i1.ytimg.com/vi/za5LsXuhHkc/hqdefault.jpg
http://2.bp.blogspot.com/__qmWf5J6voA/TU0qzrd4TcI/AAAAAAAAABQ/K6o-_z21l3I/s1600/taek12.jpg
http://media-cache-ak0.pinimg.com/736x/cb/3e/17/cb3e1759af35ec6a4fa080878d5c6aa4.jpg
http://static1.allkpop.com/upload/af_org/2PM-Taecyeon_1371405008_af_org.jpg
http://media-cache-ak0.pinimg.com/originals/4e/95/02/4e950203580c4732e574d9afc3e8be52.jpg
http://iv1.lisimg.com/image/1418681/600full-ok-taecyeon.jpg
http://media-cache-ec0.pinimg.com/736x/77/1a/45/771a451468819112d9e5fff5cf854dca.jpg
http://sv6.postjung.com/picpost/data/150/150321-pic-6.jpg
http://media-cache-ak0.pinimg.com/736x/5e/ad/05/5ead0520f3681370ccf1dcaf1f161d51.jpg
http://1.bp.blogspot.com/-fciTw_Zp5Lg/T7OSfPDBZ_I/AAAAAAAAOnY/YJHd8JZIj8c/s1600/2pm.photobook.special.edition.A05a.taecyeon.jpg
http://3.bp.blogspot.com/_n18T59WsTbs/Sor4kv7sHRI/AAAAAAAABMc/PlkuBwwNpEQ/s800/OK-Taecyeon-11.jpg
http://media-cache-ec0.pinimg.com/736x/5d/21/27/5d212701cf52b8b7e34fdc3d1893798e.jpg
http://2.bp.blogspot.com/_0NhdcMdhvWs/TRsc16241aI/AAAAAAAAZpk/kQmq1wPblUg/s320/600f+ok-taecyeon.jpg
http://25.media.tumblr.com/tumblr_m7ssiv3tyP1ry8s29o1_1280.jpg
http://media-cache-ec0.pinimg.com/736x/48/17/12/4817123a79bd359f9f24002c17c2540e.jpg
http://i2.listal.com/image/1418670/600full-ok-taecyeon.jpg
http://korea.tlcthai.com/wp-content/uploads/2010/11/Taecyeon1711101.jpg
http://star.koreandrama.org/wp-content/uploads/2007/07/Taecyeon-25.jpg
http://2.bp.blogspot.com/--0yLrlh6k6c/US9Xa1mKQwI/AAAAAAAAAIA/rZ6gVYvssnI/s320/Image.jpg
http://i231.photobucket.com/albums/ee251/electropop_robot2/okdaddy/okcat019.png
http://media-cache-ec0.pinimg.com/originals/2b/0d/b3/2b0db3e08510d1ce15cb5631e7bf217a.jpg
http://i294.photobucket.com/albums/mm96/javabeans122/act/2010/10a/taecyeon_2.jpg
http://media-cache-ak0.pinimg.com/736x/65/6c/76/656c7697a0026d7e3840dd5c74d7b71a.jpg
http://star.koreandrama.org/wp-content/uploads/2007/07/Taecyeon-9.jpg
http://dramabucks.com/wp-content/uploads/2013/10/2-PM-Ok-Taecyeon.jpg
https://c2.staticflickr.com/4/3555/3766488368_c76ba4f3c2_z.jpg?zz=1
http://media-cache-ak0.pinimg.com/736x/4c/ac/5f/4cac5fc99d8516f027a4aed1334b3a29.jpg
http://media.tumblr.com/tumblr_lkorcgMemT1qe0915.jpg
http://2.bp.blogspot.com/_iT2OsBHRLR0/THJCBzsiinI/AAAAAAAAAKs/HkuTzij7E0I/s1600/20100223_taecyeon_1.jpg
http://korea.tlcthai.com/wp-content/uploads/2010/11/Taecyeon1711101.jpg
http://3.bp.blogspot.com/-RgjvMbS43Hk/Tc9jDzDygaI/AAAAAAAAA0w/SZH4Jq-A_F8/s1600/3652290633_54552d90f2_o.jpg
http://1.bp.blogspot.com/-DMBPTKlLH88/TzPEKh3ebhI/AAAAAAAAAA8/i_sZ6XYVfqU/s1600/373828_256660851063789_184816928248182_778290_1976337672_n.jpg
http://star.koreandrama.org/wp-content/uploads/2007/07/Taecyeon-10.jpg
http://4.bp.blogspot.com/_0NhdcMdhvWs/TRsdkZFjV7I/AAAAAAAAZqE/ER2Mk0yhQtA/s400/-ok-taecyeon.jpg
http://www.88news.net/wp-content/uploads/2009/08/Ok-Taecyeon.jpg
http://www.soompi.fr/wp-content/blogs.dir/5/files/2012/02/Taecyeon-2PM-Mens-Health-2.jpg
http://media-cache-ec0.pinimg.com/736x/74/e6/66/74e666349add396f714e602ab0a1cbc8.jpg
http://taecyeonfanid.files.wordpress.com/2013/08/bpzehif9qte2mpo8hdut.jpg
http://media-cache-ec0.pinimg.com/736x/f2/0b/ae/f20baeb90591f6362e9ad4c72e162615.jpg
http://en.korea.com/dreamhigh/files/2013/02/taecyeon_unicaunnisansu1.jpg
https://c2.staticflickr.com/4/3441/3970519624_9bde444511_z.jpg?zz=1
http://www.askkpop.com/images/upload/4/gdulri/2013/07/26/2PMs-Taecyeon-Starring-In-Fantasy-Romance-Drama-Who-Are-You-2013.jpg
http://media-cache-ec0.pinimg.com/736x/bb/aa/57/bbaa577a954c54c9499dc23d1e73264e.jpg
http://iv1.lisimg.com/image/1032300/600full-ok-taecyeon.jpg
http://30.media.tumblr.com/tumblr_kzp3ywVREb1qbuvjeo1_500.jpg
http://i1019.photobucket.com/albums/af317/apop_newlooks/2pm/1alb-taecyeon1.jpg
http://1.bp.blogspot.com/-kAcvSJSqgjk/TrqhucfRFHI/AAAAAAAAALE/P1e3z7ly-lI/s1600/2pm.photobook.special.edition.A05b.taecyeon.jpg
http://static1.allkpop.com/upload/2013/12/content/Taecyeon_1387920653_20131224_taecyeon2.jpg
http://images.kdramastars.com/data/images/full/13125/image.jpg?w=600
http://i231.photobucket.com/albums/ee251/electropop_robot2/okdaddy/okcat000.png
https://fbcdn-profile-a.akamaihd.net/hprofile-ak-frc3/t1.0-1/c0.0.200.200/p200x200/1491737_516507838459866_1448838196_n.jpg
http://2.bp.blogspot.com/_n18T59WsTbs/Sor4SxB-RPI/AAAAAAAABL0/Vm0LXl7Vfrc/s1600/OK-Taecyeon-06.jpg
http://gimg.dek-d.com/glitter1/956296/66077
http://images6.fanpop.com/image/photos/34400000/-Taecyeon-taecyeon-2pm-34432825-500-300.gif
http://3.bp.blogspot.com/-I2qKsTR7W9U/T2MC42dmQ1I/AAAAAAAAAGg/VpTEGhsjW0o/s1600/taecyeon.jpg
http://www.gooddrama.net/images/actor/big/6395.jpg
http://static1.allkpop.com/upload/af_org/2PM-Taecyeon_1371405008_af_org.jpg
http://twitpic.com/show/large/8mrb0w
http://img.youtube.com/vi/K_iugrmEY3s/0.jpg
http://www.8pic.ir/images/93122815530410054601.jpg
http://l.yimg.com/nr/api/res/1.2/9VbEhCyIQcEE8tQm7GuN2w--/YXBwaWQ9eWVudDtiZz0wMDA7Zmk9Zml0O2g9MzAwO3c9MjI4/http://l.yimg.com/jj/image-4d0781dbee1a9-0000350762.jpg
http://3.bp.blogspot.com/-YnskcyZ-DKI/ThBwxkX0GHI/AAAAAAAAJQE/Rb7dXtiTQuw/s1600/Taecyeon+Wallpaper.jpg
http://iv1.lisimg.com/image/1418694/600full-ok-taecyeon.jpg
http://images5.fanpop.com/image/photos/27000000/taecyeon-taecyeon-2pm-27019679-637-1024.jpg
http://ukimages.kpopstarz.com/data/images/full/1304/taecyeon.jpg?w=600
http://26.media.tumblr.com/tumblr_l5ciwy3h9h1qcqy04o1_500.jpg
http://taecyeonfanid.files.wordpress.com/2012/07/o0790103411800726400.jpg
http://taecyeonfanid.files.wordpress.com/2012/08/onlycowaywallpaper_9_taecyeon_1280x1024.jpg
https://pbs.twimg.com/profile_images/605162623/okcat132.png
http://i231.photobucket.com/albums/ee251/electropop_robot2/okdaddy/okcat019.png
https://taecyeonfanid.files.wordpress.com/2013/12/screen-shot-2013-12-27-at-6-18-41-pm.png?w=660
http://2.bp.blogspot.com/_QM2-6hVKZbQ/Sxp9fNgr_zI/AAAAAAAAI1Q/8XuV_rNcbhQ/s640/2PM_OkTaekYeon9.jpg
http://images1.wikia.nocookie.net/__cb20110708170426/2pm/images/thumb/2/22/20110613_comeback_2pm_handsup_4.jpg/500px-20110613_comeback_2pm_handsup_4.jpg
http://th01.deviantart.net/fs71/PRE/f/2011/260/1/a/taecyeon_by_marianka92-d4a53h2.jpg
http://koreanhandsome.files.wordpress.com/2011/10/taecyeon_dreamhigh.jpg
http://4.bp.blogspot.com/-k_z7NmY_Z7w/T9qr9AcHE2I/AAAAAAAAWEA/eJdf4FHsBG0/s1600/TAECYEON-COCA-COLA-ZERO-D.jpg
http://ak2.polyvoreimg.com/cgi/img-thing/size/y/tid/31385461.jpg
http://btscelebs.files.wordpress.com/2014/04/taecyeon_2pm_04012014-2.jpg?w=640
http://images5.fanpop.com/image/photos/26200000/-Ok-Taecyeon-taecyeon-2pm-26204653-250-403.gif
http://star.koreandrama.org/wp-content/uploads/2007/07/Taecyeon-11.jpg
http://30.media.tumblr.com/tumblr_lhsazttQPj1qhuvz6o1_400.png
http://sd.keepcalm-o-matic.co.uk/i/keep-calm-and-love-ok-taecyeon-5.png
http://3.bp.blogspot.com/-CH9Rinui9KQ/ULrAEMkXI2I/AAAAAAAAIUM/PRb-QcY1Ygw/s640/9.jpg
http://duwadrama.e-monsite.com/medias/images/ok-taecyeon.jpg
http://25.media.tumblr.com/tumblr_ls1a8hMQEW1qfylf3o4_500.png
http://3.bp.blogspot.com/_QM2-6hVKZbQ/Sxp9fAMIC0I/AAAAAAAAI1M/rZ84Eulc9vs/s640/2PM_OkTaekYeon8.jpg
http://1.bp.blogspot.com/_iqJcrlaL4vE/S2O-FJUbivI/AAAAAAAAAnI/zYlF8Bt5j5Y/s320/ok+taecyeon.PNG
http://1.bp.blogspot.com/-USnRwYQ-X-Q/TWN4QBXZKCI/AAAAAAAAAN0/45NFs4YQIOE/s640/OK-Taecyeon-03.jpg
http://4.bp.blogspot.com/-pfdoFM1F7eY/TdDUf64o1fI/AAAAAAAAAIU/pmF7Hiz-vI8/s1600/936full-ok-taecyeon+%25281%2529.jpg
http://4.bp.blogspot.com/-pfdoFM1F7eY/TdDUf64o1fI/AAAAAAAAAIU/pmF7Hiz-vI8/s1600/936full-ok-taecyeon+%25281%2529.jpg
http://4.bp.blogspot.com/--3mE2hktcOs/UnxSZob-8UI/AAAAAAAABGs/hLExhYD0lL8/s640/551351_751410024881950_807578806_n.jpg
https://fbcdn-sphotos-f-a.akamaihd.net/hphotos-ak-prn1/t1.0-9/p403x403/75986_510476492396334_221474112_n.jpg
http://4.bp.blogspot.com/_tGB5deXk0YA/TTkRfghTlRI/AAAAAAAAADo/oqaAgtYF6I8/s1600/taecyeon_20090601_seoulbeats.jpg
http://taecyeonfanid.files.wordpress.com/2014/02/1947938_639506392782299_1516486279_n.png
https://pbs.twimg.com/profile_images/1083778291/feitaek.png
http://seoulbeats.com/wp-content/uploads/2011/02/20110203_seoulbeats_taecyeon-500x500.jpg
http://2.bp.blogspot.com/-PPRqDzZJQks/TwnI4bwCHeI/AAAAAAAABm4/uViOkCgACeU/s640/hxOIN.jpg
http://fc04.deviantart.net/fs70/f/2013/347/b/a/2pm_ok_taecyeon_by_nuneography-d6xreiq.jpg
http://myhottestblog.files.wordpress.com/2010/12/taecyeon-10.jpg?w=300
http://upload.enewsworld.net/News/Contents/20130724/13478038.jpg
http://iv1.lisimg.com/image/1919692/600full-ok-taecyeon.jpg
http://1.bp.blogspot.com/_YYlYhYOjf6Q/S_PlZK5T4vI/AAAAAAAADF0/Jty0Kkrlu2M/s400/taek-5.jpg
https://fbcdn-profile-a.akamaihd.net/hprofile-ak-prn2/t1.0-1/c14.0.160.160/p160x160/1454678_1468847176674276_982486532_n.jpg
http://img535.imageshack.us/img535/6484/37614071.jpg
http://i231.photobucket.com/albums/ee251/electropop_robot2/okdaddy/okcat017.png
http://25.media.tumblr.com/tumblr_lq5wvrvesr1qexmsoo1_500.png
http://viasilia.files.wordpress.com/2013/07/994299_10151573357868512_315277335_n.jpg
https://c2.staticflickr.com/4/3360/3508621264_ce38f3b93e_z.jpg?zz=1
http://media.tumblr.com/tumblr_lv3jrgg4Gl1qhcnc8.jpg
http://nenanay.files.wordpress.com/2010/06/taec_nov26_seoulbeats2.jpg
http://4.bp.blogspot.com/_PKZyoQiyq38/TQx-lTmsXoI/AAAAAAAAAGc/YnYXM8h2lX0/s1600/3%2B%25281%2529.jpg
https://taecyeonfanid.files.wordpress.com/2012/01/img_profile5.jpg?w=660
http://ukimages.kpopstarz.com/data/images/full/1264/ok-taecyeon-and-so-yi-hyun.jpg?w=600
http://28.media.tumblr.com/tumblr_llv20cctNf1qaf0q2o1_500.jpg
http://taeckhunid.files.wordpress.com/2014/03/3-3-2014-5-04-30-pm.png?w=312
http://i905.photobucket.com/albums/ac260/pumbajungle/2pm2am/ok_taec_yeon_63.jpg
http://1.bp.blogspot.com/-5-v8GqrMLXI/TXhoT0K32zI/AAAAAAAAF5s/N42Kd2RBIvg/s320/taecyeon-aktor-tampan-korea.jpg
http://img42.imageshack.us/img42/6159/f003954449f877e262c001.jpg
http://1.bp.blogspot.com/_YYlYhYOjf6Q/S_PlLe-SVhI/AAAAAAAADE8/rzHjBzUb2kE/s320/1-1.png
http://2.bp.blogspot.com/-D2NrwQbqFvM/UaanYzTvIqI/AAAAAAAAACc/kpZSR4hvxK4/s1600/Ok+TaecYeon+Okcat+Taecyeon+17.jpg
http://iv1.lisimg.com/image/1032305/600full-ok-taecyeon.jpg
http://images5.fanpop.com/image/photos/26200000/-Ok-Taecyeon-taecyeon-2pm-26204683-226-283.gif
http://3.bp.blogspot.com/-l8VKxp4lPdA/UCeJEgoxN2I/AAAAAAAAG_U/tsWeYz0q414/s640/20120110_taecyeon.jpg
http://www.k-addicts.net/static/download/news_images/taecyeon-ok.jpg
http://farm4.staticflickr.com/3625/3451398958_63a706b4a9_z.jpg?zz=1
http://upload.enewsworld.net/News/Contents/20131022/22683581.jpg
http://img218.imageshack.us/img218/541/46774299.jpg
http://www.8pic.ir/images/22602973454561797378.jpg
http://readfanfiction.files.wordpress.com/2013/08/sir-please-look-at-me.png
http://star.koreandrama.org/wp-content/uploads/2007/07/Taecyeon-19.jpg
http://data3.whicdn.com/images/86033912/large.png
http://www.sarangni.info/resimler/prs/9000148/l-taecyeon-5344a952.jpg
http://1.bp.blogspot.com/-ZQNlZvrfMEE/UZwkPiG6yXI/AAAAAAAAjKY/5VXnagJ-66s/s1600/201305212150080510_1.jpg
http://rietanaya.files.wordpress.com/2009/11/taecyeon_2pm_07082009105224.jpg
http://dzpy14fd0up32.cloudfront.net/wp-content/uploads/2013/11/taecyeon-vogue-girl-3.jpeg
http://images.kpopstarz.com/data/images/full/126880/the-24-year-old-k-pop-singer-and-actor-ok-taecyeon-announced-that-he-has-plans-to-enlist-in-the-south-korean-army-in-a-little-over-a-year.jpg
http://popseoul.files.wordpress.com/2011/02/taecyeon-20110202.jpg
http://i307.photobucket.com/albums/nn301/viviplve/taecsmile2.jpg
http://fc09.deviantart.net/fs70/i/2010/073/4/3/Ok_Taecyeon_Wallpaper_by_mackiez.png
http://www.polyvore.com/cgi/img-thing?.out=jpg
http://dzpy14fd0up32.cloudfront.net/wp-content/uploads/2013/10/Taecyeon1.jpg
http://www.blike.net/files/frontimage/120220Taecyeon01.jpg
http://btscelebs.files.wordpress.com/2014/04/taecyeon_2pm_04012014-2.jpg
http://images4.fanpop.com/image/photos/22600000/Taecyeon-taecyeon-2pm-22603431-400-533.jpg
http://popseoul.files.wordpress.com/2010/08/missataec-20100804.jpg
http://th01.deviantart.net/fs70/150/f/2010/084/3/d/2PM___Ok_Taecyeon___by_pillstraw.jpg
http://static1.allkpop.com/upload/2013/07/content/Taecyeon_1374108665_20130717_Taecyeon_3.jpg
http://farm3.staticflickr.com/2518/3744240246_53ecf3a9bd.jpg
http://farm3.staticflickr.com/2530/3765692935_06e8473624_z.jpg?zz=1
https://fbcdn-profile-a.akamaihd.net/hprofile-ak-frc1/t1/c23.0.135.135/199568_100696236681263_4080676_a.jpg
http://iv1.lisimg.com/image/1418655/600full-ok-taecyeon.jpg
http://star.koreandrama.org/wp-content/uploads/2007/07/Taecyeon-17.jpg
http://2.bp.blogspot.com/-lfYqRy8fVXA/Uf5JpOf0uhI/AAAAAAAALks/IiJP48-Tji8/s1600/Screenshot_2013-08-04-07-49-33.png
http://3.bp.blogspot.com/-DVwE4EpI5lE/T5Z1CHPUHoI/AAAAAAAAAkA/zSQrRQ2s9gY/s1600/382759_336651203015491_198643860149560_1547398_1200335524_n.jpg
http://www.sarangni.info/resimler/prs/9000148/l-taecyeon-42ba7402.jpg
http://i2.listal.com/image/1919694/600full-ok-taecyeon.jpg
http://media.tumblr.com/tumblr_lkor8rPw3k1qe0915.jpg
http://upload.wikimedia.org/wikipedia/commons/thumb/2/23/Ok_Taekyeon.jpg/220px-Ok_Taekyeon.jpg
http://media.tumblr.com/tumblr_lkor1vjPO21qe0915.jpg
http://25.media.tumblr.com/tumblr_m7hfmboIxv1qgs11yo1_400.jpg
http://snsdpics.com/wp-content/uploads/2012/05/smtown-iam-taeyeon-2.jpg
http://face.famouswiki.com/o/ok-taecyeon-54541/ok-taecyeon-54541.jpg
http://farm3.staticflickr.com/2515/3951655438_38ebb89832_z.jpg?zz=1
http://upload.enewsworld.net/News/Contents/20130724/38872666.jpg
http://taecyeonfanid.files.wordpress.com/2013/09/screen-shot-2013-09-16-at-9-12-11-pm1.png
http://3.bp.blogspot.com/-IOet-e6Cz-k/UkjAzHFNzNI/AAAAAAAAAL0/PY8vGZyR-ws/s1600/20111208_taecyeon.jpg
http://1.bp.blogspot.com/-lZTJM9Rj4F0/UswAKSR0PqI/AAAAAAAABx8/Oepv2RXoGrM/s1600/6.jpg
http://i148.photobucket.com/albums/s5/ginnywicked/taecsleepy.gif
http://3.bp.blogspot.com/-QGxIBlO-8Go/TmiQdz2XVCI/AAAAAAAAATE/xfYQ3Gzoj_I/s640/243682673.jpg
https://fbcdn-profile-a.akamaihd.net/hprofile-ak-frc1/t1/c0.0.267.267/s160x160/998977_1383041318596377_644485332_n.jpg
https://fbcdn-profile-a.akamaihd.net/hprofile-ak-ash1/t5/276978_392040800825643_664831484_n.jpg
http://4.bp.blogspot.com/-EkFXTHFbaPo/UCeI2vGJ08I/AAAAAAAAG_M/QJ92KxigTiQ/s640/20110929_boku-to-star_taecyeon1.jpg
http://3.bp.blogspot.com/_QM2-6hVKZbQ/SzHGs5iKnMI/AAAAAAAAJTo/9D8xV-BdiFk/s400/2PM_Ok_Taek_Yeon.jpg
http://en.korea.com/files/2010/11/3a2a4_inotaec.jpg
http://4.bp.blogspot.com/-9kMSvDGrPnU/TXhoTqtz-eI/AAAAAAAAF5c/57m4dmCaGxA/s1600/180px-Taecyeon.jpg
http://i989.photobucket.com/albums/af16/Mizz_Jul14/Caribbean%20Bay%20Summer%20Splash/2PM_SNSD_cabicf_taecyeon.jpg
http://24.media.tumblr.com/3d639cf98b2797ed94c77c915ca7a688/tumblr_mt4rxgSQOV1qegmrjo5_r2_1280.jpg
http://yutaem.files.wordpress.com/2011/08/hands-up-05a-taecyeon.jpg?w=350
http://2.bp.blogspot.com/_wpEmIp5TQcQ/TBjQzngBiqI/AAAAAAAAGE8/opWBj_duxE4/s400/tn_1276567383_23416444_0.jpg
http://iv1.lisimg.com/image/1418685/600full-ok-taecyeon.jpg
http://i58.photobucket.com/albums/g245/lilazngurl2156/2pm_ok_taecyeon_30082009125529.jpg
http://popseoul.files.wordpress.com/2010/08/taecyeon-20100809.jpg
http://static.doramatv.ru/uploads/pics/00/19/409_o.jpg
http://1.bp.blogspot.com/-p2_xP3IbiOI/Tbznjkk-ofI/AAAAAAAAACw/TqGz3H5_6XA/s1600/tumblr_ldva1xjw431qal6txo1_500.jpg
http://images5.fanpop.com/image/photos/28600000/-Taecyeon-taecyeon-2pm-28668137-550-757.jpg
http://2.bp.blogspot.com/_0NhdcMdhvWs/TRsc1zeSriI/AAAAAAAAZpg/3O2EksVwxy8/s400/600+ok-taecyeon.jpg
http://i2.listal.com/image/1418686/600full-ok-taecyeon.jpg
http://images4.fanpop.com/image/photos/22600000/Taecyeon-taecyeon-2pm-22603409-499-684.jpg
http://images5.fanpop.com/image/photos/26200000/-Ok-Taecyeon-taecyeon-2pm-26204667-312-246.gif
http://kpopweb.s3.amazonaws.com/wp-content/uploads/2013/08/Ok-Taecyeon-tvN-후아유_키스신-2-640x426.jpg
http://2.bp.blogspot.com/-2_kNQwkJKp8/TvlOUfSRzlI/AAAAAAAAAWE/2UK2iwVLQSs/s1600/handsome_taecyeon__3_by_ribkaevelyn-d3fuk2b.jpg
http://farm5.staticflickr.com/4060/4711189695_89e74fa282_z.jpg
http://2.bp.blogspot.com/--QUoO4jU5sU/UaanZH4paxI/AAAAAAAAACo/sfEqzfYx4JI/s1600/Ok_Taec_Yeon.jpg
http://sd.keepcalm-o-matic.co.uk/i/keep-calm-and-love-ok-ok-taecyeon.png
