http://topnews.in/law/files/priyanka-vadra11.jpg
http://farm4.staticflickr.com/3601/3431059883_af05db122c_z.jpg?zz=1
http://kaw.stb.s-msn.com/i/85/B053E523F3544763C46153FEBDDC59.jpg
http://farm4.staticflickr.com/3580/3434779810_17bdca4b06_z.jpg
http://timesofindia.indiatimes.com/photo/17501580.cms
http://nimg.sulekha.com/others/original700/priyanka-vadra-2009-4-12-11-20-14.jpg
http://farm5.staticflickr.com/4022/4268139205_20525d0948_z.jpg?zz=1
http://kaw.stb.s-msn.com/i/5D/EC2811B6A3E428429D84E05CDAEB.jpg
http://gandhipriyanka.info/images/PG.jpg
http://www.hindustantimes.com/Images/2010/5/7d030393-8dca-4730-bd71-6cce8cd4774aHiRes.JPG
http://farm8.staticflickr.com/7051/6984698827_38226cb7fb_z.jpg
http://farm4.staticflickr.com/3330/3431059889_c342655a54_z.jpg
http://farm8.staticflickr.com/7148/6841537599_b3d7490ee2_z.jpg
http://i.dailymail.co.uk/i/pix/2013/03/31/article-2302004-19066F2E000005DC-295_306x423.jpg
http://farm8.staticflickr.com/7184/6856134811_fa9acbb1c0_z.jpg
http://www.timescontent.com/tss/photos/preview/23181/Priyanka%20Vadra.jpg
http://nimg.sulekha.com/others/original700/priyanka-vadra-2009-4-15-11-50-42.jpg
http://farm5.staticflickr.com/4052/4268173931_bbcc8b8911_z.jpg?zz=1
http://farm7.staticflickr.com/6167/6198078598_1bf8f5307e_z.jpg
http://crazyandhra.com/wp-content/uploads/2012/01/Priyanka_Vadra.jpg
http://news.worldsnap.com/wp-content/uploads/2014/01/Priyanka-Gandhi-e1389114203732.jpg
http://i.dailymail.co.uk/i/pix/2012/03/09/article-2112906-1219E5D4000005DC-709_233x365.jpg
http://farm4.staticflickr.com/3380/3445065098_137624a6e5_z.jpg
http://farm4.staticflickr.com/3589/3465908978_e8888d5d3c_z.jpg
http://amethi.in/images/stories/initiative/rahul%20gandhi/Priyanka%20Gandhi%20Vadra.jpg
http://rahulgandhiindia.files.wordpress.com/2013/07/congress-star-campaigner-priyanka-gandhi-13.jpg
http://farm7.staticflickr.com/6090/6116234708_3f3f16cb44_z.jpg
http://media.indiatimes.in/media/content/2012/Feb/2-pti_1330005509_640x640.jpg
http://farm8.staticflickr.com/7181/6881150357_d4ce51e472_z.jpg
http://nimg.sulekha.com/others/thumbnailfull/priyanka-vadra-2009-4-22-11-54-42.jpg
http://farm8.staticflickr.com/7208/6885818657_1e0984b824_z.jpg
http://www.telegraphindia.com/1081130/images/30pri1.jpg
http://media1.santabanta.com/full1/Politicians%20and%20Statesmen/Priyanka%20Gandhi%20Vadra/priyanka-gandhi-vadra-0a.jpg
http://farm8.staticflickr.com/7033/6829661739_6838088837_z.jpg
http://4.bp.blogspot.com/-ZAErrCzaKNg/TyvZKUqM1XI/AAAAAAAABMo/tPsImJTl7_M/s1600/Priyanka+Gandhi+Vadra+in+Balbhadrapur,+Amethi+UP+%282%29.jpg
http://static.indianexpress.com/m-images/Mon%20Aug%2012%202013,%2004:01%20hrs/M_Id_409616_Lucknow.jpg
http://farm8.staticflickr.com/7184/6838584530_4599b1c3bd_z.jpg
http://images.indiatvnews.com/politicsnational/Priyanka-Vadra-13472.jpg
http://farm9.staticflickr.com/8292/7823371928_38654b49b1_z.jpg
http://gandhipriyanka.info/admin/news/1363963171Priyanka%20Gandhi%20Vadra%20(28).JPG
http://nimg.sulekha.com/others/thumbnailfull/priyanka-vadra-2009-4-22-11-29-26.jpg
http://i.dailymail.co.uk/i/pix/2012/02/06/article-2097349-119D4600000005DC-234_224x423.jpg
http://farm8.staticflickr.com/7164/6841536827_cf02455f3e_z.jpg
http://media.indiatimes.in/media/content/2013/Oct/priyanka_vadra_1_1381745501_1381745513.jpg
http://u4uvoice.com/wp-content/uploads/2014/01/priyanka-vadra.jpg
http://www.outlookindia.com/images/priyanka_vadra_20030901.jpg
http://nimg.sulekha.com/others/original700/priyanka-vadra-2009-4-22-11-54-39.jpg
http://farm3.staticflickr.com/2480/3617051628_8509eb7127_z.jpg
http://farm7.staticflickr.com/6160/6166543230_03488f947f_z.jpg
http://farm7.staticflickr.com/6187/6115690873_aed1815d83_z.jpg
http://economictimes.indiatimes.com/photo/24213197.cms
http://nimg.sulekha.com/others/original700/priyanka-vadra-2009-4-15-11-50-6.jpg
http://priyankagandhivadra.files.wordpress.com/2013/08/priyanka-gandhi-in-raebareli-3.jpg
http://farm4.staticflickr.com/3561/3431761388_52a7c8d059_z.jpg
http://www.internationalreporter.com/wp-content/uploads/2014/01/Priyanka-Vadra.jpg
http://farm7.staticflickr.com/6064/6103422592_b4a13fb4b6_z.jpg
http://www.holidayhometimes.com/wp-content/uploads/2011/08/priyanka-gandhi-vadra.jpg
http://nimg.sulekha.com/others/original700/priyanka-gandhi-vadra-2012-2-3-9-1-39.jpg
http://images.indianexpress.com/2014/04/priyankagandhi.jpg
http://farm8.staticflickr.com/7060/6851979427_4b89f6cd73_z.jpg
http://images.indianexpress.com/2014/04/priyankagandhi-4.jpg
http://farm8.staticflickr.com/7148/6841518171_b411dda7f8_z.jpg
http://2.bp.blogspot.com/-kHDvbgTIpiM/Tz-CNzKqTRI/AAAAAAAABcM/Dl0wk2gWZPE/s1600/Priyanka+Gandhi+Vadra+campaigns+in+Tiloi%252C+Amethi+UP.jpg
http://www.telegraphindia.com/1131120/images/20priyanka.jpg
http://kaw.stb.s-msn.com/i/E3/1BC93D811E0C8753CF33B20252811.jpg
http://farm4.staticflickr.com/3305/3433956837_5c6074859a_z.jpg
http://cis-india.org/home-images/PriyankaVadra.png
http://farm4.staticflickr.com/3376/3446789601_6311d1c4c5_z.jpg
http://www.andhraheadlines.com/g10/news/la/108761.JPG
http://media2.intoday.in/indiatoday/images/Photo_gallery/priyanka-vadra_102111115330.jpg
http://farm8.staticflickr.com/7024/6822380941_9145e76fee_z.jpg
http://nimg.sulekha.com/others/original700/priyanka-vadra-2009-4-11-12-52-14.jpg
http://hittop10.com/wp-content/uploads/2013/11/Priyanka-Gandhi-Vadra.jpg
http://www.indiatvnews.com/upload/news/neweditor/Image/2013/politicsnational/apr/pi20.jpg
http://3.bp.blogspot.com/_F_lnzb-kstw/SE4iQS7NtlI/AAAAAAAAACY/c-HcTHvzHRo/s320/21priyanka1.jpg
http://farm6.staticflickr.com/5148/5754347433_046d9c40cb_z.jpg
http://fillum.com/wp-content/uploads/2010/04/2490_1235556480.jpg
http://www.stylensbeauty.com/wp-content/uploads/2013/03/Priyanka-Gandhi-Vadra.jpg
http://www.topnews.in/files/Priyanka-Gandhi-Vadra.jpg
http://media2.intoday.in/indiatoday/images/stories/priyanka-vadra_350_010714074847.jpg
http://gandhipriyanka.info/images/Priyanka_Gandhi_Vadra.jpg
http://photogallery.indiatimes.com/news/india/ls-polls-phase-iv/photo/4494703/Priyanka-Vadra-casts-her-vote.jpg
http://4.bp.blogspot.com/_YYMeAu4i7gA/SY_GqR9lpXI/AAAAAAAAEOw/Y91GTJoyJ_I/s400/priyanka-vadra.jpg
http://images.iimg.in/c/50ce740dedaffd6ce4093610-4-900-700-1332339434/priyanka-gandhi-during-a-poll-meeting-in-up-21.img
http://images.iimg.in/c/50ce7b69edaffd68e404bbe6-4-300-400-1380536172/priyanka-gandhi-50ce7b69d7324.img
http://1.bp.blogspot.com/-uZTJZBPW9lw/TyvVzXyiYgI/AAAAAAAAJG0/L0dUYXibX5A/s1600/Priyanka%2BGandhi%2BVadra%2Bin%2BBalbhadrapur%252C%2BAmethi%2BUP%2B%25281%2529.jpg
http://topnews.in/law/files/priyanka-vadra.jpeg
http://s3.vidimg.popscreen.com/original/28/NTkxOTY2ODUz_o_priyanka-gandhi-vadra-rahul-gandhis-honour-is-related-.jpg
http://hindi.oneindia.in/img/2013/05/20-1369038602-priyanka-vadra-603.jpg
http://www.veethi.com/images/people/fullsize/Priyanka_Vadra_20120307230310.jpeg
http://3.bp.blogspot.com/_xS8RbsvLaAM/SgPeoyQmQKI/AAAAAAAAAUA/JhISdnrcpYE/s320/1.jpg
http://farm3.staticflickr.com/2735/4268222043_9509544240_z.jpg?zz=1
http://s3.vidimg.popscreen.com/original/24/NTk1NzkwODUz_o_priyanka-gandhi-vadra-in-dighiya-raebareli-you-elect-a-.jpg
http://farm8.staticflickr.com/7055/6902689377_dd64282bd2_z.jpg
http://topnews.in/law/files/Priyanka-Vadra.jpg
http://static.indianexpress.com/pic/uploadedImages/bigImages/B_Id_405782_priyanka-vadra.jpg
http://farm8.staticflickr.com/7167/6730474865_79ca0a59c1_z.jpg
http://static.indianexpress.com/pic/uploadedImages/bigImages/B_Id_405394_Priyanka_Vadra.jpg
https://fbcdn-profile-a.akamaihd.net/hprofile-ak-ash3/c28.28.348.348/s160x160/155908_172921916183168_635333796_n.jpg
http://1.bp.blogspot.com/-pilq921Lt8o/Tw3MmQ0QaKI/AAAAAAAAAHM/TwZu1f0_5Hg/s1600/Priyanka%20Tiwari%20down%20blouse%202.jpg
http://img.thesun.co.uk/multimedia/archive/01001/SNA0909TURN-180_1001360a.jpg
http://farm8.staticflickr.com/7161/6730475287_eb1f4660f2_z.jpg
http://www.astrosage.com/celebrity-horoscope/img/Priyanka-Vadra-1-horoscope.jpg
http://aplivenews.com/wp-content/uploads/2012/12/Priyanka-Vadra.jpg
http://s3.firstpost.in/wp-content/uploads/2014/03/Priyanka-Vadra-AFP.jpg
http://media.newindianexpress.com/article1287097.ece/alternates/w300/Priyanka,-Robert-Vadra-PTI.jpg
http://www.topnews.in/files/katrina-kaif156.jpg
http://2.bp.blogspot.com/-9Gw8pEv2zo4/TdjMdDl979I/AAAAAAAACTU/UOsC_60tKtM/s1600/50555_72373831054_3325_n.jpg
http://www.hindustantimes.com/Images/2012/1/4eb8ad37-ff3c-44ce-8f46-ebfa6a68bc97HiRes.JPG
http://nimg.sulekha.com/others/original700/priyanka-vadra-robert-vadra-2009-5-21-9-21-31.jpg
http://data.ibtimes.co.in/en/full/217960/priyanka-vadra.jpg
http://www.newsroompost.com/wp-content/uploads/2014/04/priyanka-gandhi.jpg
http://freepressjournal.in/wp-content/uploads/2014/04/priyanka-vadra.jpg
http://images.indiatvnews.com/politicsnational/Priyanka-Gandhi8703.jpg
http://nimg.sulekha.com/others/original700/priyanka-vadra-2009-4-11-12-52-57.jpg
http://www.internationalreporter.com/wp-content/uploads/2014/04/Priyanka-Vadra1.jpg
http://www.newsroompost.com/wp-content/uploads/2013/11/Priyanka-Vadra1.jpg
http://img.allvoices.com/thumbs/event/609/480/104492013-priyanka-gandhi.jpg
http://dd508hmafkqws.cloudfront.net/sites/default/files/styles/article_node_view/public/priyanka_6_0_0_0_0_0_0_0_0_0_0.jpg
http://nimg.sulekha.com/others/original700/priyanka-vadra-2009-4-22-11-54-42.jpg
http://farm8.staticflickr.com/7050/6896106457_9aec6c80f8_z.jpg
http://images.iimg.in/c/50ce73d7edaffd6ce408ecd7-4-900-700-1328539286/priyanka-gandhi-vadra-campaigns-in-amethi-up-10.img
http://www.topnews.in/law/files/priyanka-vadra_0.jpg
http://www.newsroompost.com/wp-content/uploads/2013/10/RTXE949-e1382960498418.jpg
http://nimg.sulekha.com/others/thumbnailfull/priyanka-vadra-2009-4-22-12-20-54.jpg
http://kaw.stb.s-msn.com/i/1B/662C79390E096CF11BDBDC5CE2DC9.jpg
http://images.indianexpress.com/2014/04/priyanka-vadra.jpg
https://ycpi-farm8.staticflickr.com/7167/6730461505_503be2d9e9_z.jpg
https://c2.staticflickr.com/8/7065/6794650170_d61eec9022_z.jpg
http://topnews.in/law/files/priyanka-vadra01.jpg
http://www.images22.com/pics/04/priyanka-vadra-talking-with-the-media.jpg
http://pressbrief.in/videoflow/_thumbs/vf_246712573_Priyanka_Gandhi_Vadra.jpg
http://nimg.sulekha.com/others/thumbnailfull/priyanka-vadra-robert-vadra-2009-5-7-8-21-4.jpg
http://images.indianexpress.com/2013/12/priyanka1.jpg
http://newstrack.outlookindia.com/images/priyanka_20120213.jpg
http://news.oneindia.in/img/2014/05/02-1399014773-priyanka-vadra10.jpg
http://s3.vidimg02.popscreen.com/original/31/NTQxMDc4MzUz_o_priyanka-gandhi-vadra-ranthambhore.jpg
http://media.santabanta.com/gal/event/delhi-elections-2013/delhi-elections-2013-13_th.jpg
http://www.indileak.com/wp-content/uploads/2014/05/priyanka-vadra2.jpg
http://www.onsecrethunt.com/wallpaper/wp-content/uploads/2013/10/Priyanka-Gandhi-Vadra.jpg
http://amethi.in/images/rsgallery/original/Priyanka%20Gandhi%20Vadra.jpg
http://www.indiatvnews.com/upload/news/neweditor/Image/2013/politicsnational/aug/vad1.jpg
http://www.internationalreporter.com/wp-content/uploads/2014/04/Priyanka-Gandhi-Vadra1.jpg
http://img.niticentral.com/2014/04/priyanka6.jpg
http://static.indianexpress.com/pic/uploadedImages/bigImages/B_Id_411724_Priyanka_Vadra.jpg
http://images.indianexpress.com/2014/04/priyanka-vadra-pti1.jpg
http://photogallery.outlookindia.com/images/gallery/20140427/priyanka_vadra20140427.jpg
http://s3.firstpost.in/wp-content/uploads/2014/04/Priyanka-robervadra_AFP.jpg
http://farm8.staticflickr.com/7057/6984699593_2d7baabae1_z.jpg
http://pressbrief.files.wordpress.com/2013/07/congress-star-campaigner-priyanka-gandhi-35.jpg?w=243
http://www.ndtv.com/news/images/story_page/Priyanka_Gandhi_Vadra_rally_360.jpg
http://static.ibnlive.com/pix/sitepix/04_2014/priyanka_gandhi_vadra_338x225.jpg
http://www.asiantribune.com/files/images/Priyanka.bmp
http://timedotcom.files.wordpress.com/2014/05/priyanka-gandhi.jpg?w=280
https://ycpi-farm8.staticflickr.com/7151/6730482147_b8fda2cdc8_z.jpg
http://2.bp.blogspot.com/_xS8RbsvLaAM/SgQGNV1qd0I/AAAAAAAAAYI/ZRWYcx3V_rg/s320/1.jpg
http://images.indianexpress.com/2014/05/pg.jpg
http://images.iimg.in/c/535273636fb1729d468148f8-4-900-700-1397912420/priyanka-gandhi-vadra-in-raebareli-02.img
http://images.indianexpress.com/2014/04/priyanka-child.jpg
https://farm8.staticflickr.com/7171/6730483907_73e3ac0467_z.jpg
http://economictimes.indiatimes.com/thumb/msid-35342158,width-310,resizemode-4/priyanka-vadra-admits-to-submitting-multiple-applications-for-director-identification-number.jpg
http://tamil.oneindia.in/img/2014/05/19-1400486020-priyanka-vadra--600.jpg
https://c2.staticflickr.com/8/7167/6730482537_9bf46e9b07_z.jpg
http://www.internationalreporter.com/wp-content/uploads/2013/10/Priyanka-Gandhi-Vadra.jpg
https://c2.staticflickr.com/8/7184/6856134811_fa9acbb1c0_z.jpg
http://img.helloandhra.com/newsitems/thumbs/Priyanka-Gandhi_0_1.jpg
http://bsmedia.business-standard.com/_media/bs/img/article/2013-05/21/full/1369130673-8855.JPG
http://1.bp.blogspot.com/_jWAYRoTKSUY/TEsg-p2ZZSI/AAAAAAAAAvE/ZwI-rCY1NN0/s1600/abc.jpg
http://www.ndtv.com/news/priyanka_295x200.jpg
http://media2.intoday.in/indiatoday/images/stories/priyanka-vadra-file_350_012514114935.jpg
http://www.abplive.in/incoming/article292603.ece/alternates/FREE_400/Priyanka%20Vadra
http://economictimes.indiatimes.com/thumb/msid-32834836,width-310,resizemode-4/priyanka-vadra-helped-varun-gandhi-oust-me-from-pilibhit-vinod-kumar-tiwari-congress-leader.jpg
http://nimg.sulekha.com/others/thumbnailfull/priyanka-vadra-2009-4-15-11-50-32.jpg
http://4.bp.blogspot.com/-SzSbuw2MUq8/T0p28I-vykI/AAAAAAAAB6g/iDMAzYKvkJA/s1600/Priyanka%2BGandhi.jpg
http://news.oneindia.in/img/2014/01/10-priyanka-vadra.jpg
http://farm8.staticflickr.com/7011/6730472967_7171c39bab_z.jpg
http://static.indianexpress.com/pic/uploadedImages/bigImages/B_Id_411733_Priyanka_Vadra.jpg
http://www.internationalreporter.com/wp-content/uploads/2014/04/Priyanka-Vadra.jpg
http://www.pkp.in/images2/Priyanka%20Gandhi%20kids.jpg
http://media2.intoday.in/indiatoday/images/stories/priyanka-vadra-2_350_042514101932.jpg
http://economictimes.indiatimes.com/thumb/msid-34300748,width-310,resizemode-4/bjp-behaving-like-panic-stricken-rats-says-priyanka-gandhi-on-robert-vadra-video.jpg
http://static.guim.co.uk/sys-images/Guardian/Pix/pictures/2014/4/16/1397664007016/Priyanka-Gandhi-Vadra-009.jpg
http://media1.santabanta.com/full1/Bollywood%20Movies/Gandhi%20My%20Father/gan2v.jpg
http://gandhipriyanka.files.wordpress.com/2012/04/priyanka-gandhi-vadra-campaigns-for-congress-023.jpg
http://static.manoramaonline.com/ranked/online/MM/Malayalam/News/Malayalam_Breaking_News/3577679127_Priyanka-Vadra03052014.jpg
http://www.hindustantimes.com/Images/2012/2/c3bc0c11-9c6c-442d-aead-d299c54875c3MediumRes.JPG
http://images.indianexpress.com/2014/04/priyanka-vadra1.jpg
http://photogallery.outlookindia.com/images/gallery/20140417/priyanka_vadra_20140428.jpg
http://www.thehindu.com/multimedia/dynamic/01857/Priyanka1_1857501g.jpg
http://www.outlookindia.com/images/priyanka_dalai_20090223.jpg
http://media2.intoday.in/indiatoday/images/stories/priyanka_son-story_350_050514115945.jpg
http://timesofindia.indiatimes.com/thumb/msid-33710889,width-300,resizemode-4/Priyanka-Gandhi-Vadra.jpg
http://media-cache-ec0.pinimg.com/736x/ae/45/b0/ae45b00dbcc4303b749f6382362dc5f0.jpg
http://nimg.sulekha.com/others/original700/priyanka-vadra-2009-4-22-11-29-52.jpg
http://1.bp.blogspot.com/-QGe8iorXHdU/TqPPdZTyY0I/AAAAAAAAA5A/NUedM3CH_j8/s1600/Priyanka+and+Robert+Vadra.jpg
https://c2.staticflickr.com/8/7186/6984689513_9577f41440_z.jpg
http://s3.vidimg.popscreen.com/original/14/NTkyODEwNjUz_o_priyanka-gandhi-vadra-in-karahiya-bajaramethi-up-9th-feb.jpg
http://media2.intoday.in/indiatoday/images/stories/2014April/priyanka-1_650_050214043509.jpg
http://gandhipriyanka.info/demos/images/slide-civil-6.jpg
http://images.indianexpress.com/2014/04/priyanka-6.jpg
https://c2.staticflickr.com/8/7061/6856133299_3b0b7c6ce9_z.jpg
https://c2.staticflickr.com/8/7189/6984697185_8bc5453a91_z.jpg
http://cdn.nolet.com/sites/default/files/styles/medium/public/article/image/2014/02/01/10390951/02raihan.jpg?itok=xLeiO7q3
http://indiawires.com/wp-content/uploads/2012/10/robert_rahul_priyanka_vadra.jpg
http://cdn.nolet.com/sites/default/files/styles/medium/public/article/image/2014/04/15/10807146/15newspriyanka_215239.jpg?itok=lLfxrWK5
http://face.famouswiki.com/p/priyanka-vadra-1318/priyanka-vadra-1318.jpg
http://images.iimg.in/c/50ce73e1edaffd6ce408f97b-4-900-700-1329219469/priyanka-gandhi-vadra-campaigns-in-bachchrawa-raebareli-15.img
http://photogallery.outlookindia.com/images/gallery/20131204/Priyanka_Gandhi_Vadra2_20131204.jpg
http://withfriendship.com/images/h/39815/priyanka-gandhi.jpg
https://v4s.yimg.com/so/7023/6812126069_3f8391773f_z.jpg
http://i.bollywoodmantra.com/albums/events/promotion/raajneeti-promotional-event/katrina-kaif___194383.JPG
https://c1.staticflickr.com/7/6064/6103422592_b4a13fb4b6_z.jpg
http://media.santabanta.com/gal/event/delhi-elections-2013/delhi-elections-2013-11_th.jpg
http://i.dailymail.co.uk/i/pix/2013/05/21/article-2328691-19EBA156000005DC-640_224x280.jpg
http://farm4.staticflickr.com/3565/3442123474_82b5641b95_z.jpg
http://img.niticentral.com/2014/04/priyanka-gandhi-vadra-28.jpg
https://c2.staticflickr.com/4/3545/3433970547_9385cb24bd_z.jpg
http://archive.tehelka.com/channels/Slider/congress/Rahul_Gandhi_Shailendra3.JPG
http://mangaloretoday.com/uploaded/Priyanka-Vadra%2028%20apr%2014.jpg
http://farm4.staticflickr.com/3353/3436968241_5ef9c1e4a3_z.jpg
http://4.bp.blogspot.com/-DdjPn68V9Cc/TmKAkLNNFzI/AAAAAAAAB7E/s54O74MYE8g/s1600/Priyanka_Gandhi_Vadra.jpg
http://4.bp.blogspot.com/-ZAErrCzaKNg/TyvZKUqM1XI/AAAAAAAABMo/tPsImJTl7_M/s200/Priyanka+Gandhi+Vadra+in+Balbhadrapur,+Amethi+UP+%282%29.jpg
http://gandhipriyanka.info/demos/images/slide-civil-2.jpg
http://odishaaffairs.tv/wp-content/uploads/2014/04/Priyanka-Vadra-1024x682-942x380.jpg
http://www.thehindu.com/multimedia/dynamic/01714/08mn_mngbr_Cong_09_1714635e.jpg
http://i1.ytimg.com/vi/gl5CagLzqT0/maxresdefault.jpg
http://drop.ndtv.com/khabar/images/51328777822_priyanka_vadra_01_120_90.jpg
http://bharatabharati.files.wordpress.com/2012/06/priyanka-gandhi-vadra-robert.jpg
http://3.bp.blogspot.com/-IC89CeZjN6g/UG8sjvzBFuI/AAAAAAAAB7s/Iefrxt70N-c/s320/Vadra_Kejriwal_gfx.jpg
http://www.thehindu.com/multimedia/dynamic/01930/02-DEVESH-VADRA_TH_1930027e.jpg
http://media2.intoday.in/indiatoday/images/stories/priyanka-vadra-3_350__043014075239.jpg
http://nimg.sulekha.com/others/original700/priyanka-gandhi-vadra-2012-2-15-8-10-25.jpg
http://www.pkp.in/images2/Priyanka%20Gandhi%20kids%20(1).jpg
https://fbcdn-profile-a.akamaihd.net/hprofile-ak-ash1/t5/371266_100003960816658_1178050255_q.jpg
http://images.indianexpress.com/2014/04/priyanka-food.jpg
http://www.thehindu.com/multimedia/dynamic/01426/TH13_PRIYANKA__VAD_1426205e.jpg
https://fbexternal-a.akamaihd.net/safe_image.php?d=AQCIhYdxzKIIfZtO
http://www.southasiamail.com/images/Priyanka.jpg
http://nimg.sulekha.com/others/thumbnailfull/priyanka-vadra-2009-4-15-11-50-6.jpg
http://media.santabanta.com/gal/event/delhi-elections-2013/delhi-elections-2013-2_th.jpg
http://amethi.in/images/rsgallery/display/Priyanka%20Gandhi%20Vadra%20campaigns%20in%20Unchahar.jpg.jpg
http://amethi.in/images/rsgallery/display/PG0018.jpg.jpg
http://www.thehindu.com/multimedia/dynamic/01929/PRIYANKA_VADRA_1929474g.jpg
http://timesofindia.indiatimes.com/thumb/msid-24145086,width-217,resizemode-4/Raebareli-Priyanka-Vadra-during-the-foundation-stone-laying-ceremony-of-the-For--.jpg
http://www.nayarajasthan.com/secure/uploadPic/Priyanka_Gandhi2.jpg
http://s3.vidimg.popscreen.com/original/28/NTkzMzMzOTUz_o_priyanka-gandhi-vadra-in-raebareli-11th-february-2012.jpg
http://images.indianexpress.com/2014/04/priyanka-vadra-pti3.jpg
http://www.images99.com/i99/01/10715/107151.jpg
http://images.indianexpress.com/2014/04/priyanka-vadra-pti2.jpg
https://c1.staticflickr.com/7/6152/6191875650_94d8590400_z.jpg
http://images.iimg.in/c/50ce73c7edaffd6ce408d7ae-4-900-700-1327065570/priyanka-gandhi-vadra-campaigns-in-raebareli-up-24.img
http://images.iimg.in/c/53514901e4eed41b7471fef4-4-460-0-1399123310/priyanka-gandhi-vadra-in-amethi-01.img
http://www.abplive.in/incoming/article13797.ece/alternates/LANDSCAPE_4_3_768/priyanka%20gandhi
http://2.bp.blogspot.com/-WxdAknvEI_M/UMC9BWF5GxI/AAAAAAAAQfA/KW7G2GppQgM/s1600/jpg.jpeg
http://1.bp.blogspot.com/-UWtbuQm-ypo/Ty5-jH8OtqI/AAAAAAAAA3E/i8sfHQGNkLY/s1600/priyanka+gandhi.jpg
http://v027o.popscreen.com/NjAxNzY3NDUz_o_priyanka-gandhi-vadra-campaigns-for-congress-in-tiloi-.jpg
http://3.bp.blogspot.com/-R3xeejoEz78/UHUvb_cByhI/AAAAAAABUbI/Uqb_U8MofVM/w470-h246-p-no/When-Priyanka-married-Robert-Vadra.jpg
http://kaw.stb.s-msn.com/i/27/A7957AAB432205E3D3E5037E0BAF9.jpg
http://dd508hmafkqws.cloudfront.net/sites/default/files/styles/article_node_view/public/PRIYANKA%20COPY.jpg
http://2.bp.blogspot.com/-sZvDZk1Mzto/UHJdm4cGI3I/AAAAAAAAJEc/jxxRI1rMpog/s1600/priyanka%2Blatest.jpg
http://www.saanj.net/public/group/60/1c/01/11a45_cb12.jpg?c=30ea
http://img.niticentral.com/2014/04/priyanka-vadra1.jpg
http://st2.india.com/wp-content/uploads/2014/05/14211_priyanka_gandhi_vadra.jpg
http://i5.dainikbhaskar.com/thumbnail/655x588/web2images/www.bhaskar.com/2014/04/24/3499_vadra-priyanka.jpg
http://www.outlookindia.com/images/shobana_priyanka_sonia_20071029.jpg
http://images.iimg.in/c/50ce73c6edaffd6ce408d74c-4-900-700-1327065534/priyanka-gandhi-vadra-campaigns-in-raebareli-up-32.img
http://media2.intoday.in/indiatoday/images/stories/2014March/priyanka-vadra-1_650_033114084840.jpg
http://images.indianexpress.com/2014/04/priyanka-vadra3.jpg
http://www.hindustantimes.com/Images/2012/2/5181db63-09ec-4e66-8893-54586e9b18fbHiRes.JPG
http://www.hindustantimes.com/Images/2012/2/5833a2ff-b573-4bf2-80a2-55c3a8f57ee1HiRes.JPG
http://www.abplive.in/incoming/article292613.ece/alternates/FREE_320/Priyanka%20Vadra%20610
http://static.dnaindia.com/sites/default/files/1433712.jpg
http://priyankagandhivadra.files.wordpress.com/2014/05/priyanka-gandhi-in-amethi.jpg
http://www.our-kerala.com/newgallery/images/photos/images/Priyanka%20Gandhi%20Wedding%20Photos_41392.jpg
http://freepressjournal.in/wp-content/uploads/2014/05/Priyanka-Gandhi.jpg
http://newstrack.outlookindia.com/images/Priyanka_Vadra2_20131118.jpg
http://www.outlookindia.com/images/glitterati_priyanka_gandhi_20050314.jpg
http://www.outlookindia.com/images/priyanka_robert_20090511.jpg
http://economictimes.indiatimes.com/thumb/msid-34538575,width-270,resizemode-4/priyanka-vadra-campaigns-for-rahul-gandhi-in-amethi.jpg
http://soniagandhicongress.files.wordpress.com/2013/05/2013_5img09_may_2013_pti5_9_2013_000136b.jpg
http://media2.intoday.in/indiatoday/images/stories/priyanka-vadra-1_350_033114084808.jpg
http://www.livemint.com/rf/Image-621x414/LiveMint/Period1/2012/10/19/Photos/robertvadr--621x414.jpg
http://farm8.staticflickr.com/7064/6851978417_536b6182f3_z.jpg
http://www.indiavision.com/news/images/articles/2012_10/357082/u8_Robert-Vadra-004.jpg
http://s3.vidimg.popscreen.com/original/4/NTkxNzkwNTUz_o_priyanka-gandhi-vadra-at-bhawanigarh-strengthen-congress.jpg
http://pgresize.outlookindia.com/images/gallery/20121008/Priyanka-Robert-Vadra3_2012.jpg.ashx?quality=40
http://s3.firstpost.in/wp-content/uploads/2013/10/01_Sonia-Gandhi-and-Priyanka-Vadra.jpg
https://lh5.googleusercontent.com/-qujDlALy4WE/UBtrKtrvtFI/AAAAAAAAABc/kwf7kJrYfic/s288/priyanka-vadra-with-rahul-gandhi-sonia-gandhi-and-robert-vadra.jpg
http://cdn2.indiavision.com/wp-content/uploads/2014/05/priyanka_gandhi_vadra-620x360.jpg
http://www.indiavision.com/news/images/articles/2012_02/279994/u8_Priyanka-Gandhi-jpg.jpg
http://images.indianexpress.com/2014/05/priyanka1.jpg
http://freepressjournal.in/wp-content/uploads/2014/04/Priyanka-Robert-Vadra.jpg
http://farm3.staticflickr.com/2703/4267922485_1f23df087d_z.jpg?zz=1
http://nimg.sulekha.com/others/original700/priyanka-gandhi-vadra-2012-2-3-5-50-5.jpg
https://c2.staticflickr.com/8/7148/6841518171_b411dda7f8_z.jpg
http://images.iimg.in/c/50ce73e2edaffd6ce408fa31-4-900-700-1329219536/priyanka-gandhi-vadra-campaigns-in-bachchrawa-raebareli-02.img
http://www.thehindu.com/multimedia/dynamic/01862/priyanka_1862841f.jpg
http://www.timescontent.com/tss/photos/preview/148635/Priyanka%20Vadra.jpg
http://img.allvoices.com/thumbs/image/550/400/102959896-priyanka-gandhi.jpg
http://photogallery.outlookindia.com/images/gallery/20140501/priyanka_1.jpg
https://s3.yimg.com/so/7169/6730461109_166be00bc7_z.jpg
http://photogallery.indiatimes.com/news/india/ls-polls-phase-iv/photo/4494704/Priyanka-Robert-Vadra-casted-vote.jpg
http://www.indiatvnews.com/upload/news/neweditor/Image/2013/politicsnational/feb/kids3.jpg
https://farm8.staticflickr.com/7023/6851430841_d4ab231246_z.jpg
http://images.indianexpress.com/2014/04/priyanka-vadra-pti.jpg
http://amethi.in/images/rsgallery/original/Priyanka%20Gandhi%20campaigns%20in%20Amethi%2014.JPG
http://media.indiatimes.in/media/content/2013/Oct/priyanka_vadra_1381745262_540x540.jpg
http://hindi.oneindia.in/img/2012/01/16-priyanka-gandhi-vadra-302.jpg
http://media2.intoday.in/indiatoday/images/stories/2012March/priyanka_032412084422.jpg
http://www.onsecrethunt.com/wallpaper/wp-content/uploads/2013/10/Priyanka-Gandhi-Vadra-540x337.jpg
https://c2.staticflickr.com/8/7049/6896102169_9f4e966974_z.jpg
http://timesofindia.indiatimes.com/thumb/msid-6778234,width-217,resizemode-4/Robert-Vadra-husband-of-Priyanka-Gandhi-Vadra.jpg
http://media2.intoday.in/indiatoday/images/stories/collage-350_020812114033.jpg
http://2.bp.blogspot.com/-ESpIN2B4ALw/UAhQl_nCLrI/AAAAAAAAADU/7Ax37Pnbuko/s1600/priyanka-gandhi-robert-vadra-2009-6-1-7-22-51.jpg
http://photogallery.outlookindia.com/images/gallery/20140416/priyanka_campaign20140416.jpg
https://farm4.staticflickr.com/3655/3446790141_006f63ed8a_z.jpg
http://b.vimeocdn.com/ts/187/620/187620394_640.jpg
http://bharatabharati.files.wordpress.com/2012/06/priyanka-gandhi-vadra-robert.jpg?w=200
http://static.sify.com/cms/image/oe4qesbdfha_medium.jpg
http://i1.ytimg.com/vi/s2O1hfmjpbg/0.jpg
http://nimg.sulekha.com/others/thumbnailfull/priyanka-gandhi-vadra-2012-2-3-9-1-39.jpg
https://s3.yimg.com/so/7157/6812142501_62f3c65c6a_z.jpg
http://photogallery.outlookindia.com/images/gallery/20140416/child_priyanka20140416.jpg
http://images.iimg.in/c/50ce73eaedaffd6ce409047f-4-641-700-1329397654/priyanka-gandhi-vadra-campaigns-in-unchahar-raebareli-up-02.img
http://media2.intoday.in/indiatoday/images/Photo_gallery/priyanka4_020912071517.jpg
https://farm4.staticflickr.com/3644/3458905699_09bcaf3049_z.jpg
https://c1.staticflickr.com/7/6074/6116234810_d90c20d738_z.jpg
http://images.iimg.in/c/50ce73e1edaffd6ce408f989-4-900-700-1329219472/priyanka-gandhi-vadra-campaigns-in-bachchrawa-raebareli-14.img
http://images.mapsofindia.com/my-india/Election-Day-46-665x665.jpg
http://farm7.staticflickr.com/6068/6116235072_1f1bb96c4b_z.jpg
http://farm4.staticflickr.com/3297/3434780738_aed7eb751d_z.jpg
http://static.indianexpress.com/pic/uploadedImages/bigImages/B_Id_411730_Miraya_Vadra.jpg
http://photogallery.outlookindia.com/images/gallery/20140426/priyanka_rally20140426.jpg
http://cdn3.indiavision.com/wp-content/uploads/2014/04/priyanka_gandhi.jpg
http://images.iimg.in/c/5351491a70b1726bd46de4b3-4-460-0-1397911554/priyanka-gandhi-vadra-in-amethi-05.JPG
http://www.telegraphindia.com/legacy/1050821/images/21priyanka1.jpg
http://farm5.staticflickr.com/4068/4268182081_951fbb11d0_z.jpg?zz=1
http://www.livemint.com/rf/Image-621x414/LiveMint/Period1/2014/01/10/Photos/Copy%20of%20Priyanka%20Gandhi.jpg
http://images.indianexpress.com/2014/04/priyanka-vadra-pti4.jpg
http://images.indianexpress.com/2014/04/thumb219.jpg?w=410
http://www.images99.com/i99/01/10719/10719.jpg
http://kaw.stb.s-msn.com/i/B1/EEB105D9637497C7B34C6556FF43E.jpg
http://images.iimg.in/c/50ce73d7edaffd6ce408ecad-4-900-700-1328539288/priyanka-gandhi-vadra-campaigns-in-amethi-up-11.img
http://www.yespunjab.com/images/national1/Manmohan-Priyanka-Vadra-Nat1.jpg
http://d2yhexj5rb8c94.cloudfront.net/sites/default/files/styles/article_node_view/public/priyanka-gandhi-and-robert-.jpg
http://www.telegraphindia.com/1080315/images/15priyanka.jpg
http://farm3.staticflickr.com/2801/4268122959_4efb702c4a_z.jpg?zz=1
http://www.filmitadka.in/images/stories/gossip/priyanka-chopra-blenders-pride.jpg
http://d1dfn78x11yngl.cloudfront.net/sites/default/files/2014/01/13/1947020.jpg
http://photogallery.indiatimes.com/events/delhi/aman-ki-asha-campaign/Priyanka-Vadra-Robert-Vadra-Rahul-Gandhi/photo/5455151/Priyanka-Vadra-Robert-Vadra-Rahul-Gandhi.jpg
http://img.allvoices.com/thumbs/image/609/480/102689475-priyanka-gandhi.jpg
http://ktsarangan.files.wordpress.com/2009/05/indias-congress-party-president-sonia-gandhi-r-her-daughter-priyanka-gandhi-2r-her-son-rahul-gandhi-2l-and-husband-of-priyanka-robert-vadra-c-walk.jpg%3Fw%3D500
http://2.bp.blogspot.com/-l2Da8fOP1VY/TpUynQ49nwI/AAAAAAAAAUM/6igLg0TRmgI/s320/priyanka-gandhi-robert-vadra.jpg
http://farm8.staticflickr.com/7208/6885818657_1e0984b824_b.jpg
http://i1.ytimg.com/vi/Tjzv9PLmL7E/maxresdefault.jpg
http://indologygoa.files.wordpress.com/2012/04/robert-vadra-cartoon-1.jpg
http://d2yhexj5rb8c94.cloudfront.net/sites/default/files/styles/article_node_view/public/priyanka%20gandhi%20in%20Amethi%205%20-%20PTI.jpg
http://static.indianexpress.com/m-images/Sat%20Feb%2004%202012,%2002:57%20hrs/M_Id_266229_Priyanka_Gandhi_Vadra.jpg
http://hindi.way2movies.com/wp-content/uploads/2010/04/Katrina-Kaif-12.jpg
http://www.thehindu.com/multimedia/dynamic/01857/th22-khogen-Pri_23_1857824e.jpg
http://cms.outlookindia.com/Uploads/outlookindia/2012/20121008/priyanka_gandhi_20121001.jpg
http://images.indianexpress.com/2014/04/priyanka32.jpg
http://cache4.asset-cache.net/gc/184389847-priyanka-gandhi-vadra-the-daughter-of-indian-gettyimages.jpg?v=1
http://cdn.cnwimg.com/wp-content/uploads/2011/10/Robert-Vadra-net-worth.jpg
http://i1.ytimg.com/vi/eM1Dn51YTjc/hqdefault.jpg
http://www.punjabhub.com/wp-content/uploads/2014/05/priyanka1-300x239.png
http://1.bp.blogspot.com/-krWZvFlIGiM/UHfBcDzvEJI/AAAAAAAAAL0/nLfFlidAjQI/s1600/Priyanka-Robert-Vadra4_20121008.jpeg
http://4.bp.blogspot.com/-fNTAn0G1pr8/UmAUoSvnncI/AAAAAAAAAco/fr_qM8ReLe8/s1600/priyanka-rahul.jpg
http://images.indianexpress.com/2014/04/priyanka24.jpg
http://cache1.asset-cache.net/gc/174704195-priyanka-vadra-daughter-of-sonia-gandhi-with-gettyimages.jpg?v=1
http://photos.geni.com/p13/53/ab/a7/83/53444838c5518f90/het38nej_medium.jpg
http://topnews.in/law/files/priyanka-gandhi-21.jpg
http://i.dailymail.co.uk/i/pix/2014/02/02/article-2550580-1B287BC100000578-856_233x423.jpg
https://s3.yimg.com/so/7144/6730473677_264e11d2a7_z.jpg
http://4.bp.blogspot.com/-GY4FsADvtAc/UHqZs2ZMLJI/AAAAAAAATqw/ukzP4cRdJCE/s1600/ScreenShot434.bmp
http://images.indianexpress.com/2014/05/priyanka4.jpg
http://media2.intoday.in/indiatoday/images/Photo_gallery/0114101120071.jpg
http://farm8.staticflickr.com/7166/6847102341_837ab470f1_z.jpg
http://images.indianexpress.com/2014/04/priyanka-31.jpg
http://www.hindu.com/gallery/0179/017912.jpg
http://farm8.staticflickr.com/7167/6730482537_9bf46e9b07_z.jpg
http://cache4.asset-cache.net/gc/176975196-priyanka-vadra-along-with-her-daughter-gettyimages.jpg?v=1
http://media2.intoday.in/indiatoday/images/stories/priyanka_gandhi_350_031913015947.jpg
http://images.iimg.in/c/50ce73e2edaffd6ce408f9f9-4-900-700-1329219517/priyanka-gandhi-vadra-campaigns-in-bachchrawa-raebareli-06.img
http://timesofindia.indiatimes.com/photo/11882525.cms
http://a.l.yimg.com/sn/6075/6081772307_03d8935f1f_z.jpg
http://farm8.staticflickr.com/7021/6841521413_b6d893923f_z.jpg
http://hindi.oneindia.in/img/2013/05/20-1369039071-priyanka-vadra-600.jpg
http://images.iimg.in/c/5351490de4eed4007471ff13-4-900-700-1397836047/priyanka-gandhi-vadra-in-amethi-03.img
http://farm8.staticflickr.com/7167/6730481793_7613cffb21_z.jpg
https://c1.staticflickr.com/3/2111/5754896772_9bba6f6a61_z.jpg
http://dbsjeyaraj.com/dbsj/wp-content/uploads/2012/10/RG10512.jpg
http://www.thehindu.com/multimedia/dynamic/01857/th22-khogen-Pri_23_1857824g.jpg
https://s3.yimg.com/so/7022/6812138969_cf5f8bd009_z.jpg
https://c2.staticflickr.com/4/3665/13924238383_25f7e73443_z.jpg
http://media.santabanta.com/gal/Event/Delhi-Elections-2013/delhi-elections-2013-11.jpg
http://images.indianexpress.com/2014/04/priyanka-women1.jpg
http://priyankagandhivadra.files.wordpress.com/2014/05/priyanka-gandhi-campaigns-in-amethi-11.jpg
http://photogallery.outlookindia.com/images/gallery/20140416/priyanka_people20140416.jpg
http://media2.intoday.in/indiatoday/images/stories/priyanka_350_011612094847.jpg
https://farm8.staticflickr.com/7049/6896102169_9f4e966974_z.jpg
http://images.indianexpress.com/2014/04/priyanka-oldwoman.jpg
http://missmalini.files.wordpress.com/2009/03/priyanka.jpg
http://www.ndtv.com/news/2014/04/26/images/story_page/Priyanka_Gandhi_Amethi_PTI_360.jpg
http://www.hindu.com/2003/10/11/images/2003101102882001.jpg
http://daylifeimages.newscred.com/imageserve/3f8e3a82781a10ba9e0ec306e0adbd6d/650x.jpg?fit=scale
http://s3.vidimg.popscreen.com/original/6/NjA0MTc5ODUz_o_priyanka-gandhi-vadra-in-salon-amethi-right-to-vote-is-.jpg
http://www.hindustantoday.com/wp-content/uploads/2012/10/Vadra-Robers-misusing-power-of-mother-in-law.jpg
http://www.indiatvnews.com/upload/news/neweditor/Image/2013/politicsnational/feb/kids1.jpg
http://images22.com/pics/04/priyanka-vadra-in-a-ceremony.jpg
http://hindi.oneindia.in/img/2012/02/05-priyanka-gandhi-vadra-300.jpg
http://www.bollywood.com/files/images/katrinaraajneetipromo.nodedisplay.jpg
http://farm4.staticflickr.com/3574/3441310639_fe8b4b68e3_z.jpg
http://s3.vidimg.popscreen.com/original/23/NTkzNzE2MTUz_o_priyanka-gandhi-vadra-in-amethi-says-that-state-.jpg
http://www.images22.com/pics/04/priyanka-vadra-addressing-to-a-rally.jpg
http://farm7.staticflickr.com/6015/6191354609_b65855fcc8_z.jpg
http://farm3.staticflickr.com/2706/4268182097_57c8e7da68_z.jpg?zz=1
http://www.filmitadka.in/images/joomgallery/originals/actresses_2/priyanka_chopra_229/priyanka_chopra_20120826_1533180587.jpg
http://farm8.staticflickr.com/7184/6838566764_1dc451029e_z.jpg
